Actividad 1/ALL0003/A0003CH1.CSV

Memory Length,4000,
Trigger Level,3.920E-01,
Source,CH1,
Probe,1X,
Vertical Units,V,
Vertical Scale,1.000E+00,
Vertical Position,-2.000E+00,
Horizontal Units,s,
Horizontal Scale,5.000E-02,
Horizontal Position,0.000E+00,
Horizontal Mode,Main,
Sampling Period,2.000E-04,
Firmware,V1.11,
Time, ,
Mode,Fast,
Waveform Data,
128,
128,
2,
2,
2,
2,
2,
2,
3,
2,
2,
2,
2,
2,
2,
2,
3,
2,
2,
2,
2,
2,
2,
2,
2,
2,
2,
2,
2,
2,
2,
2,
2,
3,
2,
2,
3,
2,
2,
2,
2,
2,
2,
3,
2,
2,
3,
3,
2,
2,
2,
2,
2,
2,
2,
2,
2,
2,
2,
2,
3,
2,
2,
2,
3,
3,
2,
2,
2,
3,
2,
2,
2,
2,
2,
2,
2,
2,
2,
2,
2,
2,
2,
2,
2,
2,
3,
2,
2,
2,
2,
2,
2,
2,
2,
2,
3,
2,
2,
2,
2,
3,
2,
2,
2,
2,
2,
2,
2,
2,
2,
2,
2,
2,
2,
3,
2,
2,
2,
3,
2,
2,
2,
2,
2,
2,
2,
2,
2,
2,
2,
2,
2,
2,
2,
2,
2,
2,
2,
2,
2,
3,
2,
2,
2,
2,
2,
2,
2,
2,
2,
3,
3,
2,
2,
2,
2,
2,
2,
2,
2,
2,
2,
2,
2,
2,
1,
2,
3,
2,
2,
2,
2,
2,
2,
2,
2,
2,
2,
2,
2,
3,
2,
2,
2,
2,
2,
2,
3,
2,
2,
2,
2,
2,
2,
2,
2,
2,
2,
2,
2,
2,
2,
2,
2,
2,
2,
3,
2,
2,
2,
2,
2,
2,
2,
2,
2,
2,
2,
3,
2,
2,
2,
2,
2,
2,
2,
2,
2,
2,
2,
2,
3,
2,
2,
2,
2,
2,
2,
2,
2,
3,
2,
2,
2,
2,
2,
2,
2,
2,
2,
2,
2,
2,
2,
2,
2,
2,
2,
2,
3,
2,
2,
2,
2,
2,
2,
2,
2,
2,
2,
2,
2,
2,
2,
2,
2,
2,
2,
2,
2,
2,
2,
2,
2,
2,
2,
2,
2,
2,
2,
2,
2,
2,
2,
2,
2,
2,
2,
2,
3,
2,
2,
2,
2,
2,
2,
2,
2,
2,
2,
2,
2,
2,
2,
2,
2,
2,
2,
2,
2,
1,
2,
2,
2,
2,
2,
2,
2,
2,
2,
2,
2,
2,
2,
2,
3,
2,
3,
3,
2,
3,
2,
2,
2,
2,
2,
2,
2,
2,
2,
2,
2,
2,
1,
2,
2,
2,
2,
2,
2,
2,
2,
2,
2,
2,
2,
2,
2,
3,
2,
2,
3,
2,
2,
2,
2,
2,
2,
2,
2,
2,
3,
2,
2,
2,
2,
2,
2,
2,
2,
2,
3,
2,
3,
2,
2,
2,
2,
2,
2,
2,
3,
2,
2,
2,
1,
2,
2,
2,
2,
2,
2,
2,
2,
2,
2,
2,
2,
3,
2,
2,
2,
2,
2,
3,
2,
2,
2,
2,
3,
2,
2,
2,
2,
2,
2,
3,
2,
2,
2,
3,
2,
2,
2,
2,
3,
2,
2,
2,
2,
2,
2,
2,
2,
2,
2,
2,
2,
3,
3,
2,
3,
2,
3,
3,
2,
2,
2,
2,
2,
2,
2,
2,
2,
2,
2,
3,
3,
2,
2,
2,
2,
2,
2,
2,
2,
2,
2,
2,
2,
2,
2,
2,
2,
2,
2,
2,
2,
2,
2,
2,
2,
2,
2,
2,
2,
2,
3,
3,
2,
2,
2,
2,
2,
2,
3,
3,
2,
2,
2,
2,
2,
3,
2,
2,
2,
2,
2,
2,
2,
2,
3,
3,
2,
2,
2,
2,
2,
2,
2,
2,
2,
2,
2,
2,
2,
2,
3,
2,
2,
2,
2,
2,
2,
2,
3,
2,
2,
2,
2,
2,
2,
2,
2,
3,
2,
2,
2,
2,
2,
2,
3,
2,
2,
2,
2,
2,
2,
3,
3,
3,
2,
2,
2,
2,
2,
2,
2,
2,
2,
2,
2,
2,
2,
2,
2,
2,
2,
2,
2,
2,
2,
2,
2,
2,
2,
2,
2,
2,
2,
2,
2,
1,
2,
2,
2,
2,
3,
2,
2,
2,
2,
2,
2,
2,
3,
2,
2,
2,
3,
2,
2,
3,
2,
2,
2,
2,
2,
2,
2,
2,
2,
2,
2,
2,
2,
3,
2,
2,
2,
2,
2,
2,
2,
2,
2,
2,
2,
2,
2,
2,
2,
3,
2,
2,
2,
2,
2,
2,
2,
2,
2,
2,
2,
2,
2,
2,
2,
2,
2,
3,
2,
2,
2,
2,
2,
2,
2,
2,
3,
2,
2,
3,
2,
2,
2,
2,
2,
3,
2,
2,
3,
2,
2,
2,
2,
2,
2,
3,
2,
2,
2,
2,
2,
2,
2,
3,
2,
2,
2,
2,
2,
2,
2,
2,
2,
2,
3,
2,
2,
2,
2,
2,
3,
3,
2,
2,
2,
2,
2,
2,
2,
2,
3,
2,
2,
2,
2,
2,
2,
3,
2,
2,
2,
2,
3,
2,
2,
2,
2,
3,
2,
2,
2,
2,
2,
2,
2,
2,
2,
2,
3,
2,
2,
2,
2,
2,
2,
2,
2,
2,
2,
2,
2,
2,
2,
2,
2,
2,
2,
2,
2,
2,
2,
2,
2,
2,
2,
3,
2,
2,
2,
3,
2,
2,
2,
2,
3,
2,
2,
2,
2,
2,
3,
2,
2,
2,
2,
2,
3,
2,
2,
2,
2,
2,
2,
2,
2,
2,
2,
2,
2,
2,
2,
2,
2,
3,
2,
2,
2,
2,
2,
2,
2,
2,
2,
2,
3,
2,
2,
2,
2,
2,
2,
2,
2,
2,
2,
2,
2,
2,
3,
2,
2,
2,
2,
2,
2,
2,
2,
2,
2,
2,
2,
2,
2,
2,
2,
2,
2,
2,
2,
2,
2,
2,
2,
2,
2,
2,
2,
3,
2,
2,
2,
2,
2,
2,
2,
2,
2,
2,
2,
2,
2,
2,
2,
2,
2,
2,
2,
2,
2,
2,
2,
2,
2,
2,
3,
3,
2,
2,
2,
2,
2,
2,
2,
2,
2,
2,
2,
2,
3,
2,
2,
2,
2,
2,
2,
2,
2,
2,
2,
2,
2,
3,
2,
2,
2,
2,
2,
3,
2,
2,
2,
2,
2,
2,
2,
2,
3,
2,
2,
2,
2,
3,
3,
2,
2,
2,
2,
2,
3,
2,
2,
3,
2,
2,
2,
2,
2,
2,
2,
3,
2,
2,
2,
2,
2,
2,
2,
2,
3,
3,
2,
2,
2,
2,
2,
2,
2,
2,
2,
2,
2,
2,
2,
2,
2,
2,
3,
2,
2,
3,
2,
2,
2,
3,
2,
2,
2,
2,
2,
2,
2,
2,
2,
2,
3,
2,
2,
2,
2,
2,
2,
2,
2,
2,
2,
3,
2,
2,
2,
2,
2,
2,
2,
2,
3,
2,
2,
2,
2,
2,
2,
2,
2,
2,
3,
2,
2,
2,
2,
2,
2,
2,
2,
2,
2,
3,
2,
2,
2,
2,
2,
2,
3,
3,
2,
2,
2,
2,
2,
3,
2,
2,
3,
2,
3,
2,
2,
2,
2,
2,
2,
2,
3,
3,
2,
2,
2,
2,
2,
2,
2,
2,
2,
2,
2,
2,
2,
2,
2,
2,
2,
2,
2,
2,
2,
2,
2,
2,
2,
2,
2,
2,
3,
2,
2,
2,
2,
2,
2,
2,
2,
2,
2,
2,
2,
2,
2,
2,
2,
2,
2,
3,
2,
2,
2,
2,
3,
2,
2,
2,
3,
2,
2,
2,
2,
2,
2,
3,
3,
2,
2,
2,
3,
2,
2,
2,
2,
2,
2,
2,
2,
2,
2,
2,
2,
2,
2,
3,
3,
2,
2,
3,
2,
2,
2,
2,
2,
2,
2,
3,
2,
3,
2,
2,
2,
2,
2,
2,
3,
2,
2,
2,
2,
2,
2,
2,
2,
2,
2,
2,
3,
2,
2,
2,
2,
2,
2,
2,
2,
2,
2,
3,
2,
2,
2,
2,
2,
2,
2,
2,
2,
2,
2,
2,
3,
2,
2,
2,
2,
2,
2,
2,
3,
2,
2,
2,
2,
2,
2,
2,
2,
2,
2,
2,
2,
2,
2,
2,
2,
2,
2,
2,
3,
2,
2,
3,
2,
2,
2,
2,
3,
2,
2,
2,
3,
2,
2,
2,
2,
2,
2,
2,
2,
2,
2,
2,
2,
2,
2,
2,
2,
2,
2,
2,
3,
2,
2,
3,
2,
2,
2,
2,
2,
2,
2,
2,
2,
2,
2,
2,
2,
2,
2,
2,
2,
2,
2,
2,
2,
2,
3,
3,
2,
2,
2,
2,
2,
2,
2,
3,
2,
2,
2,
2,
2,
2,
2,
2,
3,
2,
2,
2,
2,
2,
2,
2,
3,
2,
2,
2,
2,
2,
2,
2,
2,
2,
2,
3,
2,
2,
2,
2,
3,
2,
2,
2,
2,
2,
2,
2,
2,
2,
2,
2,
2,
2,
2,
2,
2,
2,
2,
2,
2,
3,
2,
2,
2,
2,
2,
2,
2,
2,
2,
3,
2,
2,
2,
2,
2,
3,
2,
2,
2,
2,
3,
2,
2,
2,
2,
2,
2,
2,
3,
3,
2,
2,
3,
2,
2,
3,
2,
2,
2,
3,
2,
3,
2,
3,
2,
2,
2,
2,
2,
2,
2,
3,
2,
2,
3,
2,
2,
2,
2,
2,
2,
2,
2,
2,
2,
2,
2,
2,
2,
2,
2,
2,
2,
2,
2,
3,
2,
2,
2,
2,
2,
3,
2,
3,
2,
2,
2,
2,
2,
2,
2,
2,
2,
3,
2,
3,
2,
2,
2,
2,
2,
2,
2,
2,
2,
3,
2,
2,
2,
2,
2,
2,
2,
2,
3,
3,
3,
2,
2,
2,
2,
2,
3,
2,
2,
2,
2,
3,
2,
2,
2,
2,
2,
3,
2,
2,
2,
2,
2,
2,
2,
2,
2,
2,
2,
2,
2,
2,
2,
2,
3,
2,
2,
2,
2,
2,
2,
2,
2,
3,
2,
2,
2,
2,
2,
2,
2,
2,
2,
2,
2,
2,
2,
2,
2,
2,
3,
2,
2,
2,
2,
2,
2,
2,
2,
2,
2,
2,
2,
3,
2,
2,
2,
2,
2,
2,
2,
2,
2,
2,
2,
2,
2,
3,
2,
2,
2,
2,
2,
2,
2,
2,
2,
2,
2,
2,
2,
2,
2,
2,
2,
2,
2,
2,
2,
2,
2,
2,
2,
3,
2,
3,
2,
2,
2,
3,
3,
2,
2,
2,
2,
2,
2,
2,
2,
2,
2,
2,
3,
2,
2,
2,
2,
2,
2,
2,
2,
2,
2,
2,
2,
2,
2,
2,
2,
2,
3,
2,
2,
2,
2,
2,
2,
2,
3,
3,
2,
2,
2,
2,
3,
3,
2,
2,
2,
2,
2,
2,
2,
2,
2,
2,
2,
2,
2,
2,
2,
2,
2,
2,
2,
2,
2,
2,
2,
2,
2,
3,
2,
2,
2,
2,
2,
2,
2,
2,
2,
3,
2,
2,
2,
2,
3,
2,
2,
2,
2,
2,
2,
2,
2,
2,
2,
2,
2,
2,
2,
3,
2,
2,
2,
2,
2,
2,
2,
2,
2,
2,
2,
2,
2,
2,
2,
2,
2,
2,
2,
2,
2,
2,
3,
3,
2,
2,
2,
2,
2,
2,
2,
2,
2,
2,
2,
2,
2,
2,
2,
2,
2,
2,
2,
2,
2,
2,
2,
2,
2,
2,
2,
2,
3,
2,
2,
2,
3,
3,
2,
2,
3,
2,
3,
2,
2,
2,
2,
2,
2,
3,
2,
2,
2,
3,
2,
2,
2,
2,
2,
2,
2,
3,
2,
2,
2,
2,
2,
2,
2,
2,
2,
2,
2,
2,
2,
3,
2,
2,
2,
2,
2,
2,
2,
2,
2,
2,
2,
2,
3,
3,
2,
2,
2,
3,
2,
2,
2,
2,
2,
2,
2,
2,
2,
2,
2,
2,
2,
2,
2,
2,
3,
2,
2,
2,
2,
2,
2,
3,
2,
3,
2,
2,
3,
2,
2,
2,
2,
2,
2,
2,
2,
2,
3,
2,
2,
2,
2,
2,
3,
3,
2,
3,
2,
2,
2,
3,
2,
2,
2,
2,
2,
2,
2,
2,
2,
2,
2,
2,
2,
2,
2,
2,
3,
2,
2,
2,
2,
2,
2,
2,
2,
2,
2,
2,
2,
2,
2,
2,
2,
2,
2,
2,
2,
2,
3,
2,
2,
2,
2,
2,
2,
2,
2,
2,
2,
2,
2,
2,
3,
2,
2,
2,
2,
2,
2,
2,
2,
2,
3,
2,
2,
2,
2,
2,
2,
2,
2,
2,
2,
2,
2,
2,
2,
2,
2,
2,
2,
3,
2,
2,
2,
2,
2,
2,
2,
2,
2,
3,
2,
2,
3,
2,
129,
129,
128,
127,
128,
128,
128,
127,
127,
127,
126,
126,
126,
126,
126,
126,
126,
126,
126,
126,
126,
126,
126,
127,
126,
126,
127,
127,
127,
127,
126,
128,
128,
128,
128,
128,
128,
128,
128,
129,
128,
128,
129,
128,
129,
128,
128,
129,
129,
129,
129,
129,
129,
128,
129,
128,
129,
129,
129,
128,
128,
129,
128,
128,
128,
128,
128,
128,
128,
128,
128,
128,
128,
128,
128,
128,
128,
127,
128,
128,
128,
128,
128,
128,
128,
128,
129,
129,
128,
128,
128,
128,
128,
129,
128,
128,
128,
128,
128,
128,
128,
129,
128,
128,
128,
128,
128,
128,
127,
128,
128,
127,
128,
128,
128,
128,
128,
128,
128,
128,
128,
128,
128,
128,
128,
128,
127,
128,
128,
128,
128,
129,
128,
128,
128,
128,
128,
128,
129,
127,
128,
128,
128,
128,
127,
128,
128,
128,
127,
127,
128,
128,
129,
129,
128,
128,
129,
129,
128,
128,
129,
128,
128,
129,
128,
129,
128,
128,
128,
128,
128,
128,
128,
128,
128,
129,
129,
128,
128,
128,
128,
128,
128,
128,
128,
128,
128,
128,
128,
128,
128,
128,
128,
128,
128,
128,
128,
128,
128,
128,
128,
129,
128,
128,
129,
129,
128,
128,
129,
129,
129,
128,
128,
128,
128,
129,
128,
128,
128,
129,
129,
128,
128,
128,
128,
128,
128,
128,
128,
128,
127,
129,
127,
128,
128,
128,
128,
128,
128,
128,
128,
128,
128,
128,
128,
128,
128,
129,
128,
127,
128,
129,
128,
129,
129,
128,
128,
128,
129,
128,
128,
129,
128,
128,
128,
128,
128,
128,
128,
128,
128,
129,
128,
128,
128,
129,
128,
128,
128,
129,
129,
128,
128,
128,
129,
128,
128,
128,
129,
128,
129,
128,
128,
128,
128,
129,
129,
129,
129,
128,
129,
128,
128,
128,
129,
129,
127,
128,
128,
128,
128,
128,
128,
128,
128,
129,
128,
129,
128,
129,
128,
128,
129,
129,
129,
128,
129,
128,
128,
129,
128,
128,
128,
128,
128,
127,
128,
128,
129,
129,
127,
128,
129,
128,
128,
128,
128,
128,
128,
128,
129,
128,
129,
128,
128,
128,
128,
128,
128,
129,
128,
129,
128,
128,
128,
128,
128,
128,
128,
128,
128,
128,
129,
128,
129,
128,
128,
128,
128,
129,
128,
129,
128,
127,
128,
128,
128,
128,
128,
128,
128,
128,
129,
128,
129,
128,
129,
128,
128,
128,
129,
129,
128,
128,
128,
128,
128,
128,
128,
128,
128,
129,
129,
128,
128,
128,
129,
128,
128,
128,
127,
128,
129,
128,
128,
128,
128,
127,
129,
128,
128,
128,
129,
128,
128,
128,
128,
127,
128,
128,
128,
128,
127,
128,
129,
128,
128,
128,
128,
128,
128,
128,
128,
128,
129,
129,
128,
129,
128,
128,
129,
129,
128,
128,
128,
128,
129,
128,
128,
129,
128,
129,
128,
128,
128,
129,
128,
128,
129,
128,
128,
128,
129,
128,
128,
128,
128,
128,
128,
129,
129,
128,
128,
128,
128,
128,
128,
128,
128,
129,
129,
129,
128,
128,
128,
128,
128,
128,
128,
128,
127,
129,
128,
128,
128,
128,
128,
128,
128,
128,
129,
128,
128,
128,
129,
128,
128,
130,
128,
128,
129,
128,
128,
129,
127,
128,
127,
128,
128,
129,
128,
129,
128,
128,
128,
128,
129,
129,
128,
128,
129,
128,
128,
128,
128,
129,
129,
127,
128,
128,
128,
128,
128,
128,
129,
128,
128,
128,
128,
129,
128,
128,
128,
128,
128,
128,
128,
128,
128,
128,
128,
128,
127,
128,
129,
128,
129,
128,
129,
129,
129,
129,
128,
128,
128,
128,
129,
129,
129,
129,
129,
128,
127,
129,
128,
128,
128,
129,
129,
129,
128,
128,
128,
128,
129,
128,
128,
128,
128,
128,
129,
129,
129,
128,
128,
128,
128,
129,
129,
129,
128,
128,
127,
128,
129,
128,
128,
128,
128,
127,
129,
128,
128,
128,
128,
128,
128,
128,
128,
128,
129,
128,
128,
128,
127,
129,
128,
128,
128,
128,
129,
129,
128,
128,
128,
129,
128,
128,
128,
128,
128,
129,
128,
129,
128,
128,
128,
128,
129,
129,
128,
128,
129,
129,
128,
128,
128,
129,
128,
128,
128,
128,
129,
128,
128,
129,
127,
128,
128,
128,
129,
127,
128,
128,
129,
128,
128,
129,
128,
128,
129,
128,
128,
128,
128,
128,
128,
128,
129,
128,
128,
129,
128,
128,
128,
127,
129,
128,
128,
129,
128,
128,
128,
128,
128,
128,
128,
129,
128,
128,
128,
128,
128,
128,
128,
129,
128,
128,
128,
128,
129,
129,
129,
128,
128,
129,
128,
129,
129,
128,
129,
129,
128,
129,
129,
129,
128,
128,
128,
128,
129,
128,
129,
128,
128,
128,
128,
129,
128,
129,
128,
128,
129,
129,
128,
129,
129,
128,
128,
129,
128,
128,
128,
129,
128,
129,
129,
128,
128,
129,
129,
129,
128,
128,
128,
129,
128,
128,
129,
128,
128,
128,
128,
128,
128,
128,
129,
128,
128,
129,
128,
128,
129,
128,
128,
128,
128,
128,
128,
128,
128,
129,
128,
129,
128,
128,
128,
128,
128,
128,
128,
127,
128,
129,
129,
128,
129,
128,
128,
129,
129,
129,
128,
129,
128,
129,
129,
128,
128,
128,
128,
129,
128,
128,
129,
128,
128,
129,
128,
128,
128,
129,
128,
128,
128,
128,
128,
128,
128,
128,
128,
128,
129,
128,
129,
128,
128,
129,
129,
128,
128,
128,
128,
128,
128,
129,
128,
128,
127,
128,
129,
129,
128,
128,
128,
127,
128,
128,
128,
128,
128,
128,
128,
128,
129,
129,
129,
128,
128,
128,
129,
128,
128,
129,
128,
129,
127,
128,
128,
128,
128,
129,
128,
128,
128,
129,
129,
129,
128,
128,
128,
129,
128,
128,
128,
128,
128,
129,
128,
128,
129,
129,
129,
128,
128,
128,
128,
128,
128,
128,
129,
128,
128,
128,
128,
129,
128,
128,
129,
128,
129,
129,
128,
128,
128,
128,
128,
129,
129,
129,
128,
128,
129,
129,
128,
128,
128,
128,
128,
128,
129,
128,
129,
128,
128,
128,
128,
129,
128,
128,
129,
128,
128,
128,
129,
129,
128,
128,
129,
128,
128,
128,
128,
129,
128,
128,
129,
128,
128,
128,
128,
129,
129,
128,
128,
128,
128,
128,
128,
128,
128,
128,
128,
129,
128,
128,
129,
128,
128,
128,
128,
128,
128,
128,
128,
128,
128,
128,
128,
128,
128,
128,
129,
128,
129,
128,
128,
129,
128,
128,
129,
128,
128,
129,
128,
129,
128,
128,
129,
129,
128,
128,
128,
128,
129,
128,
128,
129,
128,
129,
128,
128,
129,
128,
129,
128,
127,
128,
127,
128,
128,
129,
128,
128,
128,
128,
128,
128,
128,
128,
129,
128,
129,
128,
128,
128,
128,
128,
128,
128,
129,
128,
128,
128,
128,
129,
129,
128,
129,
129,
128,
129,
128,
128,
128,
128,
128,
129,
129,
128,
128,
128,
129,
128,
128,
128,
128,
129,
128,
128,
128,
128,
128,
128,
128,
128,
128,
129,
129,
128,
128,
128,
129,
129,
129,
128,
129,
128,
129,
129,
129,
128,
129,
128,
128,
128,
128,
128,
128,
128,
128,
129,
127,
128,
128,
128,
128,
127,
128,
129,
129,
128,
128,
129,
128,
128,
128,
128,
128,
128,
128,
129,
128,
128,
128,
128,
128,
128,
128,
128,
128,
128,
128,
128,
128,
128,
129,
129,
128,
128,
128,
128,
129,
129,
128,
128,
129,
128,
128,
128,
128,
128,
128,
128,
128,
128,
128,
128,
128,
129,
129,
128,
129,
129,
128,
129,
129,
128,
128,
128,
129,
128,
129,
128,
128,
128,
128,
128,
128,
128,
128,
128,
128,
128,
128,
128,
129,
128,
128,
128,
129,
128,
129,
128,
128,
129,
128,
128,
128,
128,
127,
129,
129,
128,
128,
128,
128,
129,
128,
129,
128,
128,
129,
129,
128,
129,
128,
128,
127,
128,
128,
128,
128,
128,
128,
128,
128,
128,
128,
129,
128,
127,
129,
128,
129,
128,
128,
129,
128,
128,
127,
128,
128,
128,
128,
129,
129,
129,
128,
128,
128,
129,
129,
129,
128,
128,
129,
128,
128,
129,
128,
128,
129,
128,
128,
129,
128,
129,
128,
129,
128,
128,
128,
127,
128,
128,
129,
128,
128,
128,
128,
129,
128,
128,
128,
128,
128,
128,
128,
128,
128,
129,
127,
128,
128,
128,
128,
128,
129,
128,
128,
128,
128,
128,
128,
128,
129,
129,
128,
128,
129,
128,
128,
129,
128,
129,
128,
128,
128,
128,
129,
129,
128,
129,
129,
128,
129,
128,
129,
128,
129,
128,
128,
128,
128,
129,
128,
129,
128,
129,
128,
128,
128,
128,
129,
128,
128,
128,
128,
128,
129,
128,
129,
128,
128,
129,
128,
129,
129,
128,
129,
128,
129,
129,
128,
128,
128,
128,
128,
128,
128,
128,
127,
128,
129,
128,
128,
128,
128,
128,
128,
128,
127,
128,
128,
128,
129,
129,
128,
128,
129,
128,
128,
129,
128,
129,
128,
128,
129,
128,
129,
128,
128,
128,
129,
129,
129,
129,
129,
128,
128,
128,
128,
129,
128,
128,
129,
129,
128,
128,
129,
129,
129,
128,
129,
128,
128,
128,
128,
128,
128,
129,
128,
128,
129,
128,
128,
129,
128,
128,
129,
128,
128,
128,
128,
127,
129,
128,
128,
128,
129,
128,
128,
128,
129,
128,
129,
128,
128,
129,
128,
128,
128,
128,
128,
128,
128,
128,
128,
128,
129,
129,
128,
129,
128,
129,
129,
129,
128,
129,
128,
128,
128,
129,
129,
129,
129,
129,
128,
129,
128,
128,
128,
128,
128,
128,
128,
129,
129,
128,
128,
128,
128,
129,
129,
129,
128,
128,
129,
128,
128,
128,
128,
128,
128,
129,
129,
128,
129,
129,
129,
128,
129,
129,
129,
129,
128,
128,
128,
128,
128,
129,
128,
128,
128,
128,
128,
128,
129,
129,
129,
129,
128,
129,
129,
128,
129,
128,
129,
128,
128,
128,
128,
128,
129,
128,
128,
127,
129,
129,
128,
128,
128,
128,
128,
129,
127,
128,
128,
127,
127,
128,
128,
128,
128,
129,
128,
128,
129,
129,
129,
129,
129,
128,
128,
129,
128,
128,
128,
129,
128,
128,
128,
128,
128,
128,
127,
129,
129,
128,
129,
128,
128,
129,
128,
129,
130,
129,
129,
128,
128,
127,
128,
129,
129,
128,
128,
128,
128,
129,
128,
128,
129,
128,
129,
128,
129,
128,
128,
128,
129,
129,
129,
128,
128,
128,
128,
128,
128,
128,
128,
128,
129,
128,
128,
128,
127,
128,
128,
128,
128,
128,
128,
128,
128,
129,
129,
129,
128,
129,
129,
128,
129,
128,
129,
128,
128,
128,
128,
128,
128,
129,
128,
128,
128,
128,
128,
129,
128,
128,
129,
129,
128,
128,
127,
129,
128,
128,
128,
128,
128,
129,
128,
128,
128,
128,
128,
128,
128,
128,
128,
129,
128,
128,
128,
129,
127,
128,
128,
128,
127,
128,
128,
128,
127,
128,
128,
129,
128,
128,
128,
128,
128,
128,
128,
129,
129,
128,
128,
129,
128,
128,
128,
129,
128,
127,
129,
128,
128,
129,
128,
129,
128,
128,
128,
128,
128,
127,
129,
129,
128,
128,
129,
128,
128,
128,
128,
129,
128,
128,
128,
128,
129,
128,
128,
128,
128,
128,
128,
129,
128,
128,
129,
128,
128,
128,
128,
128,
128,
129,
128,
128,
128,
129,
128,
128,
128,
128,
128,
129,
128,
128,
128,
128,
128,
129,
128,
129,
128,
128,
128,
128,
128,
128,
128,
128,
128,
128,
129,
129,
129,
128,
128,
128,
128,
128,
128,
129,
128,
128,
129,
128,
128,
129,
129,
128,
128,
128,
128,
128,
128,
128,
129,
129,
128,
128,
128,
129,
128,
129,
128,
128,
128,
128,
128,
129,
128,
129,
128,
129,
128,
128,
129,
129,
128,
128,
129,
129,
129,
128,
128,
128,
129,
127,
128,
128,
127,
128,
128,
129,
128,
129,
128,
128,
128,
129,
127,
128,
128,
128,
128,
128,
128,
128,
128,
128,
128,
128,
128,
128,
128,
128,
128,
128,
128,
128,
128,
129,
128,
128,
129,
129,
128,
128,
128,
129,
128,
129,
128,
129,
127,
128,
129,
128,
129,
128,
128,
128,
129,
128,
128,
128,
128,
128,
128,
128,
129,
128,
128,
128,
129,
128,
129,
129,
128,
128,
128,
128,
128,
128,
128,
128,
