Actividad 1/ALL0003/A0003CH2.CSV

Memory Length,4000,
Trigger Level,3.920E-01,
Source,CH2,
Probe,1X,
Vertical Units,V,
Vertical Scale,1.000E+00,
Vertical Position,-2.040E+00,
Horizontal Units,s,
Horizontal Scale,5.000E-02,
Horizontal Position,0.000E+00,
Horizontal Mode,Main,
Sampling Period,2.000E-04,
Firmware,V1.11,
Time, ,
Mode,Fast,
Waveform Data,
123,
123,
8,
8,
8,
8,
8,
8,
8,
8,
8,
8,
7,
7,
8,
8,
7,
8,
8,
7,
8,
8,
7,
7,
7,
7,
7,
7,
7,
7,
7,
7,
7,
7,
7,
7,
7,
7,
7,
7,
7,
7,
7,
7,
7,
7,
7,
7,
6,
7,
6,
7,
6,
7,
7,
6,
7,
6,
6,
7,
7,
6,
6,
6,
6,
7,
7,
6,
6,
6,
5,
6,
7,
6,
6,
6,
5,
5,
6,
6,
5,
6,
6,
6,
5,
6,
5,
5,
5,
6,
5,
5,
5,
5,
5,
5,
5,
6,
5,
5,
4,
4,
4,
5,
5,
4,
5,
5,
5,
4,
5,
4,
5,
4,
4,
4,
5,
4,
5,
4,
4,
4,
4,
5,
4,
4,
4,
4,
4,
4,
3,
4,
4,
4,
4,
4,
4,
4,
4,
4,
4,
4,
4,
4,
4,
4,
4,
4,
4,
4,
3,
4,
3,
4,
3,
4,
3,
3,
4,
4,
3,
4,
4,
4,
3,
3,
3,
4,
4,
3,
3,
3,
3,
4,
3,
4,
3,
4,
3,
3,
3,
3,
4,
3,
3,
3,
4,
3,
3,
3,
3,
3,
3,
3,
3,
3,
3,
3,
3,
3,
3,
3,
3,
3,
3,
3,
3,
3,
3,
3,
3,
3,
3,
3,
3,
3,
3,
3,
3,
3,
2,
3,
3,
3,
3,
3,
3,
3,
3,
3,
3,
3,
3,
2,
3,
3,
3,
3,
3,
3,
2,
2,
3,
3,
3,
3,
3,
3,
3,
2,
2,
2,
2,
3,
3,
2,
3,
2,
2,
2,
3,
3,
2,
3,
3,
3,
2,
2,
2,
2,
3,
2,
3,
2,
2,
2,
2,
3,
2,
3,
2,
2,
2,
2,
2,
3,
2,
2,
1,
2,
2,
3,
2,
2,
2,
2,
2,
2,
2,
2,
2,
2,
2,
2,
2,
2,
2,
2,
2,
2,
2,
2,
2,
2,
2,
2,
2,
2,
2,
1,
1,
1,
2,
2,
2,
2,
2,
2,
2,
2,
2,
2,
2,
2,
1,
2,
2,
2,
2,
2,
2,
2,
2,
2,
2,
1,
2,
2,
1,
2,
2,
2,
2,
2,
2,
2,
2,
2,
2,
2,
2,
1,
1,
2,
1,
1,
1,
2,
1,
1,
1,
2,
1,
1,
2,
1,
1,
1,
2,
1,
1,
2,
1,
2,
2,
2,
2,
2,
2,
1,
1,
1,
1,
1,
1,
2,
1,
1,
1,
1,
2,
1,
1,
1,
1,
1,
2,
1,
1,
1,
1,
1,
1,
1,
1,
1,
1,
1,
1,
1,
2,
1,
2,
1,
1,
2,
1,
1,
1,
1,
1,
1,
1,
1,
1,
1,
1,
1,
1,
2,
2,
1,
1,
1,
1,
1,
1,
2,
1,
1,
1,
1,
1,
1,
1,
1,
1,
1,
1,
1,
0,
1,
1,
1,
0,
1,
0,
1,
1,
1,
1,
1,
1,
1,
1,
1,
1,
1,
1,
1,
1,
1,
1,
1,
1,
1,
1,
1,
1,
1,
0,
1,
1,
1,
1,
1,
1,
1,
0,
1,
1,
1,
1,
1,
1,
0,
1,
0,
1,
1,
1,
1,
0,
1,
1,
1,
1,
1,
2,
0,
0,
0,
1,
1,
1,
0,
1,
1,
1,
1,
1,
1,
1,
0,
1,
1,
1,
1,
0,
1,
1,
1,
1,
1,
1,
1,
1,
0,
1,
1,
1,
1,
1,
0,
0,
1,
1,
1,
1,
1,
1,
1,
0,
0,
1,
1,
1,
1,
1,
1,
0,
0,
0,
0,
0,
1,
0,
1,
1,
0,
1,
1,
0,
1,
1,
1,
0,
0,
1,
0,
1,
0,
1,
1,
1,
1,
1,
1,
0,
0,
1,
1,
0,
0,
1,
0,
1,
1,
1,
1,
1,
1,
0,
0,
1,
1,
1,
1,
1,
0,
1,
1,
0,
0,
1,
1,
1,
0,
0,
0,
1,
1,
0,
0,
1,
0,
0,
1,
0,
0,
1,
0,
1,
0,
1,
0,
0,
1,
0,
0,
0,
0,
1,
1,
1,
1,
1,
0,
0,
1,
0,
1,
1,
1,
1,
1,
1,
1,
1,
0,
0,
1,
1,
0,
1,
1,
0,
1,
1,
1,
0,
0,
1,
1,
1,
0,
0,
-1,
0,
1,
0,
0,
0,
1,
1,
1,
0,
0,
0,
1,
1,
0,
1,
0,
1,
0,
1,
0,
0,
1,
1,
1,
0,
0,
0,
0,
0,
0,
0,
0,
0,
0,
0,
0,
0,
0,
0,
0,
0,
0,
1,
-1,
1,
0,
1,
1,
1,
0,
0,
0,
0,
0,
0,
0,
0,
0,
1,
1,
0,
0,
0,
0,
0,
0,
1,
0,
0,
0,
0,
0,
-1,
1,
1,
0,
1,
0,
0,
0,
0,
0,
0,
0,
0,
0,
0,
0,
0,
0,
0,
0,
0,
0,
0,
0,
0,
0,
0,
0,
0,
0,
0,
1,
1,
0,
0,
0,
0,
0,
0,
0,
0,
0,
0,
0,
0,
0,
0,
0,
1,
0,
0,
0,
1,
0,
0,
0,
0,
0,
0,
0,
1,
0,
0,
0,
0,
0,
0,
0,
0,
0,
1,
0,
0,
0,
1,
0,
1,
0,
0,
1,
1,
0,
0,
0,
0,
0,
0,
0,
0,
0,
0,
0,
1,
0,
0,
0,
0,
1,
0,
0,
1,
0,
0,
0,
0,
0,
0,
0,
1,
0,
1,
0,
0,
1,
1,
0,
-1,
0,
0,
0,
0,
0,
1,
1,
0,
0,
0,
0,
0,
0,
0,
1,
0,
0,
0,
0,
0,
0,
0,
0,
0,
0,
1,
0,
0,
1,
0,
0,
1,
0,
0,
0,
0,
0,
0,
0,
1,
0,
0,
0,
0,
0,
0,
0,
0,
0,
0,
0,
0,
0,
1,
0,
0,
0,
0,
0,
0,
0,
0,
0,
0,
1,
0,
0,
1,
1,
0,
0,
0,
1,
1,
0,
1,
0,
0,
0,
0,
0,
0,
0,
0,
0,
0,
0,
0,
0,
0,
0,
0,
-1,
0,
0,
0,
0,
0,
0,
0,
0,
0,
0,
0,
0,
0,
0,
0,
0,
0,
0,
0,
0,
0,
0,
0,
0,
0,
0,
1,
1,
1,
0,
1,
0,
0,
0,
0,
0,
0,
0,
0,
0,
-1,
0,
0,
0,
0,
0,
0,
0,
1,
1,
0,
1,
0,
0,
0,
0,
0,
0,
0,
0,
0,
-1,
0,
0,
0,
0,
0,
0,
0,
1,
0,
0,
0,
1,
0,
0,
0,
0,
0,
1,
0,
-1,
0,
0,
0,
0,
0,
0,
0,
0,
0,
0,
0,
0,
0,
0,
0,
0,
0,
1,
0,
-1,
0,
0,
0,
0,
0,
0,
0,
0,
0,
0,
0,
1,
0,
0,
1,
0,
0,
0,
1,
0,
0,
1,
0,
0,
0,
0,
0,
0,
0,
0,
0,
0,
0,
0,
0,
0,
0,
0,
1,
0,
1,
0,
0,
1,
0,
0,
0,
0,
0,
0,
0,
1,
0,
0,
0,
0,
1,
0,
0,
1,
-1,
0,
0,
1,
0,
0,
0,
0,
0,
0,
0,
0,
0,
0,
0,
0,
0,
0,
0,
0,
0,
0,
0,
1,
0,
0,
0,
0,
0,
0,
0,
0,
1,
1,
-1,
0,
0,
0,
0,
1,
0,
0,
0,
0,
0,
0,
0,
0,
0,
0,
0,
1,
0,
1,
0,
0,
0,
0,
1,
0,
1,
0,
0,
0,
0,
0,
0,
0,
0,
0,
0,
0,
0,
0,
0,
0,
1,
0,
0,
0,
0,
0,
0,
0,
0,
0,
1,
0,
0,
0,
1,
0,
0,
0,
0,
0,
0,
0,
0,
0,
0,
0,
0,
0,
0,
1,
0,
1,
0,
1,
0,
0,
1,
0,
1,
1,
1,
0,
0,
0,
0,
0,
0,
0,
0,
0,
0,
0,
0,
0,
0,
1,
0,
0,
0,
0,
0,
0,
0,
0,
0,
0,
0,
0,
0,
0,
1,
0,
0,
0,
1,
0,
1,
0,
0,
0,
0,
1,
0,
0,
0,
0,
1,
0,
0,
0,
1,
0,
0,
0,
0,
-1,
0,
0,
0,
0,
0,
0,
0,
0,
0,
0,
0,
0,
0,
0,
0,
0,
0,
0,
0,
0,
0,
0,
0,
0,
0,
0,
0,
0,
0,
0,
0,
0,
0,
0,
0,
1,
0,
-1,
0,
0,
0,
0,
0,
0,
0,
0,
1,
0,
0,
0,
0,
0,
0,
0,
0,
0,
0,
0,
0,
1,
0,
0,
-1,
0,
0,
0,
0,
1,
0,
0,
0,
1,
0,
1,
1,
0,
0,
1,
0,
0,
0,
0,
0,
0,
0,
0,
0,
0,
1,
0,
1,
0,
0,
0,
-1,
1,
1,
0,
0,
0,
0,
0,
0,
0,
0,
0,
0,
0,
1,
0,
0,
1,
0,
0,
0,
0,
1,
0,
0,
0,
0,
1,
0,
0,
0,
0,
1,
0,
0,
0,
-1,
0,
0,
0,
0,
0,
0,
0,
0,
0,
0,
0,
0,
0,
0,
0,
0,
0,
0,
0,
0,
1,
0,
0,
0,
0,
0,
0,
0,
1,
0,
0,
0,
0,
0,
0,
0,
0,
0,
1,
0,
0,
0,
0,
0,
0,
0,
0,
0,
0,
0,
0,
0,
1,
0,
0,
0,
0,
0,
1,
0,
0,
0,
0,
0,
0,
0,
0,
0,
0,
0,
0,
0,
-1,
0,
0,
0,
0,
0,
0,
0,
0,
0,
0,
0,
0,
1,
0,
-1,
0,
0,
0,
0,
0,
0,
0,
0,
0,
1,
0,
0,
1,
0,
0,
0,
0,
0,
0,
0,
0,
0,
0,
0,
0,
0,
0,
0,
0,
0,
0,
0,
0,
0,
0,
0,
0,
0,
0,
0,
-1,
0,
0,
0,
0,
1,
0,
0,
0,
0,
1,
0,
0,
0,
0,
0,
0,
1,
0,
0,
0,
1,
0,
0,
0,
0,
0,
0,
0,
0,
0,
0,
0,
0,
0,
0,
0,
0,
0,
0,
0,
0,
0,
0,
0,
-1,
0,
0,
0,
0,
0,
0,
0,
0,
1,
-1,
0,
0,
0,
0,
-1,
0,
0,
0,
0,
0,
0,
0,
0,
0,
0,
0,
0,
0,
0,
0,
0,
0,
0,
0,
0,
0,
0,
-1,
1,
0,
0,
-1,
0,
0,
0,
0,
0,
0,
0,
0,
0,
0,
0,
0,
0,
0,
0,
0,
1,
0,
0,
0,
0,
0,
1,
0,
0,
0,
0,
0,
1,
0,
0,
0,
0,
0,
0,
0,
-1,
0,
0,
0,
0,
0,
0,
0,
1,
0,
0,
-1,
0,
0,
1,
0,
0,
0,
0,
0,
0,
0,
1,
1,
0,
0,
0,
0,
0,
0,
0,
1,
0,
0,
0,
0,
0,
0,
0,
0,
0,
0,
0,
0,
0,
0,
1,
0,
0,
1,
-1,
0,
-1,
0,
0,
0,
0,
-1,
0,
-1,
0,
1,
0,
0,
0,
1,
0,
0,
0,
0,
1,
0,
0,
0,
0,
0,
0,
1,
0,
0,
0,
0,
0,
0,
0,
0,
0,
0,
0,
0,
0,
0,
0,
-1,
0,
1,
0,
0,
0,
0,
0,
0,
0,
0,
1,
0,
0,
1,
1,
0,
0,
0,
0,
0,
0,
0,
1,
0,
0,
1,
0,
0,
0,
1,
0,
0,
0,
0,
0,
0,
0,
0,
0,
1,
0,
1,
0,
0,
0,
0,
1,
0,
-1,
0,
0,
0,
0,
0,
0,
0,
0,
0,
0,
0,
0,
0,
0,
0,
0,
0,
0,
0,
0,
-1,
0,
0,
1,
1,
0,
0,
-1,
0,
0,
0,
0,
0,
0,
0,
0,
0,
0,
0,
0,
0,
0,
0,
0,
0,
0,
0,
0,
0,
0,
0,
0,
0,
0,
0,
0,
0,
0,
0,
0,
0,
0,
0,
0,
1,
0,
1,
0,
0,
0,
0,
0,
0,
0,
0,
0,
0,
0,
0,
0,
0,
0,
0,
0,
1,
0,
0,
0,
1,
0,
0,
0,
0,
0,
0,
0,
0,
0,
0,
0,
0,
0,
0,
0,
1,
0,
0,
0,
0,
0,
0,
0,
0,
0,
0,
0,
0,
0,
0,
0,
0,
0,
0,
0,
0,
0,
0,
0,
0,
0,
0,
0,
0,
0,
0,
0,
0,
0,
0,
0,
0,
0,
0,
0,
0,
0,
0,
0,
1,
0,
0,
0,
0,
0,
0,
0,
0,
0,
0,
1,
2,
3,
3,
4,
4,
4,
6,
6,
7,
8,
8,
9,
10,
10,
11,
11,
12,
12,
13,
14,
14,
15,
15,
16,
17,
17,
18,
19,
19,
19,
19,
21,
20,
22,
22,
23,
23,
23,
24,
25,
25,
26,
27,
27,
28,
28,
29,
29,
30,
30,
31,
32,
32,
33,
33,
33,
34,
34,
35,
35,
36,
36,
36,
37,
37,
38,
39,
39,
39,
40,
41,
41,
41,
42,
42,
43,
43,
44,
43,
44,
44,
45,
46,
46,
47,
47,
47,
47,
48,
49,
49,
50,
49,
50,
51,
51,
51,
51,
51,
52,
52,
53,
53,
54,
53,
55,
55,
55,
56,
57,
56,
57,
57,
57,
58,
58,
58,
59,
59,
59,
60,
60,
60,
60,
61,
62,
63,
62,
63,
63,
63,
63,
64,
64,
65,
65,
65,
65,
65,
66,
66,
67,
67,
67,
68,
68,
68,
68,
69,
68,
69,
70,
70,
70,
70,
70,
71,
71,
71,
72,
72,
72,
72,
73,
73,
74,
74,
74,
74,
74,
75,
75,
75,
75,
75,
76,
77,
76,
77,
76,
78,
78,
78,
78,
78,
79,
79,
79,
80,
79,
80,
80,
80,
80,
80,
81,
81,
82,
81,
82,
82,
83,
83,
83,
83,
83,
83,
83,
83,
84,
84,
84,
85,
84,
85,
86,
85,
85,
86,
86,
87,
87,
87,
87,
87,
87,
87,
87,
88,
88,
88,
88,
89,
89,
89,
89,
89,
89,
90,
90,
90,
90,
91,
90,
91,
91,
91,
91,
92,
92,
91,
92,
92,
92,
92,
92,
93,
94,
94,
94,
94,
94,
94,
94,
94,
95,
95,
95,
95,
95,
95,
95,
95,
96,
96,
96,
96,
96,
96,
96,
96,
96,
97,
97,
97,
97,
98,
97,
98,
98,
98,
99,
99,
99,
98,
99,
99,
99,
99,
99,
100,
99,
99,
99,
99,
99,
100,
100,
100,
100,
100,
100,
101,
101,
100,
101,
101,
102,
101,
101,
102,
103,
102,
103,
103,
102,
103,
103,
103,
103,
103,
103,
103,
103,
104,
103,
103,
103,
103,
104,
104,
104,
104,
104,
104,
104,
104,
104,
105,
105,
105,
105,
105,
106,
105,
105,
106,
106,
106,
106,
106,
106,
106,
107,
106,
107,
106,
107,
107,
107,
106,
107,
107,
107,
107,
108,
107,
107,
108,
107,
108,
107,
108,
108,
108,
108,
108,
108,
108,
109,
109,
109,
109,
109,
109,
109,
108,
109,
109,
109,
109,
110,
109,
110,
110,
110,
111,
110,
110,
110,
110,
110,
110,
110,
110,
111,
111,
111,
111,
110,
111,
111,
111,
111,
111,
111,
111,
111,
111,
111,
111,
111,
112,
112,
111,
111,
112,
112,
112,
112,
113,
112,
112,
112,
112,
113,
112,
113,
113,
113,
113,
113,
113,
113,
113,
113,
113,
113,
113,
113,
113,
114,
113,
113,
113,
113,
113,
114,
114,
114,
114,
114,
114,
114,
114,
114,
114,
114,
114,
115,
115,
115,
114,
114,
114,
115,
115,
115,
115,
115,
115,
115,
115,
115,
115,
115,
115,
115,
115,
115,
115,
115,
116,
116,
115,
115,
115,
116,
115,
115,
116,
115,
115,
115,
115,
116,
116,
116,
116,
116,
116,
116,
116,
116,
116,
116,
116,
116,
116,
116,
116,
116,
116,
116,
116,
117,
116,
117,
117,
116,
117,
117,
116,
117,
116,
117,
117,
117,
117,
117,
117,
117,
117,
117,
117,
117,
117,
118,
117,
117,
117,
117,
117,
118,
117,
118,
118,
118,
118,
118,
118,
118,
118,
118,
118,
118,
118,
118,
118,
117,
119,
118,
119,
118,
118,
118,
118,
118,
119,
119,
117,
119,
119,
119,
118,
118,
119,
119,
119,
118,
119,
119,
118,
119,
119,
119,
119,
119,
118,
119,
119,
119,
119,
119,
119,
119,
119,
119,
119,
120,
119,
119,
119,
119,
119,
119,
119,
120,
119,
120,
119,
119,
120,
120,
120,
119,
120,
120,
119,
120,
119,
119,
119,
120,
120,
119,
119,
120,
119,
120,
120,
120,
119,
120,
120,
120,
120,
119,
120,
120,
120,
120,
120,
119,
120,
120,
120,
120,
120,
120,
120,
120,
120,
120,
120,
120,
120,
121,
120,
120,
120,
120,
120,
120,
120,
121,
121,
120,
120,
121,
121,
120,
121,
120,
120,
120,
120,
121,
120,
120,
121,
121,
121,
121,
121,
121,
120,
121,
121,
121,
121,
120,
121,
121,
121,
121,
121,
121,
121,
120,
121,
121,
121,
121,
121,
121,
121,
121,
121,
121,
121,
121,
122,
121,
122,
121,
121,
121,
121,
122,
121,
121,
121,
121,
121,
121,
121,
121,
121,
122,
121,
121,
121,
122,
121,
121,
122,
122,
121,
122,
121,
121,
122,
122,
122,
121,
122,
121,
121,
122,
122,
122,
122,
122,
121,
121,
122,
122,
121,
122,
121,
122,
122,
122,
122,
122,
122,
122,
122,
122,
121,
122,
122,
122,
122,
122,
122,
122,
121,
122,
122,
122,
122,
123,
122,
121,
122,
122,
122,
123,
122,
122,
122,
122,
122,
122,
122,
123,
122,
122,
122,
122,
122,
122,
122,
122,
122,
122,
122,
123,
122,
122,
123,
123,
123,
122,
122,
123,
123,
122,
122,
122,
123,
123,
122,
122,
123,
122,
122,
123,
123,
123,
122,
122,
123,
122,
122,
122,
123,
123,
122,
122,
123,
123,
123,
122,
123,
122,
122,
123,
123,
122,
123,
122,
123,
123,
123,
123,
123,
123,
123,
123,
122,
122,
123,
123,
123,
122,
122,
122,
123,
123,
122,
122,
122,
123,
123,
123,
123,
123,
123,
123,
123,
123,
122,
122,
122,
123,
123,
123,
123,
122,
123,
122,
123,
123,
122,
123,
123,
123,
123,
123,
123,
123,
123,
123,
123,
123,
122,
123,
123,
123,
123,
123,
122,
122,
123,
123,
123,
123,
123,
123,
123,
123,
123,
123,
123,
123,
123,
123,
123,
123,
123,
123,
123,
123,
123,
123,
123,
123,
123,
123,
123,
123,
123,
123,
123,
123,
123,
124,
123,
123,
123,
123,
123,
124,
123,
123,
123,
123,
123,
123,
123,
123,
123,
123,
123,
123,
122,
123,
124,
123,
123,
123,
123,
123,
123,
123,
123,
123,
123,
123,
123,
123,
123,
123,
123,
123,
123,
123,
123,
123,
123,
123,
123,
123,
123,
123,
124,
123,
123,
123,
123,
123,
123,
123,
123,
123,
123,
124,
123,
123,
123,
123,
124,
124,
123,
123,
123,
124,
123,
124,
123,
123,
123,
123,
123,
123,
124,
123,
124,
123,
123,
123,
122,
123,
124,
123,
123,
123,
123,
123,
124,
123,
123,
123,
123,
123,
123,
123,
123,
123,
123,
123,
124,
123,
123,
123,
124,
123,
123,
123,
123,
123,
124,
123,
123,
123,
123,
123,
124,
124,
123,
123,
123,
124,
123,
124,
123,
123,
123,
123,
123,
123,
123,
124,
124,
123,
123,
123,
124,
123,
124,
123,
123,
124,
123,
123,
124,
124,
123,
123,
123,
123,
123,
123,
123,
123,
123,
123,
123,
123,
123,
123,
123,
123,
123,
123,
123,
123,
123,
123,
124,
124,
123,
124,
123,
124,
124,
123,
123,
123,
123,
124,
123,
123,
124,
123,
123,
123,
124,
123,
123,
123,
123,
123,
123,
123,
124,
123,
124,
123,
123,
123,
123,
123,
123,
123,
123,
124,
123,
123,
124,
124,
123,
123,
124,
123,
124,
124,
123,
124,
124,
124,
124,
124,
123,
124,
124,
124,
124,
123,
123,
124,
124,
124,
123,
123,
124,
123,
123,
124,
123,
123,
124,
123,
123,
123,
123,
124,
123,
123,
124,
123,
124,
124,
124,
123,
124,
123,
123,
123,
123,
123,
123,
123,
123,
123,
123,
123,
123,
124,
124,
123,
124,
124,
124,
124,
124,
124,
123,
124,
123,
124,
124,
124,
123,
124,
123,
124,
124,
123,
124,
123,
123,
124,
123,
124,
124,
124,
124,
123,
124,
124,
124,
123,
123,
124,
124,
123,
123,
123,
124,
124,
123,
124,
124,
124,
124,
124,
124,
123,
124,
124,
124,
123,
124,
123,
124,
124,
124,
124,
123,
124,
124,
124,
123,
124,
123,
124,
123,
123,
124,
124,
123,
124,
123,
124,
124,
124,
124,
124,
123,
124,
123,
124,
124,
123,
124,
124,
124,
124,
124,
124,
123,
123,
124,
124,
124,
124,
124,
124,
124,
123,
124,
124,
123,
124,
124,
123,
123,
124,
124,
124,
124,
123,
123,
124,
124,
124,
124,
124,
123,
124,
124,
123,
124,
123,
124,
123,
123,
124,
124,
124,
124,
124,
123,
123,
124,
124,
124,
124,
124,
124,
124,
124,
124,
124,
124,
124,
124,
124,
124,
124,
124,
124,
123,
123,
124,
123,
123,
124,
124,
124,
124,
123,
123,
124,
124,
123,
124,
124,
123,
124,
124,
124,
123,
124,
124,
124,
124,
124,
123,
123,
124,
124,
124,
124,
124,
124,
124,
124,
124,
123,
124,
124,
123,
123,
124,
124,
124,
123,
124,
124,
124,
124,
123,
123,
124,
123,
124,
123,
124,
123,
124,
124,
123,
124,
124,
123,
123,
124,
124,
124,
124,
124,
124,
123,
124,
124,
124,
124,
124,
123,
124,
123,
124,
123,
124,
124,
124,
124,
123,
124,
124,
124,
124,
123,
123,
124,
124,
123,
124,
124,
124,
124,
124,
124,
123,
124,
124,
123,
124,
124,
124,
124,
124,
123,
123,
124,
123,
124,
124,
123,
124,
124,
124,
124,
124,
124,
124,
124,
123,
124,
123,
124,
124,
124,
123,
124,
123,
124,
124,
124,
124,
123,
124,
124,
123,
123,
124,
124,
124,
124,
123,
124,
124,
124,
123,
124,
124,
123,
124,
124,
123,
124,
124,
124,
124,
124,
124,
123,
124,
123,
123,
123,
124,
124,
124,
124,
124,
124,
124,
124,
124,
124,
124,
124,
124,
124,
124,
124,
123,
124,
124,
123,
124,
124,
124,
124,
124,
123,
124,
124,
124,
123,
123,
124,
124,
124,
124,
124,
123,
124,
124,
123,
123,
124,
124,
124,
124,
124,
124,
124,
124,
123,
124,
124,
124,
123,
124,
124,
124,
124,
123,
123,
123,
123,
124,
123,
124,
123,
124,
124,
124,
124,
123,
124,
123,
124,
124,
124,
124,
123,
124,
124,
124,
124,
124,
124,
124,
124,
124,
124,
124,
124,
124,
124,
124,
124,
123,
124,
124,
124,
123,
124,
124,
123,
124,
124,
124,
124,
123,
124,
124,
124,
124,
123,
124,
124,
123,
124,
124,
123,
124,
123,
124,
123,
123,
124,
124,
124,
124,
124,
124,
124,
124,
124,
124,
124,
124,
124,
124,
124,
124,
124,
124,
124,
124,
124,
124,
123,
124,
123,
123,
124,
124,
124,
124,
123,
124,
124,
123,
124,
124,
124,
124,
123,
124,
123,
124,
124,
124,
123,
124,
124,
123,
124,
124,
124,
123,
124,
124,
124,
124,
124,
124,
124,
124,
124,
124,
123,
123,
124,
124,
124,
123,
124,
124,
124,
124,
123,
124,
124,
124,
124,
124,
124,
123,
123,
124,
124,
124,
124,
124,
124,
124,
123,
124,
124,
124,
123,
124,
124,
123,
123,
124,
124,
123,
124,
124,
124,
123,
124,
124,
124,
124,
124,
124,
124,
124,
124,
124,
124,
124,
124,
124,
123,
123,
123,
124,
124,
124,
123,
123,
123,
124,
124,
124,
124,
124,
123,
124,
123,
124,
123,
124,
124,
124,
123,
124,
124,
124,
124,
124,
124,
124,
124,
124,
123,
124,
123,
124,
124,
123,
124,
124,
124,
123,
124,
124,
123,
124,
124,
124,
124,
124,
124,
124,
124,
124,
123,
124,
124,
124,
124,
124,
124,
124,
124,
124,
124,
124,
124,
124,
124,
124,
124,
123,
124,
124,
124,
124,
124,
123,
123,
123,
124,
124,
124,
123,
124,
123,
124,
124,
124,
124,
124,
124,
124,
124,
124,
124,
124,
123,
124,
124,
124,
123,
124,
124,
124,
124,
124,
124,
124,
124,
124,
124,
124,
124,
123,
124,
124,
124,
123,
124,
123,
124,
124,
124,
124,
124,
123,
124,
124,
123,
124,
124,
124,
124,
124,
124,
123,
124,
124,
123,
123,
124,
124,
124,
124,
124,
124,
124,
124,
123,
124,
123,
123,
124,
124,
123,
124,
124,
123,
123,
124,
124,
124,
124,
124,
124,
124,
124,
124,
124,
123,
123,
124,
124,
124,
124,
124,
124,
124,
124,
124,
124,
124,
124,
123,
123,
124,
124,
124,
124,
124,
124,
124,
124,
124,
124,
123,
123,
124,
124,
123,
124,
124,
