Actividad 1/ALL0001/A0001CH2.CSV

Memory Length,4000,
Trigger Level,2.160E-01,
Source,CH2,
Probe,1X,
Vertical Units,V,
Vertical Scale,2.000E-01,
Vertical Position,-4.080E-01,
Horizontal Units,s,
Horizontal Scale,5.000E-03,
Horizontal Position,0.000E+00,
Horizontal Mode,Main,
Sampling Period,2.000E-05,
Firmware,V1.11,
Time, ,
Mode,Fast,
Waveform Data,
56,
56,
-6,
-5,
-5,
-5,
-5,
-5,
-5,
-5,
-5,
-5,
-5,
-5,
-5,
-5,
-5,
-5,
-5,
-4,
-5,
-4,
-5,
-5,
-5,
-5,
-5,
-5,
-5,
-5,
-5,
-4,
-5,
-5,
-5,
-5,
-5,
-5,
-5,
-5,
-5,
-5,
-5,
-5,
-5,
-5,
-5,
-5,
-5,
-5,
-5,
-5,
-5,
-5,
-5,
-5,
-5,
-5,
-5,
-5,
-5,
-5,
-5,
-5,
-5,
-5,
-5,
-5,
-5,
-5,
-5,
-5,
-5,
-5,
-5,
-5,
-5,
-5,
-5,
-5,
-5,
-5,
-5,
-5,
-5,
-5,
-5,
-5,
-5,
-5,
-5,
-5,
-5,
-5,
-5,
-5,
-5,
-5,
-5,
-5,
-5,
-5,
-5,
-5,
-5,
-5,
-5,
-5,
-5,
-5,
-5,
-5,
-5,
-5,
-5,
-5,
-5,
-5,
-6,
-5,
-5,
-5,
-5,
-5,
-5,
-5,
-5,
-5,
-5,
-5,
-5,
-5,
-5,
-5,
-5,
-5,
-5,
-5,
-5,
-4,
-5,
-5,
-5,
-5,
-4,
-5,
-5,
-5,
-5,
-5,
-5,
-4,
-5,
-4,
-5,
-5,
-5,
-5,
-5,
-5,
-5,
-5,
-5,
-5,
-5,
-5,
-5,
-5,
-5,
-5,
-5,
-5,
-5,
-5,
-5,
-5,
-5,
-5,
-5,
-5,
-4,
-5,
-5,
-5,
-4,
-5,
-5,
-5,
-5,
-5,
-5,
-5,
-5,
-5,
-4,
-5,
-5,
-5,
-5,
-5,
-5,
-5,
-5,
-5,
-5,
-5,
-5,
-5,
-5,
-5,
-5,
-5,
-5,
-5,
-5,
-5,
-5,
-5,
-5,
-5,
-5,
-5,
-5,
-5,
-5,
-5,
-5,
-5,
-5,
-5,
-5,
-5,
-5,
-5,
-5,
-6,
-5,
-5,
-5,
-5,
-5,
-5,
-5,
-5,
-5,
-5,
-5,
-5,
-5,
-5,
-5,
-5,
-5,
-5,
-5,
-5,
-5,
-5,
-5,
-5,
-5,
-5,
-5,
-5,
-5,
-5,
-5,
-5,
-5,
-5,
-5,
-5,
-5,
-5,
-5,
-5,
-5,
-5,
-5,
-5,
-5,
-4,
-5,
-5,
-5,
-5,
-5,
-5,
-5,
-5,
-5,
-5,
-5,
-5,
-5,
-5,
-5,
-5,
-5,
-5,
-5,
-5,
-5,
-5,
-5,
-5,
-6,
-4,
-5,
-5,
-5,
-5,
-5,
-5,
-5,
-5,
-5,
-5,
-5,
-5,
-5,
-5,
-5,
-5,
-5,
-5,
-5,
-5,
-5,
-5,
-5,
-5,
-5,
-5,
-5,
-5,
-5,
-5,
-5,
-5,
-5,
-5,
-5,
-5,
-5,
-5,
-5,
-5,
-5,
-5,
-5,
-5,
-5,
-5,
-5,
-4,
-5,
-5,
-5,
-6,
-6,
-5,
-5,
-5,
-5,
-5,
-5,
-5,
-5,
-5,
-5,
-5,
-5,
-5,
-5,
-5,
-5,
-5,
-5,
-5,
-5,
-5,
-5,
-5,
-5,
-5,
-5,
-5,
-5,
-5,
-5,
-5,
-5,
-4,
-5,
-5,
-5,
-5,
-5,
-5,
-5,
-5,
-5,
-5,
-5,
-5,
-5,
-5,
-5,
-5,
-5,
-5,
-5,
-5,
-6,
-5,
-6,
-6,
-6,
-5,
-5,
-5,
-5,
-5,
-5,
-5,
-5,
-5,
-5,
-5,
-5,
-4,
-5,
-5,
-5,
-5,
-5,
-5,
-5,
-5,
-5,
-6,
-5,
-5,
-5,
-5,
-5,
-5,
-5,
-5,
-5,
-5,
-5,
-5,
-5,
-5,
-5,
-5,
-5,
-5,
-5,
-5,
-5,
-5,
-5,
-5,
-5,
-5,
-5,
-5,
-4,
-5,
-5,
-5,
-5,
-6,
-5,
-5,
-5,
-5,
-5,
-5,
-5,
-5,
-5,
-5,
-5,
-5,
-5,
-5,
-5,
-5,
-5,
-5,
-4,
-5,
-5,
-5,
-5,
-5,
-5,
-5,
-5,
-5,
-5,
-5,
-6,
-5,
-5,
-5,
-5,
-5,
-5,
-5,
-5,
-5,
-5,
-4,
-5,
-4,
-6,
-5,
-5,
-4,
-4,
-5,
-5,
-5,
-5,
-5,
-5,
-5,
-5,
-5,
-5,
-5,
-5,
-5,
-5,
-5,
-5,
-5,
-5,
-5,
-5,
-5,
-4,
-5,
-5,
-5,
-5,
-5,
-5,
-5,
-5,
-4,
-5,
-5,
-5,
-5,
-5,
-5,
-5,
-5,
-5,
-5,
-5,
-5,
-5,
-5,
-5,
-5,
-5,
-5,
-5,
-5,
-5,
-5,
-5,
-5,
-5,
-5,
-5,
-5,
-5,
-5,
-5,
-5,
-5,
-5,
-5,
-5,
-5,
-5,
-5,
-5,
-5,
-5,
-5,
-5,
-5,
-5,
-5,
-5,
-5,
-5,
-5,
-5,
-5,
-5,
-5,
-5,
-5,
-5,
-5,
-5,
-5,
-5,
-5,
-5,
-5,
-5,
-5,
-5,
-5,
-5,
-5,
-5,
-5,
-5,
-5,
-5,
-5,
-5,
-5,
-5,
-5,
-5,
-5,
-5,
-5,
-5,
-5,
-5,
-5,
-5,
-5,
-5,
-5,
-5,
-5,
-5,
-5,
-5,
-5,
-5,
-5,
-5,
-5,
-5,
-5,
-5,
-5,
-5,
-5,
-5,
-5,
-5,
-5,
-5,
-5,
-5,
-5,
-5,
-5,
-5,
-5,
-5,
-5,
-5,
-5,
-5,
-5,
-5,
-5,
-5,
-6,
-5,
-5,
-5,
-5,
-5,
-5,
-5,
-5,
-5,
-5,
-5,
-5,
-5,
-5,
-5,
-5,
-5,
-5,
-5,
-5,
-5,
-5,
-5,
-5,
-5,
-5,
-5,
-5,
-5,
-5,
-5,
-5,
-5,
-5,
-5,
-5,
-5,
-5,
-5,
-5,
-5,
-5,
-5,
-5,
-5,
-6,
-5,
-5,
-5,
-5,
-5,
-5,
-4,
-5,
-5,
-5,
-5,
-5,
-5,
-5,
-5,
-5,
-4,
-5,
-5,
-5,
-5,
-5,
-5,
-5,
-5,
-5,
-5,
-5,
-5,
-5,
-6,
-5,
-5,
-5,
-5,
-5,
-5,
-5,
-5,
-5,
-5,
-5,
-5,
-5,
-5,
-5,
-5,
-5,
-5,
-5,
-5,
-5,
-5,
-5,
-5,
-5,
-5,
-5,
-5,
-5,
-5,
-5,
-5,
-5,
-5,
-5,
-5,
-5,
-5,
-5,
-5,
-6,
-5,
-5,
-5,
-5,
-5,
-5,
-5,
-5,
-5,
-5,
-5,
-5,
-5,
-5,
-5,
-5,
-5,
-5,
-5,
-5,
-5,
-5,
-5,
-5,
-5,
-6,
-5,
-5,
-5,
-4,
-5,
-5,
-5,
-5,
-5,
-5,
-5,
-6,
-5,
-5,
-5,
-5,
-5,
-5,
-4,
-5,
-5,
-5,
-6,
-5,
-5,
-5,
-5,
-5,
-5,
-5,
-5,
-5,
-5,
-5,
-5,
-5,
-5,
-5,
-5,
-4,
-5,
-5,
-5,
-5,
-5,
-5,
-5,
-5,
-5,
-5,
-5,
-5,
-5,
-5,
-5,
-5,
-5,
-5,
-5,
-4,
-5,
-5,
-5,
-5,
-5,
-5,
-5,
-5,
-5,
-5,
-5,
-5,
-5,
-5,
-5,
-5,
-5,
-5,
-5,
-5,
-5,
-5,
-5,
-6,
-5,
-5,
-5,
-5,
-5,
-5,
-5,
-5,
-5,
-5,
-5,
-5,
-5,
-5,
-5,
-5,
-5,
-5,
-5,
-5,
-5,
-5,
-5,
-4,
-5,
-5,
-5,
-5,
-5,
-5,
-5,
-5,
-5,
-5,
-5,
-5,
-5,
-5,
-5,
-5,
-5,
-5,
-5,
-6,
-5,
-4,
-5,
-5,
-5,
-5,
-5,
-5,
-5,
-5,
-5,
-5,
-5,
-5,
-5,
-5,
-5,
-5,
-5,
-5,
-5,
-5,
-5,
-5,
-5,
-5,
-5,
-5,
-5,
-5,
-5,
-5,
-6,
-5,
-5,
-5,
-5,
-5,
-5,
-5,
-5,
-5,
-5,
-5,
-5,
-5,
-5,
-5,
-5,
-5,
-5,
-5,
-5,
-5,
-5,
-5,
-5,
-5,
-5,
-5,
-5,
-5,
-5,
-5,
-5,
-5,
-5,
-6,
-5,
-5,
-5,
-5,
-5,
-4,
-5,
-5,
-5,
-5,
-5,
-5,
-5,
-5,
-5,
-5,
-5,
-5,
-5,
-5,
-6,
-5,
-5,
-5,
-5,
-5,
-5,
-5,
-6,
-5,
-5,
-5,
-5,
-5,
-5,
-5,
-5,
-5,
-5,
-5,
-5,
-5,
-5,
-5,
-5,
-4,
-5,
-5,
-5,
-5,
-5,
-5,
-5,
-5,
-5,
-5,
-5,
-5,
-5,
-5,
-5,
-5,
-5,
-5,
-5,
-6,
-5,
-5,
-5,
-4,
-5,
-5,
-5,
-5,
-5,
-5,
-5,
-5,
-5,
-5,
-5,
-5,
-5,
-5,
-5,
-5,
-5,
-5,
-5,
-5,
-5,
-5,
-5,
-5,
-5,
-5,
-5,
-5,
-5,
-5,
-5,
-5,
-5,
-5,
-5,
-5,
-5,
-5,
-5,
-5,
-5,
-5,
-5,
-5,
-5,
-5,
-5,
-5,
-5,
-5,
-5,
-5,
-5,
-5,
-5,
-5,
-5,
-5,
-5,
-5,
-5,
-4,
-5,
-5,
-5,
-5,
-5,
-5,
-5,
-5,
-6,
-5,
-5,
-5,
-5,
-5,
-5,
-5,
-5,
-5,
-5,
-5,
-5,
-5,
-5,
-5,
-5,
-5,
-5,
-5,
-6,
-5,
-5,
-5,
-5,
-5,
-5,
-5,
-6,
-5,
-5,
-5,
-5,
-5,
-4,
-5,
-5,
-5,
-5,
-5,
-5,
-5,
-5,
-5,
-5,
-5,
-5,
-5,
-5,
-5,
-6,
-5,
-5,
-5,
-5,
-5,
-5,
-5,
-6,
-5,
-5,
-5,
-5,
-5,
-5,
-5,
-5,
-5,
-5,
-5,
-5,
-4,
-5,
-5,
-5,
-5,
-5,
-5,
-5,
-5,
-5,
-5,
-5,
-5,
-5,
-5,
-5,
-5,
-5,
-5,
-5,
-5,
-5,
-5,
-5,
-5,
-5,
-5,
-5,
-5,
-5,
-4,
-5,
-5,
-5,
-5,
-5,
-5,
-5,
-5,
-5,
-5,
-5,
-5,
-5,
-5,
-5,
-5,
-5,
-5,
-5,
-5,
-5,
-5,
-5,
-5,
-6,
-5,
-5,
-5,
-5,
-5,
-5,
-5,
-5,
-5,
-5,
-5,
-6,
-5,
-5,
-5,
-5,
-5,
-5,
-5,
-5,
-4,
-5,
-5,
-5,
-5,
-5,
-5,
-5,
-5,
-5,
-5,
-5,
-5,
-5,
-5,
-5,
-5,
-5,
-5,
-5,
-5,
-5,
-5,
-5,
-5,
-5,
-5,
-5,
-6,
-5,
-5,
-5,
-6,
-5,
-5,
-5,
-6,
-5,
-5,
-5,
-5,
-5,
-5,
-5,
-5,
-5,
-5,
-5,
-5,
-5,
-5,
-4,
-5,
-5,
-5,
-6,
-5,
-5,
-4,
-5,
-5,
-5,
-4,
-5,
-4,
-5,
-5,
-5,
-5,
-5,
-5,
-5,
-5,
-4,
-4,
-5,
-5,
-5,
-5,
-5,
-5,
-5,
-5,
-6,
-5,
-6,
-6,
-5,
-5,
-5,
-5,
-5,
-5,
-5,
-5,
-5,
-5,
-5,
-5,
-5,
-5,
-5,
-5,
-5,
-6,
-5,
-5,
-5,
-5,
-5,
-5,
-5,
-5,
-4,
-5,
-5,
-5,
-5,
-5,
-5,
-5,
-5,
-5,
-5,
-5,
-5,
-5,
-5,
-4,
-4,
-5,
-5,
-5,
-5,
-5,
-5,
-5,
-5,
-5,
-5,
-5,
-5,
-5,
-5,
-5,
-5,
-5,
-5,
-5,
-5,
-5,
-5,
-5,
-5,
-5,
-5,
-5,
-5,
-5,
-5,
-5,
-5,
-5,
-5,
-5,
-5,
-5,
-5,
-5,
-5,
-5,
-5,
-5,
-5,
-5,
-5,
-5,
-5,
-5,
-5,
-5,
-5,
-5,
-5,
-5,
-5,
-6,
-5,
-5,
-5,
-5,
-5,
-5,
-5,
-5,
-5,
-5,
-5,
-6,
-5,
-5,
-5,
-5,
-5,
-5,
-5,
-5,
-5,
-5,
-5,
-5,
-5,
-5,
-5,
-5,
-5,
-5,
-5,
-5,
-5,
-5,
-4,
-5,
-5,
-5,
-5,
-5,
-5,
-5,
-5,
-5,
-5,
-5,
-5,
-5,
-5,
-5,
-5,
-5,
-5,
-5,
-5,
-5,
-5,
-5,
-5,
-5,
-5,
-5,
-5,
-5,
-6,
-5,
-5,
-5,
-5,
-5,
-5,
-5,
-5,
-5,
-5,
-5,
-4,
-5,
-5,
-5,
-5,
-5,
-5,
-5,
-5,
-5,
-5,
-6,
-5,
-5,
-5,
-5,
-5,
-5,
-5,
-5,
-5,
-5,
-5,
-5,
-5,
-5,
-5,
-5,
-5,
-5,
-5,
-5,
-5,
-5,
-5,
-5,
-5,
-5,
-5,
-5,
-5,
-5,
-5,
-5,
-5,
-5,
-5,
-5,
-5,
-5,
-5,
-4,
-5,
-5,
-5,
-5,
-4,
-5,
-5,
-5,
-5,
-5,
-5,
-5,
-5,
-5,
-5,
-5,
-5,
-5,
-5,
-5,
-5,
-5,
-5,
-5,
-5,
-5,
-5,
-5,
-5,
-5,
-5,
-5,
-5,
-5,
-5,
-5,
-5,
-5,
-5,
-5,
-5,
-5,
-5,
-5,
-6,
-5,
-5,
-5,
-5,
-5,
-5,
-5,
-5,
-5,
-5,
-5,
-5,
-4,
-5,
-5,
-5,
-5,
-5,
-5,
-5,
-5,
-4,
-6,
-5,
-5,
-5,
-5,
-5,
-5,
-5,
-5,
-5,
-5,
-5,
-5,
-5,
-5,
-5,
-5,
-5,
-5,
-5,
-5,
-5,
-5,
-5,
-5,
-5,
-5,
-5,
-5,
-5,
-5,
-5,
-5,
-5,
-5,
-5,
-5,
-5,
-5,
-5,
-5,
-5,
-5,
-5,
-5,
-6,
-5,
-5,
-4,
-5,
-5,
-5,
-5,
-4,
-5,
-5,
-5,
-5,
-5,
-5,
-5,
-5,
-5,
-5,
-5,
-5,
-5,
-5,
-5,
-6,
-5,
-5,
-5,
-5,
-5,
-5,
-5,
-5,
-5,
-5,
-5,
-5,
-5,
-5,
-5,
-5,
-5,
-5,
-5,
-5,
-5,
-5,
-5,
-5,
-5,
-5,
-5,
-5,
-5,
-5,
-5,
-5,
-5,
-5,
-5,
-5,
-5,
-6,
-5,
-5,
-5,
-5,
-5,
-5,
-5,
-5,
-5,
-5,
-5,
-5,
-5,
-5,
-5,
-5,
-5,
-5,
-5,
-5,
-5,
-5,
-5,
-5,
-5,
-5,
-5,
-5,
-5,
-5,
-4,
-5,
-5,
-5,
-5,
-5,
-4,
-5,
-5,
-5,
-5,
-5,
-5,
-5,
-5,
-5,
-5,
-4,
-5,
-5,
-5,
-5,
-5,
-5,
-5,
-5,
-5,
-5,
-5,
-5,
-5,
-5,
-5,
-5,
-5,
-5,
-5,
-5,
-5,
-5,
-5,
-5,
-4,
-5,
-5,
-5,
-5,
-5,
-5,
-5,
-5,
-5,
-5,
-5,
-6,
-5,
-6,
-5,
-5,
-5,
-5,
-5,
-5,
-5,
-5,
-5,
-5,
-5,
-5,
-5,
-5,
-5,
-5,
-5,
-5,
-5,
-5,
-5,
-4,
-4,
-3,
-3,
-3,
-2,
-2,
-1,
-1,
-1,
-1,
0,
0,
0,
1,
1,
1,
1,
2,
2,
3,
3,
3,
3,
3,
4,
4,
5,
5,
6,
6,
6,
7,
7,
7,
8,
8,
8,
9,
10,
9,
10,
10,
11,
10,
11,
11,
11,
12,
12,
12,
13,
13,
13,
14,
15,
15,
15,
15,
16,
16,
16,
17,
17,
17,
18,
18,
18,
19,
19,
19,
19,
20,
20,
20,
21,
21,
22,
22,
22,
23,
23,
23,
23,
23,
25,
23,
24,
25,
24,
26,
26,
27,
27,
27,
27,
28,
28,
28,
28,
29,
29,
30,
30,
31,
31,
31,
31,
32,
32,
32,
33,
33,
33,
33,
33,
34,
34,
35,
35,
35,
36,
36,
36,
36,
37,
37,
37,
38,
38,
39,
39,
39,
39,
39,
40,
40,
40,
40,
41,
42,
41,
42,
43,
42,
42,
43,
44,
43,
44,
44,
45,
45,
45,
46,
46,
47,
47,
47,
47,
47,
48,
48,
48,
49,
49,
50,
49,
50,
49,
50,
50,
50,
51,
52,
51,
52,
52,
52,
52,
53,
53,
54,
54,
54,
54,
55,
55,
55,
56,
56,
56,
56,
57,
57,
57,
58,
58,
58,
59,
59,
60,
60,
60,
60,
61,
61,
61,
61,
62,
62,
63,
63,
63,
64,
63,
64,
64,
64,
65,
65,
65,
66,
66,
66,
67,
67,
67,
67,
68,
68,
68,
68,
69,
69,
69,
69,
70,
70,
71,
71,
72,
71,
72,
72,
72,
73,
73,
73,
73,
73,
74,
74,
75,
75,
75,
76,
76,
76,
76,
76,
77,
77,
77,
78,
78,
78,
79,
79,
79,
79,
80,
80,
80,
81,
81,
82,
81,
82,
82,
82,
83,
83,
84,
83,
83,
84,
84,
84,
85,
85,
86,
86,
86,
86,
87,
87,
87,
88,
88,
88,
88,
88,
89,
90,
90,
90,
90,
90,
91,
91,
91,
91,
92,
92,
92,
93,
93,
94,
94,
93,
94,
95,
95,
95,
95,
96,
96,
95,
96,
96,
97,
97,
97,
98,
98,
99,
98,
99,
99,
99,
99,
100,
100,
100,
100,
101,
101,
102,
102,
103,
103,
103,
103,
103,
103,
104,
104,
104,
105,
105,
105,
105,
106,
106,
106,
107,
107,
107,
107,
108,
107,
108,
108,
109,
109,
110,
110,
110,
110,
111,
111,
111,
111,
112,
112,
112,
112,
113,
113,
114,
113,
113,
114,
115,
114,
115,
115,
115,
115,
115,
116,
116,
116,
117,
117,
118,
118,
118,
119,
119,
118,
120,
119,
120,
120,
120,
120,
120,
120,
121,
121,
122,
122,
123,
123,
123,
123,
123,
124,
124,
124,
125,
124,
124,
125,
125,
126,
126,
126,
126,
127,
127,
127,
127,
128,
128,
129,
129,
129,
129,
129,
130,
130,
130,
130,
131,
130,
131,
131,
131,
132,
132,
133,
132,
133,
134,
134,
134,
134,
135,
135,
135,
135,
135,
136,
136,
136,
137,
137,
137,
137,
137,
137,
137,
139,
138,
138,
140,
140,
139,
139,
140,
140,
140,
141,
141,
141,
142,
141,
141,
141,
141,
141,
141,
141,
141,
141,
141,
140,
140,
140,
140,
139,
140,
140,
140,
139,
140,
139,
139,
139,
139,
139,
139,
139,
139,
139,
139,
139,
139,
138,
138,
139,
138,
137,
138,
137,
138,
138,
138,
137,
137,
137,
138,
137,
137,
138,
137,
137,
136,
137,
137,
136,
136,
137,
137,
136,
137,
137,
136,
136,
136,
136,
135,
136,
135,
136,
136,
135,
135,
135,
136,
136,
135,
135,
135,
135,
135,
135,
135,
135,
134,
135,
135,
134,
135,
134,
135,
134,
134,
134,
133,
134,
134,
134,
134,
133,
133,
133,
133,
133,
133,
133,
133,
132,
133,
132,
133,
132,
132,
132,
132,
132,
132,
132,
132,
132,
132,
131,
132,
131,
132,
131,
132,
131,
132,
131,
131,
131,
131,
131,
131,
131,
131,
131,
131,
130,
130,
130,
131,
131,
130,
130,
130,
130,
130,
130,
130,
130,
130,
129,
129,
130,
128,
130,
129,
130,
129,
129,
129,
129,
129,
129,
129,
129,
129,
128,
129,
128,
128,
128,
128,
128,
128,
128,
128,
128,
128,
127,
128,
128,
128,
128,
127,
127,
127,
127,
127,
127,
127,
126,
127,
127,
127,
127,
126,
127,
126,
127,
126,
126,
126,
126,
126,
126,
125,
126,
126,
125,
126,
126,
125,
125,
125,
125,
124,
125,
125,
124,
124,
124,
125,
125,
124,
125,
125,
125,
124,
124,
124,
124,
124,
124,
123,
124,
124,
124,
124,
124,
124,
124,
124,
124,
123,
123,
123,
123,
123,
123,
123,
123,
123,
123,
123,
122,
122,
122,
123,
122,
122,
122,
122,
122,
122,
122,
122,
122,
121,
121,
121,
121,
121,
121,
121,
121,
121,
120,
121,
121,
121,
120,
120,
121,
121,
120,
120,
121,
120,
120,
120,
120,
120,
119,
120,
119,
120,
120,
119,
120,
119,
119,
119,
119,
119,
119,
119,
119,
119,
119,
119,
119,
119,
118,
119,
119,
119,
118,
118,
118,
119,
118,
118,
118,
117,
118,
118,
118,
118,
117,
118,
117,
118,
117,
117,
117,
116,
117,
117,
117,
117,
116,
117,
116,
116,
116,
116,
116,
116,
116,
116,
116,
116,
115,
116,
116,
116,
116,
115,
115,
115,
115,
115,
116,
115,
115,
115,
115,
115,
114,
115,
115,
115,
115,
115,
115,
114,
114,
114,
114,
114,
114,
114,
114,
114,
114,
114,
114,
114,
114,
114,
113,
114,
113,
113,
114,
113,
113,
113,
113,
113,
113,
113,
113,
112,
112,
112,
112,
113,
112,
112,
112,
112,
112,
112,
111,
111,
112,
111,
112,
112,
112,
111,
111,
111,
111,
111,
111,
111,
111,
111,
111,
111,
111,
111,
111,
111,
111,
111,
110,
110,
111,
110,
110,
110,
110,
110,
110,
110,
110,
110,
110,
109,
110,
109,
109,
109,
109,
109,
109,
109,
109,
109,
109,
109,
109,
108,
108,
109,
108,
109,
108,
108,
108,
108,
107,
108,
108,
108,
108,
108,
107,
108,
107,
107,
107,
107,
107,
107,
107,
107,
107,
107,
107,
106,
107,
107,
107,
107,
106,
106,
106,
107,
106,
106,
106,
106,
106,
106,
106,
106,
105,
105,
105,
105,
106,
105,
106,
106,
105,
105,
105,
104,
105,
105,
105,
105,
105,
104,
105,
104,
104,
104,
104,
104,
105,
104,
104,
104,
103,
104,
104,
103,
104,
103,
103,
103,
103,
103,
103,
103,
103,
103,
103,
103,
103,
103,
103,
102,
103,
103,
103,
103,
102,
103,
102,
102,
102,
103,
102,
102,
103,
102,
102,
101,
102,
102,
102,
102,
102,
101,
102,
101,
101,
101,
101,
101,
101,
101,
101,
100,
101,
101,
100,
100,
100,
100,
100,
101,
100,
100,
100,
100,
100,
100,
99,
100,
100,
100,
100,
99,
100,
100,
99,
99,
100,
99,
99,
99,
99,
99,
99,
99,
99,
99,
99,
99,
99,
99,
99,
99,
98,
98,
99,
99,
99,
99,
98,
98,
98,
99,
98,
98,
97,
98,
98,
98,
98,
98,
98,
98,
97,
98,
97,
97,
97,
97,
98,
97,
96,
97,
97,
96,
97,
97,
97,
97,
97,
97,
96,
96,
96,
96,
96,
96,
96,
96,
96,
95,
95,
96,
96,
96,
96,
95,
95,
96,
95,
95,
95,
95,
95,
95,
95,
95,
94,
95,
95,
95,
95,
94,
95,
95,
94,
95,
94,
94,
94,
95,
94,
94,
94,
95,
94,
94,
94,
94,
94,
94,
93,
94,
94,
94,
94,
93,
93,
93,
93,
94,
94,
94,
93,
93,
92,
92,
93,
92,
93,
92,
93,
92,
92,
92,
92,
92,
93,
92,
92,
92,
92,
92,
92,
91,
92,
92,
92,
92,
92,
92,
92,
92,
91,
91,
91,
91,
91,
91,
91,
91,
91,
91,
91,
91,
91,
91,
91,
90,
91,
91,
90,
91,
90,
90,
90,
91,
90,
90,
90,
90,
90,
90,
90,
90,
89,
89,
90,
89,
89,
90,
89,
90,
89,
90,
89,
89,
89,
89,
89,
89,
89,
89,
89,
88,
88,
88,
88,
88,
88,
88,
88,
88,
88,
88,
88,
87,
88,
87,
88,
88,
88,
88,
87,
88,
88,
87,
88,
87,
88,
87,
88,
87,
88,
87,
88,
87,
87,
86,
87,
87,
87,
87,
87,
87,
87,
87,
87,
87,
86,
87,
87,
86,
86,
86,
86,
87,
86,
86,
85,
86,
86,
86,
85,
86,
85,
85,
86,
86,
85,
86,
85,
85,
85,
85,
85,
85,
85,
86,
85,
84,
85,
84,
84,
84,
84,
84,
85,
84,
85,
84,
84,
84,
84,
84,
84,
84,
84,
84,
84,
84,
84,
83,
84,
84,
84,
83,
84,
84,
84,
83,
83,
83,
83,
83,
83,
83,
83,
83,
83,
83,
82,
83,
83,
83,
83,
83,
83,
83,
83,
82,
83,
82,
83,
83,
82,
82,
82,
82,
83,
82,
82,
82,
82,
81,
82,
82,
82,
81,
81,
81,
82,
81,
81,
81,
81,
82,
81,
81,
81,
81,
82,
81,
81,
81,
80,
81,
81,
81,
81,
81,
80,
80,
80,
80,
80,
80,
80,
81,
80,
80,
80,
80,
80,
80,
80,
79,
80,
80,
79,
80,
80,
79,
79,
79,
79,
79,
80,
80,
79,
79,
79,
79,
80,
79,
79,
79,
79,
78,
79,
79,
79,
79,
78,
79,
79,
79,
79,
79,
78,
78,
79,
78,
78,
78,
79,
78,
78,
78,
78,
78,
78,
77,
78,
78,
78,
78,
78,
77,
78,
78,
78,
77,
77,
77,
78,
77,
77,
77,
77,
77,
77,
77,
76,
76,
77,
77,
77,
77,
76,
76,
76,
76,
76,
77,
76,
76,
76,
76,
76,
76,
75,
76,
76,
75,
76,
75,
75,
76,
76,
76,
75,
75,
76,
75,
75,
75,
75,
75,
75,
75,
75,
75,
75,
75,
75,
75,
75,
75,
75,
75,
74,
75,
75,
75,
75,
75,
74,
74,
75,
75,
74,
74,
74,
74,
74,
74,
75,
74,
74,
74,
74,
74,
74,
73,
73,
74,
74,
73,
73,
74,
73,
73,
73,
73,
74,
73,
73,
73,
72,
73,
73,
72,
73,
73,
73,
73,
73,
73,
72,
72,
72,
72,
72,
72,
72,
72,
73,
72,
72,
72,
72,
72,
73,
72,
72,
72,
71,
72,
72,
72,
71,
72,
71,
72,
71,
71,
72,
71,
71,
71,
71,
71,
71,
71,
71,
71,
71,
71,
71,
71,
71,
71,
71,
71,
71,
71,
71,
71,
71,
70,
70,
71,
71,
70,
70,
71,
71,
70,
70,
70,
70,
71,
70,
70,
70,
70,
71,
69,
69,
70,
69,
70,
69,
70,
69,
69,
69,
69,
69,
69,
69,
69,
69,
69,
69,
69,
69,
69,
68,
69,
69,
68,
69,
68,
68,
69,
68,
68,
68,
68,
68,
68,
68,
68,
68,
68,
68,
68,
67,
68,
68,
68,
68,
67,
68,
68,
68,
68,
68,
67,
68,
67,
67,
68,
67,
67,
67,
67,
67,
67,
67,
67,
67,
67,
67,
67,
67,
67,
67,
67,
67,
67,
67,
67,
66,
67,
67,
67,
67,
67,
67,
67,
66,
66,
67,
67,
66,
66,
66,
66,
66,
67,
66,
66,
66,
66,
66,
66,
66,
66,
66,
65,
66,
65,
65,
65,
66,
65,
65,
66,
65,
65,
65,
66,
65,
65,
65,
65,
65,
65,
65,
65,
65,
65,
65,
65,
65,
65,
65,
64,
64,
65,
64,
65,
64,
65,
64,
64,
64,
64,
64,
64,
64,
64,
64,
65,
64,
64,
64,
64,
64,
63,
64,
64,
64,
63,
63,
64,
64,
64,
64,
64,
64,
64,
63,
63,
63,
63,
62,
63,
63,
63,
63,
63,
63,
63,
63,
63,
63,
63,
63,
63,
63,
63,
63,
63,
62,
62,
62,
63,
62,
62,
62,
63,
62,
61,
62,
62,
63,
62,
62,
62,
62,
62,
61,
61,
62,
62,
61,
62,
62,
62,
62,
62,
62,
61,
61,
61,
61,
61,
61,
61,
61,
62,
61,
61,
61,
61,
60,
62,
61,
61,
61,
61,
61,
60,
61,
61,
61,
61,
60,
60,
60,
60,
60,
60,
60,
60,
60,
61,
60,
60,
60,
60,
60,
60,
60,
60,
60,
60,
59,
60,
59,
60,
59,
60,
60,
60,
59,
60,
60,
60,
60,
59,
59,
59,
60,
59,
59,
59,
59,
59,
60,
59,
59,
59,
59,
59,
59,
59,
59,
59,
59,
59,
59,
59,
59,
59,
59,
59,
59,
58,
58,
59,
58,
58,
58,
59,
58,
58,
58,
59,
58,
58,
58,
59,
57,
58,
58,
58,
58,
58,
57,
58,
58,
58,
58,
57,
58,
58,
57,
58,
57,
58,
58,
58,
57,
57,
58,
57,
57,
57,
57,
57,
57,
57,
57,
56,
57,
57,
57,
57,
57,
56,
57,
57,
57,
56,
56,
