Pruebas/Fail/ALL0006/A0006CH2.CSV

Memory Length,4000,
Trigger Level,1.320E+00,
Source,CH2,
Probe,1X,
Vertical Units,V,
Vertical Scale,2.000E-01,
Vertical Position,-2.720E-01,
Horizontal Units,s,
Horizontal Scale,5.000E-02,
Horizontal Position,0.000E+00,
Horizontal Mode,Main,
Sampling Period,2.000E-04,
Firmware,V1.12,
Time, ,
Mode,Fast,
Waveform Data,
161,
161,
-5,
-5,
-5,
-4,
-4,
-5,
-4,
-5,
-5,
-6,
-5,
-4,
-4,
-5,
-5,
-6,
-5,
-5,
-5,
-4,
-5,
-4,
-4,
-4,
-5,
-5,
-4,
-5,
-4,
-6,
-5,
-5,
-5,
-5,
-5,
-5,
-6,
-5,
-6,
-5,
-5,
-6,
-4,
-5,
-5,
-6,
-4,
-5,
-5,
-4,
-5,
-5,
-5,
-5,
-5,
-6,
-6,
-5,
-5,
-6,
-5,
-5,
-6,
-5,
-6,
-6,
-5,
-5,
-5,
-6,
-5,
-5,
-5,
-5,
-5,
-6,
-6,
-5,
-5,
-4,
-4,
-4,
-6,
-5,
-5,
-5,
-4,
-6,
-6,
-5,
-5,
-5,
-5,
-5,
-4,
-5,
-5,
-5,
-5,
-5,
-5,
-5,
-5,
-5,
-5,
-5,
-5,
-5,
-5,
-5,
-4,
-5,
-6,
-5,
-5,
-5,
-5,
-5,
-4,
-5,
-5,
-6,
-4,
-4,
-5,
-5,
-5,
-4,
-4,
-5,
-6,
-4,
-6,
-5,
-6,
-5,
-5,
-5,
-5,
-5,
-5,
-5,
-5,
-5,
-6,
-4,
-5,
-5,
-5,
-6,
-5,
-5,
-4,
-5,
-5,
-5,
-4,
-5,
-4,
-5,
-5,
-5,
-5,
-5,
-6,
-5,
-5,
-5,
-6,
-6,
-5,
-4,
-4,
-5,
-5,
-5,
-4,
-4,
-5,
-5,
-6,
-5,
-5,
-6,
-4,
-6,
-5,
-6,
-5,
-5,
-5,
-5,
-5,
-5,
-6,
-5,
-5,
-5,
-4,
-5,
-4,
-5,
-5,
-5,
-4,
-5,
-5,
-5,
-6,
-5,
-5,
-4,
-5,
-5,
-5,
-5,
-5,
-4,
-6,
-5,
-5,
-5,
-5,
-6,
-6,
-5,
-5,
-5,
-6,
-6,
-6,
-6,
-4,
-6,
-5,
-4,
-5,
-5,
-5,
-4,
-6,
-5,
-5,
-5,
-5,
-5,
-6,
-6,
-5,
-6,
-6,
-6,
-5,
-5,
-5,
-5,
-4,
-5,
-5,
-6,
-5,
-5,
-6,
-5,
-5,
-5,
-5,
-5,
-5,
-5,
-5,
-5,
-5,
-5,
-4,
-5,
-6,
-5,
-5,
-5,
-6,
-5,
-5,
-5,
-5,
-6,
-5,
-5,
-5,
-5,
-4,
-5,
-6,
-5,
-5,
-6,
-5,
-6,
-5,
-5,
-5,
-5,
-6,
-5,
-5,
-5,
-5,
-5,
-5,
-5,
-5,
-4,
-5,
-5,
-5,
-4,
-5,
-5,
-5,
-5,
-6,
-5,
-4,
-4,
-5,
-6,
-5,
-5,
-4,
-5,
-5,
-5,
-4,
-5,
-6,
-5,
-5,
-5,
-6,
-4,
-6,
-5,
-6,
-5,
-6,
-4,
-5,
-4,
-5,
-5,
-4,
-4,
-5,
-5,
-5,
-5,
-6,
-5,
-6,
-5,
-6,
-5,
-6,
-6,
-5,
-6,
-5,
-5,
-5,
-6,
-5,
-4,
-5,
-5,
-5,
-5,
-5,
-4,
-5,
-5,
-4,
-5,
-5,
-6,
-5,
-5,
-4,
-6,
-5,
-5,
-5,
-5,
-6,
-5,
-6,
-6,
-6,
-5,
-5,
-5,
-5,
-5,
-4,
-6,
-5,
-5,
-5,
-5,
-5,
-5,
-5,
-5,
-4,
-6,
-5,
-6,
-6,
-5,
-4,
-5,
-5,
-6,
-5,
-5,
-5,
-5,
-5,
-6,
-5,
-5,
-6,
-5,
-5,
-5,
-6,
-5,
-5,
-5,
-6,
-6,
-4,
-6,
-5,
-4,
-5,
-6,
-4,
-5,
-5,
-6,
-5,
-5,
-5,
-5,
-4,
-4,
-5,
-6,
-4,
-6,
-4,
-6,
-6,
-6,
-5,
-6,
-5,
-5,
-6,
-6,
-5,
-6,
-5,
-5,
-6,
-5,
-5,
-6,
-6,
-5,
-5,
-5,
-5,
-6,
-6,
-5,
-4,
-5,
-5,
-6,
-4,
-5,
-6,
-4,
-5,
-5,
-5,
-5,
-6,
-5,
-5,
-6,
-5,
-4,
-5,
-5,
-5,
-6,
-5,
-6,
-5,
-5,
-4,
-5,
-5,
-5,
-6,
-5,
-5,
-4,
-5,
-5,
-5,
-5,
-5,
-6,
-6,
-5,
-5,
-5,
-5,
-6,
-5,
-5,
-6,
-5,
-5,
-5,
-5,
-6,
-5,
-6,
-5,
-5,
-5,
-4,
-5,
-6,
-5,
-5,
-5,
-5,
-5,
-5,
-5,
-5,
-5,
-5,
-5,
-5,
-5,
-5,
-4,
-5,
-5,
-5,
-5,
-6,
-5,
-6,
-5,
-5,
-5,
-5,
-5,
-5,
-6,
-6,
-5,
-6,
-5,
-5,
-6,
-5,
-5,
-5,
-5,
-6,
-6,
-5,
-5,
-5,
-5,
-5,
-5,
-5,
-5,
-6,
-4,
-6,
-5,
-5,
-5,
-5,
-5,
-5,
-5,
-6,
-5,
-6,
-6,
-5,
-4,
-5,
-5,
-5,
-5,
-5,
-6,
-6,
-5,
-6,
-6,
-6,
-5,
-6,
-5,
-5,
-5,
-5,
-5,
-5,
-5,
-5,
-6,
-6,
-5,
-5,
-5,
-5,
-5,
-6,
-5,
-5,
-5,
-6,
-5,
-5,
-5,
-5,
-6,
-5,
-5,
-5,
-6,
-6,
-5,
-5,
-5,
-5,
-6,
-4,
-5,
-5,
-5,
-5,
-5,
-5,
-4,
-4,
-6,
-4,
-6,
-5,
-6,
-5,
-6,
-6,
-5,
-5,
-6,
-6,
-6,
-4,
-5,
-5,
-5,
-5,
-5,
-6,
-6,
-5,
-5,
-6,
-5,
-5,
-4,
-6,
-5,
-5,
-6,
-5,
-5,
-5,
-6,
-5,
-6,
-5,
-5,
-5,
-6,
-5,
-5,
-5,
-5,
-5,
-5,
-5,
-4,
-5,
-6,
-6,
-5,
-5,
-5,
-6,
-5,
-5,
-5,
-6,
-6,
-6,
-6,
-4,
-5,
-6,
-5,
-5,
-6,
-6,
-5,
-6,
-5,
-5,
-5,
-5,
-5,
-5,
-6,
-5,
-5,
-5,
-5,
-5,
-6,
-6,
-5,
-5,
-6,
-5,
-6,
-6,
-5,
-4,
-5,
-5,
-4,
-5,
-5,
-6,
-5,
-6,
-5,
-6,
-4,
-6,
-5,
-6,
-5,
-6,
-5,
-5,
-5,
-5,
-6,
-4,
-5,
-5,
-5,
-5,
-6,
-6,
-6,
-5,
-6,
-5,
-6,
-5,
-5,
-6,
-5,
-5,
-5,
-5,
-4,
-5,
-5,
-5,
-5,
-5,
-6,
-4,
-5,
-5,
-5,
-6,
-5,
-6,
-5,
-5,
-6,
-6,
-5,
-6,
-5,
-6,
-5,
-5,
-4,
-6,
-5,
-4,
-5,
-6,
-5,
-5,
-5,
-5,
-4,
-5,
-6,
-6,
-5,
-5,
-5,
-6,
-5,
-4,
-6,
-5,
-5,
-5,
-5,
-6,
-5,
-5,
-5,
-5,
-4,
-5,
-6,
-6,
-5,
-5,
-6,
-5,
-4,
-6,
-5,
-5,
-4,
-5,
-6,
-5,
-6,
-6,
-6,
-5,
-5,
-6,
-6,
-5,
-6,
-5,
-5,
-5,
-6,
-5,
-5,
-5,
-5,
-6,
-5,
-6,
-5,
-5,
-6,
-5,
-6,
-5,
-5,
-5,
-6,
-6,
-5,
-5,
-6,
-5,
-5,
-6,
-5,
-5,
-6,
-6,
-5,
-5,
-6,
-5,
-6,
-6,
-6,
-5,
-5,
-6,
-5,
-6,
-6,
-5,
-6,
-5,
-5,
-5,
-6,
-5,
-6,
-6,
-4,
-5,
-6,
-5,
-5,
-6,
-5,
-4,
-5,
-5,
-6,
-5,
-5,
-5,
-5,
-5,
-5,
-6,
-5,
-6,
-5,
-4,
-6,
-5,
-4,
-5,
-6,
-5,
-5,
-4,
-4,
-4,
-5,
-4,
-5,
-5,
-5,
-6,
-5,
-6,
-5,
-5,
-6,
-6,
-6,
-4,
-5,
-5,
-5,
-5,
-6,
-5,
-5,
-5,
-6,
-5,
-6,
-5,
-5,
-6,
-6,
-5,
-5,
-6,
-5,
-5,
-5,
-6,
-6,
-5,
-5,
-5,
-5,
-5,
-5,
-5,
-5,
-6,
-5,
-6,
-6,
-4,
-5,
-5,
-5,
-4,
-5,
-5,
-6,
-5,
-4,
-4,
-5,
-6,
-6,
-4,
-4,
-5,
-6,
-5,
-6,
-5,
-5,
-6,
-6,
-5,
-5,
-5,
-5,
-4,
-5,
-5,
-5,
-5,
-5,
-5,
-5,
-5,
-6,
-5,
-5,
-6,
-6,
-6,
-6,
-6,
-5,
-5,
-5,
-5,
-6,
-5,
-6,
-4,
-5,
-4,
-5,
-5,
-6,
-5,
-6,
-5,
-5,
-6,
-5,
-5,
-5,
-6,
-6,
-5,
-5,
-5,
-5,
-6,
-6,
-6,
-5,
-5,
-5,
-5,
-6,
-6,
-5,
-5,
-5,
-5,
-5,
-6,
-5,
-5,
-6,
-5,
-5,
-5,
-5,
-5,
-6,
-5,
-5,
-6,
-5,
-6,
-4,
-5,
-4,
-5,
-5,
-5,
-5,
-5,
-5,
-5,
-6,
-5,
-6,
-5,
-5,
-4,
-5,
-4,
-5,
-6,
-5,
-5,
-5,
-5,
-5,
-4,
-5,
-5,
-6,
-5,
-5,
-5,
-5,
-5,
-5,
-5,
-5,
-5,
-5,
-5,
-5,
-5,
-5,
-5,
-6,
-6,
-6,
-6,
-6,
-5,
-4,
-5,
-5,
-4,
-6,
-5,
-5,
-6,
-5,
-5,
-5,
-5,
-5,
-6,
-5,
-5,
-6,
-5,
-5,
-5,
-5,
-5,
-5,
-5,
-6,
-5,
-5,
-5,
-5,
-5,
-6,
-5,
-5,
-5,
-6,
-6,
-6,
-5,
-6,
-4,
-5,
-5,
-6,
-6,
-5,
-6,
-5,
-6,
-5,
-4,
-5,
-5,
-5,
-5,
-5,
-5,
-5,
-6,
-5,
-4,
-5,
-4,
-5,
-6,
-5,
-6,
-6,
-5,
-6,
-5,
-5,
-4,
-6,
-6,
-6,
-5,
-5,
-5,
-5,
-6,
-5,
-5,
-6,
-5,
-4,
-5,
-6,
-5,
-5,
-6,
-5,
-5,
-6,
-6,
-5,
-5,
-5,
-5,
-4,
-5,
-6,
-5,
-4,
-5,
-6,
-6,
-4,
-5,
-5,
-5,
-6,
-5,
-5,
-6,
-5,
-6,
-5,
-4,
-6,
-5,
-5,
-6,
-6,
-5,
-6,
-5,
-5,
-6,
-5,
-4,
-5,
-5,
-6,
-4,
-5,
-5,
-5,
-4,
-5,
-5,
-6,
-6,
-4,
-6,
-5,
-6,
-5,
-6,
-6,
-5,
-4,
-6,
-5,
-6,
-6,
-6,
-6,
-6,
-5,
-4,
-6,
-5,
-6,
-5,
-6,
-5,
-6,
-5,
-5,
-5,
-5,
-5,
-6,
-5,
-5,
-5,
-6,
-5,
-6,
-6,
-5,
-6,
-5,
-5,
-6,
-5,
-5,
-5,
-5,
-5,
-5,
-4,
-5,
-5,
-4,
-5,
-5,
-5,
-5,
-4,
-4,
-5,
-5,
-6,
-5,
-5,
-5,
-5,
-5,
-5,
-4,
-6,
-6,
-6,
-5,
-5,
-6,
-5,
-5,
-6,
-6,
-5,
-5,
-5,
-5,
-5,
-5,
-5,
-5,
-5,
-6,
-6,
-5,
-5,
-6,
-6,
-5,
-6,
-6,
-5,
-5,
-5,
-5,
-5,
-5,
-5,
-5,
-6,
-5,
-6,
-5,
-6,
-5,
-6,
-5,
-6,
-5,
-5,
-5,
-6,
-5,
-5,
-5,
-5,
-5,
-5,
-5,
-5,
-5,
-5,
-5,
-6,
-6,
-5,
-6,
-6,
-5,
-6,
-6,
-6,
-6,
-5,
-5,
-5,
-6,
-5,
-6,
-6,
-5,
-6,
-6,
-5,
-5,
-5,
-4,
-6,
-6,
-5,
-5,
-5,
-5,
-5,
-5,
-5,
-6,
-5,
-5,
-4,
-5,
-5,
-5,
-4,
-6,
-5,
-6,
-6,
-5,
-5,
-5,
-6,
-5,
-6,
-6,
-6,
-5,
-5,
-5,
-4,
-6,
-5,
-5,
-4,
-5,
-5,
-5,
-5,
-5,
-5,
-6,
-4,
-5,
-6,
-6,
-5,
-5,
-5,
-5,
-5,
-6,
-5,
-4,
-6,
-6,
-5,
-5,
-6,
-5,
-6,
-5,
-4,
-5,
-5,
-5,
-5,
-6,
-5,
-4,
-5,
-5,
-5,
-6,
-5,
-5,
-6,
-5,
-6,
-5,
-5,
-5,
-5,
-6,
-5,
-6,
-5,
-5,
-6,
-6,
-6,
-5,
-6,
-5,
-6,
-6,
-6,
-5,
-5,
-4,
-6,
-6,
-6,
-5,
-6,
-5,
-5,
-5,
-5,
-6,
-6,
-5,
-5,
-6,
-6,
-4,
-6,
-5,
-5,
-6,
-6,
-6,
-5,
-6,
-5,
-5,
-6,
-5,
-5,
-5,
-5,
-6,
-5,
-6,
-5,
-4,
-6,
-5,
-6,
-6,
-5,
-5,
-6,
-5,
-5,
-5,
-6,
-5,
-6,
-5,
-5,
-6,
-5,
-5,
-5,
-6,
-6,
-5,
-6,
-6,
-5,
-5,
-5,
-6,
-5,
-5,
-5,
-6,
-5,
-6,
-5,
-5,
-5,
-5,
-5,
-5,
-6,
-5,
-5,
-5,
-5,
-5,
-5,
-6,
-6,
-5,
-6,
-6,
-6,
-5,
-5,
-4,
-6,
-5,
-5,
-5,
-5,
-5,
-6,
-5,
-6,
-5,
-5,
-5,
-5,
-6,
-6,
-6,
-5,
-5,
-6,
-6,
-6,
-5,
-5,
-6,
-5,
-5,
-6,
-6,
-6,
-4,
-6,
-5,
-6,
-6,
-6,
-5,
-5,
-5,
-6,
-6,
-5,
-5,
-5,
-5,
-5,
-5,
-4,
-5,
-6,
-5,
-5,
-5,
-5,
-6,
-5,
-5,
-5,
-5,
-6,
-5,
-6,
-6,
-5,
-6,
-5,
-5,
-5,
-4,
-4,
-5,
-6,
-6,
-6,
-6,
-5,
-5,
-5,
-4,
-5,
-5,
-5,
-5,
-5,
-6,
-6,
-5,
-5,
-6,
-5,
-6,
-6,
-5,
-5,
-6,
-6,
-5,
-5,
-5,
-6,
-6,
-5,
-6,
-6,
-5,
-4,
-5,
-6,
-5,
-4,
-5,
-6,
-5,
-5,
-5,
-5,
-6,
-5,
-5,
-5,
-5,
-5,
-6,
-5,
-6,
-6,
-5,
-5,
-5,
-6,
-6,
-5,
-6,
-5,
-6,
-5,
-5,
-6,
-5,
-5,
-5,
-6,
-6,
-6,
-6,
-5,
-5,
-6,
-6,
-6,
-4,
-5,
-6,
-5,
-5,
-5,
-5,
-6,
-5,
-5,
-6,
-5,
-6,
-6,
-5,
-5,
-5,
-5,
-5,
-5,
-6,
-5,
-5,
-4,
-6,
-6,
-5,
-5,
-6,
-5,
-6,
-5,
-6,
-6,
-6,
-6,
-5,
-5,
-5,
-6,
-4,
-6,
-5,
-5,
-5,
-5,
-4,
-6,
-5,
-5,
-5,
-5,
-5,
-5,
-6,
-6,
-5,
-5,
-6,
-5,
-6,
-6,
-4,
-6,
-6,
-6,
-5,
-5,
-5,
-5,
-6,
-6,
-5,
-6,
-6,
-6,
-5,
-6,
-5,
-6,
-4,
-6,
-5,
-5,
-5,
-5,
-5,
-6,
-6,
-5,
-6,
-6,
-6,
-6,
-6,
-5,
-6,
-5,
-6,
-6,
-4,
-5,
-5,
-6,
-6,
-5,
-6,
-5,
-4,
-6,
-5,
-5,
-6,
-5,
-5,
-6,
-6,
-5,
-5,
-5,
-6,
-5,
-6,
-5,
-6,
-5,
-5,
-4,
-6,
-5,
-5,
-5,
-5,
-5,
-5,
-5,
-5,
-5,
-6,
-5,
-6,
-5,
-6,
-5,
-6,
-5,
-6,
-6,
-5,
-5,
-5,
-6,
-6,
-6,
-6,
-5,
-5,
-6,
-5,
-5,
-6,
-6,
-6,
-5,
-5,
-5,
-5,
-6,
-5,
-5,
-6,
-6,
-5,
-6,
-5,
-4,
-5,
-5,
-5,
-5,
-6,
-6,
-5,
-5,
-4,
-5,
-6,
-5,
-6,
-5,
-5,
3,
20,
35,
51,
66,
81,
94,
108,
121,
134,
146,
158,
161,
161,
161,
161,
161,
161,
161,
161,
161,
161,
161,
161,
161,
161,
161,
161,
161,
161,
161,
161,
161,
161,
161,
161,
161,
161,
161,
161,
161,
161,
161,
161,
161,
161,
161,
161,
161,
161,
161,
161,
161,
161,
161,
161,
161,
161,
161,
161,
161,
161,
161,
161,
161,
161,
161,
161,
161,
161,
161,
161,
161,
161,
161,
161,
161,
161,
161,
161,
161,
161,
161,
161,
161,
161,
161,
161,
161,
161,
161,
161,
161,
161,
161,
161,
161,
161,
161,
161,
161,
161,
161,
161,
161,
161,
161,
161,
161,
161,
161,
161,
161,
161,
161,
161,
161,
161,
161,
161,
161,
161,
161,
161,
161,
161,
161,
161,
161,
161,
161,
161,
161,
161,
161,
161,
161,
161,
161,
161,
161,
161,
161,
161,
161,
161,
161,
161,
161,
161,
161,
161,
161,
161,
161,
161,
161,
161,
161,
161,
161,
161,
161,
161,
161,
161,
161,
161,
161,
161,
161,
161,
161,
161,
161,
161,
161,
161,
161,
161,
161,
161,
161,
161,
161,
161,
161,
161,
161,
161,
161,
161,
161,
161,
161,
161,
161,
161,
161,
161,
161,
161,
161,
161,
161,
161,
161,
161,
161,
161,
161,
161,
161,
161,
161,
161,
161,
161,
161,
161,
161,
161,
161,
161,
161,
161,
161,
161,
161,
161,
161,
161,
161,
161,
161,
161,
161,
161,
161,
161,
161,
161,
161,
161,
161,
161,
161,
161,
161,
161,
161,
161,
161,
161,
161,
161,
161,
161,
161,
161,
161,
161,
161,
161,
161,
161,
161,
161,
161,
161,
161,
161,
161,
161,
161,
161,
161,
161,
161,
161,
161,
161,
161,
161,
161,
161,
161,
161,
161,
161,
161,
161,
161,
161,
161,
161,
161,
161,
161,
161,
161,
161,
161,
161,
161,
161,
161,
161,
161,
161,
161,
161,
161,
161,
161,
161,
161,
161,
161,
161,
161,
161,
161,
161,
161,
161,
161,
161,
161,
161,
161,
161,
161,
161,
161,
161,
161,
161,
161,
161,
161,
161,
161,
161,
161,
161,
161,
161,
161,
161,
161,
161,
161,
161,
161,
161,
161,
161,
161,
161,
161,
161,
161,
161,
161,
161,
161,
161,
161,
161,
161,
161,
161,
161,
161,
161,
161,
161,
161,
161,
161,
161,
161,
161,
161,
161,
161,
161,
161,
161,
161,
161,
161,
161,
161,
161,
161,
161,
161,
161,
161,
161,
161,
161,
161,
161,
161,
161,
161,
161,
161,
161,
161,
161,
161,
161,
161,
161,
161,
161,
161,
161,
161,
161,
161,
161,
161,
161,
161,
161,
161,
161,
161,
161,
161,
161,
161,
161,
161,
161,
161,
161,
161,
161,
161,
161,
161,
161,
161,
161,
161,
161,
161,
161,
161,
161,
161,
161,
161,
161,
161,
161,
161,
161,
161,
161,
161,
161,
161,
161,
161,
161,
161,
161,
161,
161,
161,
161,
161,
161,
161,
161,
161,
161,
161,
161,
161,
161,
161,
161,
161,
161,
161,
161,
161,
161,
161,
161,
161,
161,
161,
161,
161,
161,
161,
161,
161,
161,
161,
161,
161,
161,
161,
161,
161,
161,
161,
161,
161,
161,
161,
161,
161,
161,
161,
161,
161,
161,
161,
161,
161,
161,
161,
161,
161,
161,
161,
161,
161,
161,
161,
161,
161,
161,
161,
161,
161,
161,
161,
161,
161,
161,
161,
161,
161,
161,
161,
161,
161,
161,
161,
161,
161,
161,
161,
161,
161,
161,
161,
161,
161,
161,
161,
161,
161,
161,
161,
161,
161,
161,
161,
161,
161,
161,
161,
161,
161,
161,
161,
161,
161,
161,
161,
161,
161,
161,
161,
161,
161,
161,
161,
161,
161,
161,
161,
161,
161,
161,
161,
161,
161,
161,
161,
161,
161,
161,
161,
161,
161,
161,
161,
161,
161,
161,
161,
161,
161,
161,
161,
161,
161,
161,
161,
161,
161,
161,
161,
161,
161,
161,
161,
161,
161,
161,
161,
161,
161,
161,
161,
161,
161,
161,
161,
161,
161,
161,
161,
161,
161,
161,
161,
161,
161,
161,
161,
161,
161,
161,
161,
161,
161,
161,
161,
161,
161,
161,
161,
161,
161,
161,
161,
161,
161,
161,
161,
161,
161,
161,
161,
161,
161,
161,
161,
161,
161,
161,
161,
161,
161,
161,
161,
161,
161,
161,
161,
161,
161,
161,
161,
161,
161,
161,
161,
161,
161,
161,
161,
161,
161,
161,
161,
161,
161,
161,
161,
161,
161,
161,
161,
161,
161,
161,
161,
161,
161,
161,
161,
161,
161,
161,
161,
161,
161,
161,
161,
161,
161,
161,
161,
161,
161,
161,
161,
161,
161,
161,
161,
161,
161,
161,
161,
161,
161,
161,
161,
161,
161,
161,
161,
161,
161,
161,
161,
161,
161,
161,
161,
161,
161,
161,
161,
161,
161,
161,
161,
161,
161,
161,
161,
161,
161,
161,
161,
161,
161,
161,
161,
161,
161,
161,
161,
161,
161,
161,
161,
161,
161,
161,
161,
161,
161,
161,
161,
161,
161,
161,
161,
161,
161,
161,
161,
161,
161,
161,
161,
161,
161,
161,
161,
161,
161,
161,
161,
161,
161,
161,
161,
161,
161,
161,
161,
161,
161,
161,
161,
161,
161,
161,
161,
161,
161,
161,
161,
161,
161,
161,
161,
161,
161,
161,
161,
161,
161,
161,
161,
161,
161,
161,
161,
161,
161,
161,
161,
161,
161,
161,
161,
161,
161,
161,
161,
161,
161,
161,
161,
161,
161,
161,
161,
161,
161,
161,
161,
161,
161,
161,
161,
161,
161,
161,
161,
161,
161,
161,
161,
161,
161,
161,
161,
161,
161,
161,
161,
161,
161,
161,
161,
161,
161,
161,
161,
161,
161,
161,
161,
161,
161,
161,
161,
161,
161,
161,
161,
161,
161,
161,
161,
161,
161,
161,
161,
161,
161,
161,
161,
161,
161,
161,
161,
161,
161,
161,
161,
161,
161,
161,
161,
161,
161,
161,
161,
161,
161,
161,
161,
161,
161,
161,
161,
161,
161,
161,
161,
161,
161,
161,
161,
161,
161,
161,
161,
161,
161,
161,
161,
161,
161,
161,
161,
161,
161,
161,
161,
161,
161,
161,
161,
161,
161,
161,
161,
161,
161,
161,
161,
161,
161,
161,
161,
161,
161,
161,
161,
161,
161,
161,
161,
161,
161,
161,
161,
161,
161,
161,
161,
161,
161,
161,
161,
161,
161,
161,
161,
161,
161,
161,
161,
161,
161,
161,
161,
161,
161,
161,
161,
161,
161,
161,
161,
161,
161,
161,
161,
161,
161,
161,
161,
161,
161,
161,
161,
161,
161,
161,
161,
161,
161,
161,
161,
161,
161,
161,
161,
161,
161,
161,
161,
161,
161,
161,
161,
161,
161,
161,
161,
161,
161,
161,
161,
161,
161,
161,
161,
161,
161,
161,
161,
161,
161,
161,
161,
161,
161,
161,
161,
161,
161,
161,
161,
161,
161,
161,
161,
161,
161,
161,
161,
161,
161,
161,
161,
161,
161,
161,
161,
161,
161,
161,
161,
161,
161,
161,
161,
161,
161,
161,
161,
161,
161,
161,
161,
161,
161,
161,
161,
161,
161,
161,
161,
161,
161,
161,
161,
161,
161,
161,
161,
161,
161,
161,
161,
161,
161,
161,
161,
161,
161,
161,
161,
161,
161,
161,
161,
161,
161,
161,
161,
161,
161,
161,
161,
161,
161,
161,
161,
161,
161,
161,
161,
161,
161,
161,
161,
161,
161,
161,
161,
161,
161,
161,
161,
161,
161,
161,
161,
161,
161,
161,
161,
161,
161,
161,
161,
161,
161,
161,
161,
161,
161,
161,
161,
161,
161,
161,
161,
161,
161,
161,
161,
161,
161,
161,
161,
161,
161,
161,
161,
161,
161,
161,
161,
161,
161,
161,
161,
161,
161,
161,
161,
161,
161,
161,
161,
161,
161,
161,
161,
161,
161,
161,
161,
161,
161,
161,
161,
161,
161,
161,
161,
161,
161,
161,
161,
161,
161,
161,
161,
161,
161,
161,
161,
161,
161,
161,
161,
161,
161,
161,
161,
161,
161,
161,
161,
161,
161,
161,
161,
161,
161,
161,
161,
161,
161,
161,
161,
161,
161,
161,
161,
161,
161,
161,
161,
161,
161,
161,
161,
161,
161,
161,
161,
161,
161,
161,
161,
161,
161,
161,
161,
161,
161,
161,
161,
161,
161,
161,
161,
161,
161,
161,
161,
161,
161,
161,
161,
161,
161,
161,
161,
161,
161,
161,
161,
161,
161,
161,
161,
161,
161,
161,
161,
161,
161,
161,
161,
161,
161,
161,
161,
161,
161,
161,
161,
161,
161,
161,
161,
161,
161,
161,
161,
161,
161,
161,
161,
161,
161,
161,
161,
161,
161,
161,
161,
161,
161,
161,
161,
161,
161,
161,
161,
161,
161,
161,
161,
161,
161,
161,
161,
161,
161,
161,
161,
161,
161,
161,
161,
161,
161,
161,
161,
161,
161,
161,
161,
161,
161,
161,
161,
161,
161,
161,
161,
161,
161,
161,
161,
161,
161,
161,
161,
161,
161,
161,
161,
161,
161,
161,
161,
161,
161,
161,
161,
161,
161,
161,
161,
161,
161,
161,
161,
161,
161,
161,
161,
161,
161,
161,
161,
161,
161,
161,
161,
161,
161,
161,
161,
161,
161,
161,
161,
161,
161,
161,
161,
161,
161,
161,
161,
161,
161,
161,
161,
161,
161,
161,
161,
161,
161,
161,
161,
161,
161,
161,
161,
161,
161,
161,
161,
161,
161,
161,
161,
161,
161,
161,
161,
161,
161,
161,
161,
161,
161,
161,
161,
161,
161,
161,
161,
161,
161,
161,
161,
161,
161,
161,
161,
161,
161,
161,
161,
161,
161,
161,
161,
161,
161,
161,
161,
161,
161,
161,
161,
161,
161,
161,
161,
161,
161,
161,
161,
161,
161,
161,
161,
161,
161,
161,
161,
161,
161,
161,
161,
161,
161,
161,
161,
161,
161,
161,
161,
161,
161,
161,
161,
161,
161,
161,
161,
161,
161,
161,
161,
161,
161,
161,
161,
161,
161,
161,
161,
161,
161,
161,
161,
161,
161,
161,
161,
161,
161,
161,
161,
161,
161,
161,
161,
161,
161,
161,
161,
161,
161,
161,
161,
161,
161,
161,
161,
161,
161,
161,
161,
161,
161,
161,
161,
161,
161,
161,
161,
161,
161,
161,
161,
161,
161,
161,
161,
161,
161,
161,
161,
161,
161,
161,
161,
161,
161,
161,
161,
161,
161,
161,
161,
161,
161,
161,
161,
161,
161,
161,
161,
161,
161,
161,
161,
161,
161,
161,
161,
161,
161,
161,
161,
161,
161,
161,
161,
161,
161,
161,
161,
161,
161,
161,
161,
161,
161,
161,
161,
161,
161,
161,
161,
161,
161,
161,
161,
161,
161,
161,
161,
161,
161,
161,
161,
161,
161,
161,
161,
161,
161,
161,
161,
161,
161,
161,
161,
161,
161,
161,
161,
161,
161,
161,
161,
161,
161,
161,
161,
161,
161,
161,
161,
161,
161,
161,
161,
161,
161,
161,
161,
161,
161,
161,
161,
161,
161,
161,
161,
161,
161,
161,
161,
161,
161,
161,
161,
161,
161,
161,
161,
161,
161,
161,
161,
161,
161,
161,
161,
161,
161,
161,
161,
161,
161,
161,
161,
161,
161,
161,
161,
161,
161,
161,
161,
161,
161,
161,
161,
161,
161,
161,
161,
161,
161,
161,
161,
161,
161,
161,
161,
161,
161,
161,
161,
161,
161,
161,
161,
161,
161,
161,
161,
161,
161,
161,
161,
161,
161,
161,
161,
161,
161,
161,
161,
161,
161,
161,
161,
161,
161,
161,
161,
161,
161,
161,
161,
161,
161,
161,
161,
161,
161,
161,
161,
161,
161,
161,
161,
161,
161,
161,
161,
161,
161,
161,
161,
161,
161,
161,
161,
161,
161,
161,
161,
161,
161,
161,
161,
161,
161,
161,
161,
161,
161,
161,
161,
161,
161,
161,
161,
161,
161,
161,
161,
161,
161,
161,
161,
161,
161,
161,
161,
161,
161,
161,
161,
161,
161,
161,
161,
161,
161,
161,
161,
161,
161,
161,
161,
161,
161,
161,
161,
161,
161,
161,
161,
161,
161,
161,
161,
161,
161,
161,
161,
161,
161,
161,
161,
161,
161,
161,
161,
161,
161,
161,
161,
161,
161,
161,
161,
161,
161,
161,
161,
161,
161,
161,
161,
161,
161,
161,
161,
161,
161,
161,
161,
161,
161,
161,
161,
161,
161,
161,
161,
161,
161,
161,
161,
161,
161,
161,
161,
161,
161,
161,
161,
161,
161,
161,
161,
161,
161,
161,
161,
161,
161,
161,
161,
