Pruebas/Fail/ALL0006/A0006CH1.CSV

Memory Length,4000,
Trigger Level,1.320E+00,
Source,CH1,
Probe,1X,
Vertical Units,V,
Vertical Scale,1.000E+00,
Vertical Position,-1.320E+00,
Horizontal Units,s,
Horizontal Scale,5.000E-02,
Horizontal Position,0.000E+00,
Horizontal Mode,Main,
Sampling Period,2.000E-04,
Firmware,V1.12,
Time, ,
Mode,Fast,
Waveform Data,
126,
126,
-1,
0,
0,
0,
0,
0,
-1,
0,
0,
-1,
0,
-1,
-1,
0,
0,
0,
0,
-1,
0,
0,
0,
-1,
0,
0,
0,
0,
0,
0,
0,
-1,
0,
0,
0,
0,
0,
0,
0,
0,
0,
0,
0,
0,
0,
0,
0,
0,
0,
0,
0,
0,
0,
0,
0,
0,
0,
0,
0,
-1,
0,
0,
-1,
0,
0,
0,
-1,
0,
0,
0,
0,
0,
0,
0,
0,
0,
0,
0,
0,
0,
0,
0,
0,
0,
0,
0,
0,
0,
0,
0,
0,
0,
0,
-1,
0,
0,
0,
0,
0,
0,
-1,
0,
0,
0,
0,
0,
0,
0,
0,
0,
-1,
0,
0,
0,
0,
0,
0,
0,
0,
0,
0,
0,
0,
0,
0,
0,
0,
0,
0,
0,
0,
0,
0,
0,
0,
0,
0,
0,
0,
0,
0,
0,
0,
-1,
0,
0,
0,
0,
0,
0,
0,
0,
0,
0,
-1,
-1,
0,
0,
0,
0,
0,
-1,
0,
0,
0,
0,
0,
0,
0,
0,
0,
0,
0,
0,
0,
0,
0,
0,
0,
0,
0,
0,
0,
0,
0,
0,
0,
0,
0,
0,
0,
0,
0,
0,
0,
0,
0,
0,
0,
0,
0,
0,
0,
0,
-1,
0,
0,
0,
0,
0,
0,
0,
0,
0,
0,
0,
0,
0,
-1,
0,
0,
0,
-1,
0,
0,
-1,
-1,
0,
0,
0,
0,
0,
0,
0,
0,
0,
0,
0,
0,
0,
0,
0,
0,
0,
0,
0,
0,
0,
0,
0,
0,
0,
0,
0,
0,
0,
0,
0,
0,
0,
0,
0,
0,
-1,
0,
0,
0,
0,
-1,
0,
0,
0,
0,
0,
0,
0,
0,
0,
0,
0,
0,
0,
0,
-1,
0,
0,
0,
0,
0,
0,
0,
0,
0,
0,
0,
0,
0,
0,
0,
0,
0,
0,
0,
0,
0,
0,
0,
0,
0,
0,
0,
0,
0,
0,
0,
0,
-1,
0,
0,
0,
0,
0,
0,
0,
0,
0,
0,
0,
0,
0,
0,
0,
0,
0,
-1,
0,
0,
-1,
0,
0,
0,
0,
0,
0,
0,
0,
0,
0,
0,
0,
0,
0,
0,
0,
0,
0,
0,
0,
0,
0,
0,
0,
0,
0,
0,
0,
0,
0,
0,
0,
0,
0,
0,
0,
0,
0,
0,
0,
0,
0,
-1,
-1,
-1,
0,
0,
0,
0,
0,
0,
0,
0,
0,
0,
0,
0,
0,
0,
0,
-1,
0,
0,
0,
0,
0,
0,
0,
0,
0,
0,
0,
0,
0,
0,
0,
0,
0,
0,
0,
0,
0,
0,
0,
0,
0,
-1,
0,
0,
0,
0,
0,
0,
0,
0,
0,
0,
0,
0,
0,
0,
0,
0,
0,
0,
0,
0,
0,
0,
0,
0,
0,
0,
0,
0,
0,
0,
0,
0,
0,
0,
0,
0,
0,
0,
0,
0,
-1,
0,
0,
0,
0,
0,
0,
0,
0,
0,
0,
0,
0,
0,
0,
0,
0,
0,
0,
0,
0,
0,
0,
0,
0,
-1,
0,
0,
0,
-1,
0,
0,
0,
0,
0,
0,
0,
-1,
0,
0,
0,
0,
0,
0,
0,
0,
0,
0,
0,
0,
0,
0,
-1,
0,
0,
0,
0,
0,
0,
0,
0,
-1,
-1,
0,
0,
0,
0,
0,
0,
-1,
-1,
0,
0,
-1,
0,
0,
0,
0,
0,
0,
0,
0,
0,
0,
0,
0,
0,
0,
0,
0,
0,
0,
0,
0,
-1,
0,
0,
0,
0,
0,
0,
0,
0,
0,
0,
0,
0,
-1,
0,
0,
0,
0,
0,
0,
0,
0,
0,
0,
0,
0,
0,
-1,
0,
0,
0,
0,
0,
0,
0,
0,
0,
0,
0,
0,
0,
0,
0,
0,
0,
0,
0,
0,
0,
0,
0,
0,
0,
0,
0,
0,
0,
0,
0,
0,
0,
0,
0,
-1,
0,
0,
-1,
0,
0,
0,
0,
0,
0,
0,
0,
0,
0,
0,
0,
0,
-1,
0,
0,
0,
0,
0,
-1,
0,
0,
0,
0,
0,
0,
0,
0,
0,
0,
0,
0,
0,
0,
0,
0,
0,
0,
0,
0,
0,
0,
-1,
0,
0,
-1,
0,
0,
0,
0,
0,
0,
0,
-1,
0,
0,
0,
0,
0,
-1,
0,
0,
0,
0,
0,
0,
0,
0,
0,
0,
0,
0,
0,
0,
0,
0,
0,
0,
0,
0,
0,
0,
0,
0,
0,
0,
0,
0,
0,
0,
0,
0,
0,
0,
0,
0,
0,
0,
0,
0,
0,
0,
0,
0,
0,
0,
0,
0,
0,
0,
0,
0,
-1,
0,
0,
0,
0,
0,
0,
0,
0,
0,
0,
0,
0,
0,
0,
-1,
-1,
0,
0,
0,
0,
0,
0,
0,
0,
0,
0,
0,
0,
0,
0,
0,
0,
0,
0,
0,
0,
0,
1,
0,
0,
0,
0,
0,
0,
-1,
0,
-1,
0,
0,
-1,
0,
0,
0,
0,
0,
-1,
0,
0,
0,
0,
0,
-1,
0,
0,
0,
0,
0,
0,
0,
0,
0,
-1,
0,
0,
0,
0,
0,
0,
0,
0,
0,
0,
0,
-1,
0,
0,
-1,
0,
0,
0,
0,
0,
-1,
0,
0,
0,
0,
0,
0,
0,
0,
0,
0,
0,
-1,
0,
0,
0,
0,
0,
0,
0,
0,
0,
0,
0,
0,
-1,
0,
0,
0,
0,
0,
0,
0,
0,
0,
0,
0,
0,
0,
0,
0,
0,
0,
0,
0,
0,
0,
0,
0,
0,
-1,
-1,
0,
0,
0,
0,
0,
0,
0,
0,
0,
0,
0,
0,
0,
0,
0,
0,
0,
0,
0,
0,
0,
0,
0,
0,
0,
0,
0,
0,
0,
0,
-1,
-1,
0,
0,
0,
-1,
0,
0,
0,
0,
0,
0,
0,
0,
0,
0,
0,
0,
0,
0,
0,
0,
0,
-1,
0,
0,
0,
0,
0,
0,
0,
0,
0,
0,
0,
0,
0,
0,
0,
0,
0,
0,
0,
0,
0,
0,
0,
0,
0,
0,
0,
0,
0,
0,
0,
0,
0,
0,
0,
0,
-1,
0,
0,
0,
0,
0,
0,
0,
0,
0,
0,
0,
-1,
0,
0,
0,
0,
0,
0,
0,
0,
0,
0,
0,
0,
0,
0,
0,
0,
0,
0,
0,
0,
0,
0,
0,
0,
0,
0,
0,
0,
0,
0,
-1,
-1,
-1,
0,
-1,
0,
0,
0,
0,
0,
0,
0,
-1,
0,
0,
0,
0,
0,
0,
0,
0,
0,
-1,
0,
0,
0,
0,
0,
0,
0,
0,
-1,
0,
0,
0,
0,
0,
-1,
0,
0,
0,
0,
0,
0,
0,
-1,
0,
0,
0,
0,
0,
0,
0,
0,
0,
0,
0,
0,
0,
0,
0,
0,
0,
0,
0,
-1,
0,
0,
0,
-1,
0,
0,
0,
0,
0,
0,
0,
-1,
0,
0,
0,
0,
0,
-1,
0,
0,
0,
-1,
0,
0,
0,
0,
0,
0,
-1,
0,
0,
0,
0,
0,
0,
0,
0,
0,
0,
0,
0,
0,
0,
0,
0,
-1,
0,
0,
0,
0,
0,
0,
0,
0,
0,
0,
0,
-1,
0,
0,
0,
0,
0,
0,
0,
0,
0,
0,
0,
0,
0,
0,
0,
0,
0,
0,
0,
0,
0,
0,
0,
-1,
0,
0,
0,
0,
-1,
0,
0,
0,
0,
1,
0,
0,
0,
0,
0,
0,
0,
0,
0,
0,
-1,
0,
0,
0,
0,
0,
0,
0,
0,
0,
-1,
0,
0,
0,
0,
0,
0,
0,
0,
0,
0,
0,
0,
0,
0,
0,
0,
0,
0,
0,
1,
0,
0,
0,
-1,
0,
-1,
0,
0,
0,
0,
0,
0,
0,
0,
0,
0,
0,
-1,
0,
0,
0,
0,
0,
0,
0,
0,
0,
0,
0,
0,
-1,
0,
0,
0,
-1,
0,
0,
0,
-1,
-1,
0,
0,
0,
0,
0,
0,
0,
0,
0,
0,
0,
0,
0,
0,
0,
0,
0,
0,
0,
0,
0,
0,
0,
0,
0,
0,
0,
0,
0,
0,
0,
0,
-1,
0,
0,
0,
-1,
0,
-1,
-1,
0,
0,
0,
0,
0,
0,
0,
0,
0,
0,
0,
0,
0,
0,
0,
0,
0,
0,
0,
0,
0,
0,
0,
0,
0,
0,
0,
0,
0,
0,
0,
0,
0,
0,
0,
0,
0,
0,
0,
0,
0,
0,
0,
0,
0,
0,
0,
0,
0,
0,
0,
0,
0,
0,
-1,
0,
0,
0,
0,
0,
0,
0,
0,
0,
-1,
0,
0,
0,
0,
0,
0,
0,
0,
0,
0,
0,
0,
0,
0,
0,
0,
0,
0,
-1,
0,
0,
0,
0,
0,
0,
0,
0,
0,
0,
0,
0,
0,
0,
0,
0,
0,
0,
0,
0,
0,
-1,
0,
0,
0,
0,
0,
0,
0,
0,
0,
0,
0,
0,
0,
0,
-1,
0,
0,
-1,
0,
0,
0,
0,
0,
0,
0,
0,
0,
0,
0,
0,
0,
0,
0,
0,
0,
0,
0,
0,
0,
-1,
0,
0,
0,
0,
0,
0,
0,
0,
0,
0,
0,
0,
0,
0,
0,
0,
-1,
0,
0,
0,
1,
0,
0,
0,
-1,
0,
0,
0,
0,
0,
0,
0,
0,
0,
0,
0,
0,
0,
0,
0,
-1,
0,
0,
0,
0,
0,
-1,
0,
0,
0,
0,
-1,
0,
0,
0,
0,
0,
0,
0,
0,
0,
0,
0,
0,
0,
0,
0,
-1,
0,
0,
0,
0,
0,
0,
0,
0,
0,
0,
0,
-1,
0,
0,
0,
0,
0,
0,
0,
0,
0,
0,
0,
-1,
0,
0,
-1,
0,
0,
0,
0,
0,
-1,
0,
0,
0,
0,
0,
0,
0,
0,
0,
0,
-1,
0,
0,
0,
0,
0,
0,
0,
0,
0,
0,
0,
0,
0,
0,
0,
0,
0,
0,
0,
0,
0,
0,
0,
0,
0,
0,
0,
0,
0,
-1,
-1,
0,
0,
0,
0,
0,
0,
0,
0,
-1,
0,
0,
0,
0,
0,
0,
0,
0,
0,
0,
0,
0,
0,
0,
-1,
0,
0,
-1,
0,
0,
0,
0,
0,
-1,
0,
0,
0,
0,
0,
0,
-1,
0,
-1,
0,
0,
0,
0,
0,
0,
0,
0,
0,
0,
0,
0,
0,
0,
0,
0,
0,
0,
-1,
0,
0,
0,
0,
0,
-1,
0,
0,
0,
0,
0,
0,
-1,
0,
0,
-1,
0,
0,
0,
0,
0,
0,
0,
0,
0,
0,
0,
0,
-1,
0,
0,
0,
0,
0,
0,
-1,
-1,
0,
0,
0,
0,
0,
0,
0,
0,
0,
0,
0,
-1,
0,
0,
0,
0,
0,
0,
0,
0,
0,
0,
0,
0,
0,
0,
0,
0,
0,
0,
0,
0,
0,
0,
0,
0,
0,
0,
-1,
0,
0,
0,
0,
0,
0,
0,
0,
0,
0,
0,
0,
0,
0,
0,
0,
0,
0,
0,
0,
0,
0,
0,
0,
0,
0,
0,
0,
0,
0,
0,
0,
0,
0,
0,
0,
0,
0,
0,
0,
0,
0,
0,
0,
0,
0,
0,
0,
0,
0,
0,
0,
0,
0,
0,
0,
-1,
-1,
0,
0,
0,
0,
0,
0,
-1,
0,
0,
0,
0,
0,
0,
0,
0,
0,
0,
0,
0,
0,
0,
0,
0,
0,
0,
0,
0,
0,
0,
0,
0,
0,
0,
0,
0,
0,
0,
0,
0,
0,
0,
0,
0,
0,
0,
-1,
0,
-1,
0,
0,
0,
0,
0,
0,
0,
-1,
-1,
0,
0,
-1,
0,
0,
0,
0,
0,
0,
0,
-1,
0,
0,
0,
0,
-1,
0,
0,
0,
-1,
0,
0,
-1,
0,
0,
0,
0,
0,
0,
0,
0,
0,
0,
0,
0,
0,
0,
0,
-1,
0,
0,
0,
0,
0,
0,
0,
0,
0,
0,
0,
0,
-1,
0,
0,
0,
0,
0,
0,
0,
0,
0,
0,
0,
0,
0,
0,
0,
0,
0,
0,
-1,
0,
0,
0,
0,
0,
0,
0,
0,
0,
0,
-1,
0,
0,
0,
0,
-1,
0,
0,
0,
0,
0,
0,
0,
0,
0,
0,
0,
0,
0,
0,
0,
0,
0,
0,
0,
0,
0,
-1,
0,
0,
0,
-1,
0,
0,
0,
0,
0,
0,
0,
-1,
0,
0,
0,
0,
-1,
0,
0,
0,
0,
0,
0,
0,
0,
0,
0,
0,
0,
0,
0,
0,
0,
0,
0,
0,
0,
0,
0,
0,
0,
0,
0,
0,
0,
0,
0,
0,
0,
0,
0,
0,
0,
0,
127,
126,
125,
125,
124,
124,
124,
124,
123,
124,
123,
123,
122,
122,
123,
122,
123,
123,
122,
123,
123,
123,
123,
124,
124,
123,
124,
124,
124,
124,
124,
124,
124,
125,
125,
125,
126,
125,
126,
125,
126,
126,
126,
126,
127,
126,
126,
126,
126,
126,
127,
126,
127,
126,
127,
126,
127,
127,
126,
126,
126,
127,
126,
127,
126,
126,
126,
126,
126,
127,
126,
126,
126,
126,
127,
126,
126,
126,
126,
126,
126,
125,
127,
126,
126,
126,
126,
126,
126,
126,
126,
126,
126,
126,
126,
127,
127,
126,
126,
126,
126,
126,
126,
127,
127,
126,
127,
126,
127,
126,
126,
127,
127,
126,
126,
126,
126,
126,
126,
126,
127,
127,
127,
127,
126,
126,
127,
126,
126,
127,
125,
126,
126,
126,
126,
126,
127,
126,
126,
127,
126,
126,
126,
127,
126,
126,
126,
126,
126,
126,
127,
126,
126,
127,
126,
126,
127,
127,
126,
127,
127,
126,
127,
127,
127,
126,
127,
126,
126,
126,
126,
126,
126,
126,
126,
126,
126,
126,
126,
125,
126,
127,
126,
127,
127,
126,
126,
126,
126,
127,
127,
126,
126,
126,
127,
126,
126,
127,
127,
125,
127,
127,
126,
127,
127,
126,
127,
127,
127,
126,
126,
126,
126,
126,
126,
127,
126,
126,
126,
126,
127,
126,
126,
127,
126,
127,
127,
127,
126,
126,
127,
126,
126,
127,
127,
126,
126,
127,
126,
126,
126,
126,
126,
126,
126,
126,
126,
126,
126,
126,
126,
127,
126,
126,
126,
127,
126,
127,
127,
126,
127,
126,
127,
126,
126,
127,
126,
126,
127,
127,
126,
126,
126,
127,
126,
127,
127,
126,
127,
127,
126,
126,
126,
126,
127,
127,
126,
126,
126,
127,
127,
127,
126,
126,
127,
127,
127,
127,
127,
127,
127,
126,
126,
126,
126,
126,
126,
127,
127,
126,
126,
126,
126,
126,
127,
127,
126,
126,
126,
126,
126,
125,
127,
126,
126,
126,
126,
126,
126,
126,
126,
127,
127,
127,
126,
126,
127,
126,
126,
126,
126,
126,
126,
127,
127,
127,
127,
126,
127,
127,
126,
126,
127,
126,
127,
127,
126,
126,
126,
126,
126,
127,
126,
127,
126,
126,
127,
127,
126,
127,
127,
126,
127,
126,
126,
126,
126,
126,
127,
126,
126,
126,
127,
127,
127,
127,
127,
126,
127,
126,
127,
126,
127,
127,
126,
127,
126,
127,
127,
126,
126,
126,
127,
126,
127,
127,
127,
126,
127,
126,
127,
127,
126,
126,
126,
126,
126,
126,
127,
127,
127,
127,
127,
127,
127,
127,
127,
127,
127,
127,
127,
127,
126,
126,
127,
126,
127,
127,
127,
126,
125,
127,
126,
127,
126,
126,
127,
127,
127,
126,
127,
126,
127,
126,
126,
126,
126,
126,
126,
126,
127,
127,
127,
126,
126,
126,
127,
126,
126,
126,
126,
127,
126,
127,
127,
127,
126,
126,
127,
127,
127,
126,
126,
126,
127,
127,
127,
126,
127,
126,
126,
127,
126,
126,
126,
126,
126,
126,
126,
126,
127,
127,
127,
126,
126,
126,
127,
126,
127,
126,
126,
126,
127,
126,
127,
127,
126,
127,
126,
127,
126,
126,
127,
127,
126,
126,
127,
127,
127,
126,
126,
126,
126,
126,
126,
126,
126,
127,
127,
127,
126,
126,
126,
127,
126,
127,
127,
126,
126,
127,
126,
127,
126,
126,
126,
128,
127,
126,
126,
127,
126,
127,
126,
126,
127,
126,
126,
127,
126,
127,
126,
126,
127,
127,
126,
127,
126,
127,
127,
126,
126,
127,
126,
127,
127,
126,
126,
126,
126,
127,
127,
126,
127,
126,
126,
127,
126,
127,
126,
126,
126,
126,
126,
126,
126,
126,
127,
126,
126,
127,
126,
126,
127,
127,
126,
127,
127,
126,
126,
126,
127,
127,
127,
127,
127,
126,
126,
126,
127,
126,
126,
126,
126,
126,
127,
127,
126,
126,
126,
126,
127,
126,
127,
127,
127,
127,
126,
126,
126,
126,
127,
126,
127,
126,
126,
126,
127,
127,
126,
127,
127,
126,
126,
126,
127,
126,
127,
126,
127,
126,
127,
126,
127,
127,
127,
126,
126,
127,
127,
127,
126,
126,
126,
126,
127,
127,
126,
127,
127,
126,
126,
126,
127,
127,
126,
127,
127,
126,
126,
126,
126,
127,
126,
126,
126,
127,
126,
126,
126,
126,
126,
126,
126,
126,
126,
126,
127,
126,
127,
126,
126,
126,
127,
127,
127,
126,
127,
127,
126,
126,
126,
126,
126,
126,
126,
126,
127,
127,
126,
127,
126,
127,
126,
126,
127,
127,
126,
126,
127,
127,
127,
127,
126,
126,
126,
127,
127,
127,
126,
126,
127,
127,
127,
127,
126,
126,
126,
126,
127,
127,
127,
126,
127,
126,
127,
126,
127,
126,
126,
126,
127,
126,
126,
127,
127,
127,
126,
126,
127,
127,
126,
127,
127,
126,
126,
126,
126,
126,
126,
127,
126,
127,
126,
127,
126,
126,
127,
126,
126,
126,
126,
127,
126,
126,
126,
127,
127,
126,
126,
126,
126,
126,
127,
126,
126,
126,
126,
126,
126,
127,
127,
126,
126,
126,
126,
127,
127,
127,
127,
127,
126,
126,
126,
127,
126,
127,
127,
126,
127,
127,
126,
126,
127,
127,
126,
126,
126,
126,
126,
126,
126,
127,
126,
127,
126,
126,
126,
127,
126,
126,
126,
126,
126,
126,
126,
126,
127,
126,
127,
126,
126,
126,
126,
127,
126,
126,
126,
126,
126,
126,
127,
126,
126,
126,
127,
127,
127,
126,
127,
127,
127,
127,
126,
127,
126,
127,
126,
126,
127,
126,
127,
126,
127,
127,
126,
127,
126,
126,
126,
127,
127,
126,
126,
126,
126,
126,
127,
126,
126,
127,
127,
127,
126,
126,
127,
127,
127,
126,
127,
127,
126,
126,
126,
127,
126,
126,
127,
127,
127,
126,
126,
127,
126,
126,
126,
126,
126,
126,
126,
126,
126,
126,
126,
126,
126,
127,
126,
127,
126,
127,
127,
126,
126,
126,
126,
127,
126,
126,
126,
126,
126,
126,
126,
126,
126,
127,
127,
127,
127,
126,
127,
127,
126,
127,
127,
127,
126,
126,
127,
127,
127,
127,
126,
126,
127,
126,
126,
126,
126,
126,
127,
126,
126,
126,
126,
127,
127,
126,
126,
126,
127,
126,
126,
126,
126,
126,
126,
126,
126,
127,
127,
126,
126,
126,
126,
127,
126,
126,
126,
127,
126,
126,
126,
126,
126,
126,
126,
127,
126,
126,
126,
126,
126,
126,
126,
126,
127,
127,
126,
127,
126,
126,
127,
126,
126,
127,
126,
127,
127,
127,
126,
126,
127,
126,
126,
126,
126,
126,
127,
127,
127,
127,
127,
126,
126,
126,
126,
127,
127,
127,
127,
127,
126,
126,
126,
127,
126,
127,
126,
127,
126,
126,
127,
127,
127,
127,
127,
126,
127,
127,
126,
127,
127,
126,
126,
126,
126,
127,
126,
126,
126,
126,
126,
126,
126,
126,
126,
126,
126,
126,
126,
126,
126,
126,
126,
126,
126,
127,
127,
126,
127,
127,
126,
127,
126,
127,
127,
126,
126,
126,
126,
127,
126,
126,
126,
126,
126,
126,
127,
126,
126,
126,
126,
126,
126,
127,
126,
126,
126,
126,
127,
126,
126,
126,
127,
126,
126,
126,
127,
127,
126,
126,
127,
126,
127,
127,
126,
126,
127,
126,
126,
127,
126,
126,
126,
126,
126,
127,
127,
126,
126,
126,
126,
127,
126,
126,
127,
126,
126,
127,
126,
126,
126,
126,
126,
126,
126,
125,
127,
126,
127,
126,
126,
126,
126,
126,
126,
127,
126,
127,
127,
127,
126,
127,
127,
126,
127,
126,
127,
127,
126,
127,
126,
126,
127,
127,
126,
126,
126,
126,
127,
127,
127,
127,
126,
126,
126,
126,
126,
127,
126,
126,
127,
126,
126,
126,
126,
126,
127,
127,
126,
127,
127,
127,
126,
126,
127,
127,
127,
126,
127,
127,
126,
126,
127,
126,
126,
126,
127,
126,
127,
126,
126,
126,
127,
127,
126,
126,
127,
127,
127,
127,
126,
126,
127,
127,
126,
127,
126,
126,
126,
126,
126,
126,
126,
126,
126,
127,
126,
127,
127,
127,
127,
127,
126,
127,
127,
126,
127,
126,
126,
126,
126,
127,
126,
126,
126,
126,
127,
127,
127,
127,
126,
126,
127,
126,
126,
127,
127,
126,
126,
126,
126,
126,
127,
126,
126,
126,
127,
126,
126,
126,
126,
126,
127,
126,
126,
127,
126,
126,
127,
126,
126,
127,
126,
127,
126,
126,
127,
126,
126,
127,
127,
127,
127,
127,
126,
127,
126,
127,
127,
127,
126,
127,
126,
126,
126,
126,
127,
127,
127,
126,
127,
126,
126,
126,
125,
127,
126,
126,
126,
126,
126,
126,
127,
126,
126,
126,
127,
126,
127,
126,
126,
127,
126,
127,
126,
126,
126,
127,
126,
126,
126,
127,
127,
127,
127,
127,
127,
127,
126,
126,
126,
126,
127,
126,
126,
127,
127,
127,
126,
126,
126,
126,
127,
126,
126,
127,
126,
127,
126,
126,
127,
127,
126,
126,
126,
126,
127,
126,
126,
126,
127,
127,
126,
126,
127,
126,
126,
127,
127,
127,
126,
126,
127,
126,
126,
127,
127,
126,
127,
126,
126,
126,
127,
126,
127,
126,
126,
126,
126,
126,
127,
126,
126,
127,
126,
127,
126,
127,
127,
127,
126,
127,
127,
126,
126,
126,
126,
126,
126,
126,
127,
126,
127,
127,
126,
126,
127,
126,
127,
126,
127,
126,
127,
126,
126,
127,
126,
126,
126,
127,
125,
126,
126,
126,
126,
127,
126,
127,
126,
127,
126,
127,
126,
126,
126,
126,
126,
126,
126,
126,
126,
127,
127,
126,
127,
126,
125,
126,
127,
127,
127,
126,
126,
126,
127,
127,
126,
126,
126,
126,
127,
126,
126,
126,
127,
126,
126,
126,
127,
127,
126,
126,
126,
127,
126,
126,
126,
126,
127,
126,
127,
126,
127,
126,
127,
126,
126,
126,
126,
127,
127,
126,
127,
126,
126,
127,
126,
127,
127,
126,
126,
126,
127,
126,
127,
126,
127,
126,
126,
127,
127,
126,
127,
126,
126,
127,
126,
126,
126,
127,
126,
127,
126,
127,
127,
126,
127,
126,
126,
126,
127,
127,
125,
126,
127,
127,
126,
126,
126,
126,
126,
126,
127,
126,
126,
127,
127,
126,
126,
127,
126,
126,
126,
126,
126,
126,
127,
126,
127,
126,
127,
126,
126,
126,
126,
127,
127,
127,
126,
127,
126,
127,
127,
126,
127,
127,
127,
127,
127,
125,
126,
126,
126,
126,
126,
126,
126,
126,
127,
126,
127,
127,
127,
127,
126,
126,
127,
126,
127,
127,
126,
127,
127,
126,
126,
125,
126,
127,
127,
126,
127,
126,
126,
126,
127,
127,
127,
126,
127,
127,
126,
127,
126,
126,
126,
126,
126,
126,
127,
126,
127,
127,
127,
127,
127,
126,
126,
127,
126,
127,
126,
127,
126,
126,
126,
126,
126,
127,
127,
126,
127,
126,
127,
126,
126,
126,
127,
126,
126,
127,
127,
126,
126,
126,
127,
126,
126,
127,
127,
127,
126,
127,
126,
126,
127,
126,
126,
126,
127,
127,
126,
126,
127,
126,
126,
126,
126,
127,
127,
126,
126,
127,
126,
127,
126,
127,
126,
126,
127,
127,
127,
126,
126,
127,
126,
126,
126,
126,
126,
127,
126,
126,
126,
126,
126,
127,
127,
126,
127,
127,
126,
126,
126,
126,
126,
126,
126,
126,
126,
127,
126,
127,
127,
126,
126,
127,
126,
126,
126,
126,
127,
127,
126,
127,
126,
127,
126,
127,
127,
126,
127,
126,
127,
127,
127,
126,
126,
126,
126,
126,
126,
127,
127,
127,
127,
127,
127,
126,
126,
127,
127,
127,
126,
126,
127,
127,
127,
126,
126,
127,
126,
126,
126,
126,
127,
127,
126,
126,
127,
126,
127,
126,
127,
126,
126,
126,
126,
127,
126,
125,
126,
126,
126,
126,
127,
127,
126,
127,
126,
127,
127,
127,
127,
126,
127,
126,
127,
127,
126,
127,
127,
127,
127,
127,
126,
125,
127,
127,
127,
127,
127,
126,
127,
127,
126,
126,
127,
127,
127,
127,
126,
126,
126,
126,
126,
127,
127,
126,
126,
127,
126,
127,
127,
126,
127,
127,
126,
126,
126,
126,
126,
127,
126,
127,
127,
126,
126,
127,
126,
127,
127,
126,
127,
126,
127,
126,
127,
125,
127,
