Pruebas/Fail/ALL0000/A0000CH1.CSV

Memory Length,4000,
Trigger Level,1.320E+00,
Source,CH1,
Probe,1X,
Vertical Units,V,
Vertical Scale,1.000E+00,
Vertical Position,-1.920E+00,
Horizontal Units,s,
Horizontal Scale,5.000E-02,
Horizontal Position,0.000E+00,
Horizontal Mode,Main,
Sampling Period,2.000E-04,
Firmware,V1.12,
Time, ,
Mode,Fast,
Waveform Data,
0,
0,
-1,
-1,
0,
-1,
-1,
-1,
-1,
0,
-1,
-1,
0,
-1,
-1,
-1,
-1,
-1,
-1,
-1,
-1,
0,
0,
-1,
-1,
-1,
-1,
0,
-1,
1,
0,
-1,
-1,
-1,
-1,
0,
0,
-1,
-1,
-1,
-1,
-1,
0,
-1,
-1,
0,
-1,
-1,
0,
-1,
-1,
0,
-1,
-1,
0,
-1,
0,
0,
-1,
-1,
-1,
-1,
-1,
-1,
-1,
-1,
-1,
-1,
-1,
-1,
0,
-1,
0,
-1,
0,
0,
-1,
-1,
-1,
-1,
0,
0,
-1,
-1,
0,
0,
-1,
0,
-1,
-1,
-1,
-1,
0,
0,
0,
-1,
-1,
0,
-1,
-1,
0,
0,
0,
-1,
-1,
0,
-1,
-1,
0,
-1,
-1,
-1,
0,
-1,
-1,
-1,
0,
0,
0,
0,
-1,
0,
-1,
-1,
0,
0,
-1,
-1,
-1,
-1,
0,
-1,
-1,
-1,
-1,
-1,
-1,
-1,
-1,
0,
-1,
-1,
0,
-1,
0,
-1,
-1,
-1,
-1,
0,
-1,
-1,
0,
-1,
0,
0,
-1,
-1,
-1,
-1,
-1,
-1,
-1,
-1,
-1,
0,
0,
-1,
0,
-1,
-1,
-1,
-1,
-1,
-1,
0,
0,
0,
0,
0,
-1,
-1,
0,
0,
0,
-1,
-1,
-1,
-1,
-1,
-1,
-1,
-1,
-1,
-1,
-1,
0,
-1,
0,
-1,
-1,
0,
-1,
-1,
-1,
-1,
-1,
-1,
-1,
-1,
-1,
-1,
0,
-1,
0,
0,
-1,
0,
0,
-1,
-1,
-1,
0,
-1,
-1,
0,
-1,
-1,
0,
-1,
-1,
-1,
-1,
-1,
-1,
-1,
-1,
-1,
-1,
-1,
0,
-1,
-1,
-1,
0,
-1,
0,
0,
0,
0,
-1,
0,
0,
-1,
-1,
0,
0,
0,
-1,
-1,
-1,
0,
-1,
-1,
-1,
-1,
0,
-1,
0,
0,
-1,
-1,
-1,
-1,
-1,
-1,
-1,
0,
-1,
-1,
-1,
-1,
0,
0,
-1,
0,
0,
-1,
-1,
0,
-1,
-1,
-1,
0,
-1,
-1,
-1,
-1,
0,
0,
-1,
-1,
0,
0,
-1,
0,
-1,
0,
-1,
-1,
-1,
-1,
-1,
-1,
0,
-1,
-1,
-1,
0,
-1,
-1,
-1,
-1,
-1,
-1,
-1,
-1,
0,
-1,
0,
-1,
0,
-1,
-1,
-1,
-1,
0,
-1,
-1,
-1,
0,
0,
0,
-1,
0,
-1,
0,
-1,
0,
-1,
-1,
-1,
0,
0,
-1,
0,
0,
0,
-1,
-1,
-1,
-1,
-1,
0,
0,
0,
-1,
-1,
0,
-1,
0,
0,
-1,
-1,
0,
-1,
-1,
-1,
0,
0,
0,
0,
0,
-1,
-1,
-1,
0,
0,
0,
-1,
-1,
0,
-1,
-1,
0,
0,
-1,
-1,
-1,
-1,
-1,
0,
0,
-1,
-1,
0,
-1,
-1,
-1,
-1,
-1,
0,
0,
-1,
0,
0,
0,
-1,
-1,
-1,
-1,
0,
-1,
-1,
-1,
-1,
0,
-1,
-1,
-1,
-1,
-1,
-1,
-1,
-1,
0,
0,
0,
-1,
0,
-1,
-1,
0,
0,
-1,
-1,
-1,
-1,
0,
-1,
0,
0,
-1,
-1,
-1,
-1,
-1,
-1,
-1,
-1,
-1,
-1,
0,
0,
-1,
-1,
0,
0,
-1,
0,
-1,
-1,
0,
-1,
-1,
-1,
-1,
0,
-1,
0,
-1,
-1,
0,
-1,
0,
0,
1,
-1,
-1,
0,
0,
-1,
0,
-1,
0,
0,
-1,
-1,
-1,
0,
-1,
-1,
-1,
-1,
-1,
-1,
-1,
-1,
0,
-1,
-1,
0,
0,
0,
-1,
0,
0,
0,
0,
0,
0,
-1,
0,
-1,
0,
0,
0,
-1,
-1,
-1,
0,
-1,
-1,
-1,
-1,
0,
0,
-1,
0,
-1,
-1,
0,
-1,
-1,
-1,
-1,
-1,
-1,
-1,
-1,
-1,
-1,
-1,
0,
-1,
0,
-1,
0,
0,
-1,
-1,
-1,
-1,
-1,
0,
-1,
-1,
0,
-1,
-1,
0,
-1,
-1,
0,
-1,
-1,
0,
0,
0,
-1,
-1,
-1,
0,
0,
-1,
-1,
-1,
-1,
0,
-1,
-1,
-1,
0,
0,
0,
0,
-1,
-1,
-1,
-1,
0,
-1,
-1,
0,
-1,
-1,
-1,
0,
-1,
-1,
-1,
0,
0,
0,
0,
0,
-1,
-1,
0,
-1,
-1,
-1,
0,
0,
0,
-1,
-1,
-1,
-1,
-1,
0,
0,
-1,
-1,
-1,
-1,
-1,
0,
-1,
-1,
-1,
-1,
-1,
0,
-1,
-1,
-1,
-1,
-1,
0,
0,
0,
0,
0,
0,
-1,
-1,
0,
0,
-1,
-1,
-1,
0,
-1,
-1,
-1,
-1,
-1,
0,
0,
0,
0,
-1,
-1,
0,
-1,
-1,
0,
-1,
-1,
0,
-1,
-1,
-1,
-1,
-1,
-1,
-1,
-1,
-1,
-1,
0,
-1,
-1,
-1,
0,
-1,
-1,
0,
-1,
-1,
0,
-1,
-1,
-1,
-1,
0,
-1,
0,
0,
0,
-1,
0,
-1,
0,
-1,
0,
-1,
0,
-1,
0,
-1,
0,
-1,
-1,
-1,
-1,
-1,
-1,
-1,
-1,
0,
-1,
-1,
0,
-1,
0,
-1,
-1,
-1,
-1,
-1,
-1,
-1,
-1,
0,
0,
0,
0,
0,
-1,
-1,
-1,
-1,
-1,
0,
-1,
-1,
-1,
-1,
0,
0,
-1,
0,
-1,
-1,
-1,
0,
0,
-1,
-1,
-1,
0,
-1,
0,
0,
-1,
-1,
-1,
-1,
0,
-1,
-1,
-1,
0,
0,
0,
0,
0,
-1,
-1,
-1,
-1,
-1,
0,
0,
0,
-1,
-1,
-1,
-1,
-1,
0,
-1,
-1,
-1,
0,
-1,
-1,
-1,
0,
0,
-1,
-1,
0,
0,
-1,
-1,
-1,
0,
-1,
-1,
-1,
0,
-1,
-1,
-1,
-1,
-1,
0,
0,
0,
-1,
0,
-1,
-1,
0,
0,
-1,
0,
-1,
-1,
-1,
0,
0,
0,
0,
0,
0,
-1,
-1,
-1,
-1,
0,
-1,
-1,
-1,
0,
-1,
-1,
0,
0,
0,
0,
-1,
-1,
-1,
-1,
0,
-1,
0,
-1,
0,
-1,
-1,
-1,
-1,
0,
-1,
0,
0,
-1,
-1,
-1,
-1,
0,
0,
0,
-1,
-1,
-1,
-1,
0,
-1,
0,
0,
-1,
-1,
-1,
0,
-1,
0,
-1,
-1,
-1,
-1,
-1,
-1,
0,
-1,
-1,
-1,
-1,
-1,
0,
-1,
0,
-1,
-1,
-1,
-1,
0,
0,
0,
0,
0,
-1,
-1,
-1,
-1,
-1,
0,
-1,
-1,
-1,
-1,
-1,
-1,
-1,
0,
-1,
-1,
-1,
-1,
-1,
0,
0,
-1,
0,
-1,
-1,
-1,
-1,
-1,
0,
-1,
-1,
0,
-1,
0,
-1,
-1,
-1,
0,
-1,
0,
-1,
-1,
0,
-1,
-1,
-1,
0,
0,
0,
0,
-1,
-1,
-1,
-1,
0,
-1,
-1,
-1,
-1,
0,
-1,
0,
-1,
0,
-1,
-1,
0,
0,
0,
0,
-1,
-1,
-1,
-1,
0,
-1,
-1,
-1,
-1,
-1,
-1,
-1,
-1,
-1,
-1,
-1,
-1,
-1,
-1,
-1,
-1,
0,
-1,
0,
-1,
-1,
-1,
0,
-1,
-1,
-1,
0,
-1,
-1,
-1,
0,
-1,
-1,
0,
-1,
-1,
0,
-1,
-1,
-1,
0,
-1,
-1,
0,
0,
-1,
-1,
0,
0,
-1,
0,
-1,
-1,
-1,
0,
0,
0,
0,
-1,
-1,
-1,
-1,
-1,
0,
-1,
-1,
0,
-1,
-1,
0,
-1,
-1,
-1,
-1,
0,
0,
-1,
0,
-1,
-1,
-1,
-1,
-1,
-1,
-1,
-1,
-1,
-1,
-1,
-1,
0,
-1,
-1,
-1,
-1,
-1,
0,
-1,
-1,
-1,
-1,
-1,
0,
-1,
-1,
0,
0,
-1,
0,
0,
-1,
0,
-1,
-1,
-1,
0,
-1,
-1,
-1,
-1,
-1,
-1,
-1,
-1,
-1,
0,
0,
0,
-1,
-1,
-1,
0,
0,
-1,
0,
-1,
0,
-1,
-1,
-1,
0,
-1,
-1,
-1,
0,
-1,
-1,
-1,
-1,
0,
-1,
-1,
-1,
0,
-1,
0,
-1,
-1,
-1,
0,
-1,
-1,
0,
0,
-1,
-1,
-1,
-1,
-1,
-1,
0,
0,
-1,
-1,
-1,
0,
0,
0,
-1,
-1,
-1,
-1,
0,
-1,
-1,
-1,
-1,
-1,
-1,
-1,
-1,
-1,
-1,
-1,
0,
-1,
-1,
0,
-1,
0,
0,
-1,
-1,
0,
-1,
0,
0,
-1,
-1,
0,
-1,
-1,
0,
-1,
0,
-1,
-1,
0,
-1,
-1,
-1,
0,
0,
0,
0,
0,
0,
-1,
0,
-1,
-1,
0,
0,
0,
-1,
-1,
0,
0,
-1,
-1,
-1,
0,
0,
-1,
-1,
0,
-1,
0,
-1,
-1,
0,
0,
-1,
-1,
-1,
-1,
-1,
0,
-1,
-1,
-1,
-1,
0,
-1,
0,
-1,
-1,
-1,
-1,
-1,
-1,
0,
-1,
0,
-1,
-1,
-1,
-1,
-1,
0,
-1,
-1,
-1,
-1,
-1,
0,
-1,
-1,
0,
-1,
-1,
-1,
-1,
-1,
-1,
0,
-1,
-1,
-1,
0,
0,
-1,
0,
-1,
-1,
0,
-1,
-1,
-1,
0,
0,
-1,
-1,
0,
0,
0,
0,
-1,
-1,
0,
-1,
0,
0,
-1,
-1,
0,
-1,
-1,
-1,
-1,
-1,
-1,
-1,
-1,
-1,
-1,
0,
-1,
-1,
-1,
0,
-1,
-1,
0,
0,
0,
-1,
0,
-1,
-1,
-1,
0,
-1,
-1,
-1,
-1,
-1,
-1,
0,
-1,
-1,
0,
-1,
-1,
-1,
0,
-1,
-1,
-1,
-1,
-1,
-1,
-1,
0,
0,
0,
-1,
-1,
0,
0,
0,
-1,
-1,
-1,
-1,
-1,
0,
-1,
0,
-1,
0,
0,
0,
-1,
-1,
0,
0,
0,
-1,
-1,
-1,
-1,
-1,
-1,
0,
-1,
-1,
-1,
-1,
-1,
0,
-1,
-1,
-1,
0,
-1,
0,
0,
-1,
-1,
0,
-1,
-1,
-1,
-1,
-1,
-1,
0,
-1,
0,
-1,
-1,
-1,
0,
0,
0,
-1,
-1,
0,
-1,
0,
-1,
-1,
-1,
0,
0,
0,
0,
-1,
-1,
0,
0,
0,
-1,
-1,
0,
0,
-1,
-1,
-1,
-1,
-1,
-1,
-1,
-1,
-1,
-1,
-1,
-1,
0,
-1,
-1,
0,
-1,
-1,
0,
-1,
-1,
-1,
-1,
-1,
-1,
-1,
-1,
-1,
-1,
0,
0,
0,
0,
0,
0,
-1,
-1,
0,
-1,
-1,
-1,
-1,
-1,
0,
-1,
-1,
0,
-1,
-1,
0,
-1,
-1,
-1,
-1,
-1,
-1,
0,
0,
-1,
0,
-1,
0,
0,
-1,
-1,
-1,
-1,
-1,
-1,
0,
0,
0,
-1,
0,
-1,
-1,
-1,
-1,
-1,
0,
-1,
-1,
-1,
-1,
-1,
-1,
0,
-1,
-1,
0,
-1,
-1,
0,
-1,
-1,
-1,
0,
-1,
-1,
-1,
0,
-1,
-1,
-1,
0,
-1,
-1,
0,
-1,
0,
-1,
-1,
-1,
-1,
-1,
-1,
-1,
-1,
-1,
0,
-1,
-1,
-1,
-1,
-1,
-1,
0,
0,
-1,
-1,
0,
0,
0,
-1,
-1,
-1,
-1,
-1,
-1,
0,
0,
-1,
-1,
-1,
-1,
0,
0,
-1,
0,
-1,
0,
-1,
0,
0,
-1,
-1,
0,
-1,
0,
-1,
-1,
-1,
0,
-1,
-1,
0,
-1,
-1,
-1,
-1,
0,
0,
-1,
-1,
-1,
-1,
-1,
-1,
-1,
0,
0,
-1,
-1,
-1,
0,
-1,
-1,
-1,
0,
0,
-1,
0,
0,
0,
-1,
0,
-1,
-1,
-1,
0,
0,
-1,
0,
-1,
-1,
-1,
-1,
0,
0,
0,
0,
-1,
0,
0,
-1,
-1,
-1,
0,
0,
-1,
-1,
-1,
-1,
-1,
-1,
0,
-1,
-1,
-1,
-1,
-1,
-1,
-1,
0,
0,
0,
-1,
-1,
-1,
0,
-1,
-1,
-1,
-1,
-1,
0,
-1,
-1,
0,
-1,
-1,
-1,
0,
-1,
0,
0,
0,
0,
0,
0,
-1,
-1,
-1,
-1,
-1,
0,
-1,
-1,
-1,
0,
-1,
-1,
-1,
0,
-1,
0,
0,
0,
-1,
-1,
-1,
-1,
-1,
-1,
-1,
0,
-1,
-1,
-1,
-1,
-1,
-1,
-1,
-1,
0,
-1,
-1,
0,
0,
-1,
-1,
0,
0,
-1,
-1,
0,
0,
0,
-1,
0,
-1,
0,
-1,
0,
-1,
-1,
-1,
0,
-1,
0,
-1,
-1,
0,
-1,
-1,
-1,
-1,
0,
-1,
0,
0,
0,
0,
-1,
-1,
-1,
-1,
0,
0,
-1,
-1,
-1,
0,
-1,
-1,
-1,
-1,
-1,
-1,
-1,
0,
0,
-1,
0,
-1,
0,
-1,
-1,
-1,
-1,
0,
-1,
-1,
0,
-1,
0,
0,
-1,
-1,
-1,
0,
-1,
-1,
0,
-1,
0,
-1,
-1,
0,
0,
0,
-1,
0,
-1,
0,
0,
-1,
-1,
-1,
-1,
-1,
-1,
-1,
-1,
-1,
0,
-1,
0,
-1,
-1,
-1,
0,
-1,
-1,
0,
-1,
-1,
-1,
0,
0,
0,
0,
-1,
0,
0,
-1,
0,
0,
-1,
-1,
0,
-1,
-1,
0,
-1,
-1,
-1,
-1,
0,
0,
-1,
-1,
0,
0,
-1,
-1,
-1,
0,
0,
-1,
-1,
0,
0,
-1,
0,
-1,
-1,
-1,
0,
-1,
0,
-1,
-1,
-1,
0,
-1,
-1,
-1,
-1,
-1,
-1,
-1,
-1,
-1,
0,
-1,
-1,
0,
-1,
-1,
0,
-1,
-1,
0,
-1,
-1,
-1,
0,
-1,
0,
0,
-1,
0,
-1,
-1,
-1,
0,
-1,
-1,
-1,
-1,
0,
0,
-1,
0,
-1,
-1,
-1,
-1,
-1,
-1,
-1,
-1,
-1,
-1,
-1,
0,
-1,
-1,
-1,
0,
0,
-1,
-1,
-1,
-1,
-1,
0,
0,
-1,
0,
-1,
-1,
-1,
-1,
-1,
-1,
-1,
-1,
-1,
0,
0,
0,
0,
-1,
-1,
-1,
0,
-1,
0,
-1,
126,
125,
126,
125,
124,
124,
124,
123,
123,
123,
123,
123,
123,
123,
123,
123,
123,
123,
123,
123,
123,
123,
123,
124,
123,
125,
124,
124,
125,
124,
124,
124,
125,
125,
125,
125,
126,
126,
125,
125,
126,
126,
126,
126,
126,
126,
126,
127,
126,
127,
-1,
0,
0,
1,
2,
2,
2,
2,
3,
2,
2,
3,
3,
3,
3,
3,
3,
3,
3,
2,
2,
2,
2,
2,
2,
3,
2,
2,
1,
1,
1,
1,
1,
0,
1,
0,
0,
-1,
-1,
-1,
-1,
0,
0,
0,
-1,
-1,
-1,
-1,
-1,
0,
-1,
-1,
-1,
-1,
-1,
-1,
-1,
-1,
-1,
-1,
-1,
0,
-1,
-1,
-1,
-1,
-1,
0,
0,
-1,
-1,
-1,
-1,
0,
0,
-1,
0,
0,
0,
0,
0,
-1,
0,
0,
0,
0,
-1,
0,
0,
-1,
-1,
-1,
0,
0,
0,
0,
0,
-1,
-1,
-1,
-1,
-1,
-1,
-1,
0,
-1,
0,
-1,
-1,
-1,
-1,
-1,
0,
-1,
-1,
0,
-1,
0,
-1,
-1,
0,
-1,
0,
0,
0,
-1,
-1,
0,
0,
-1,
0,
-1,
-1,
-1,
0,
0,
-1,
-1,
-1,
-1,
0,
-1,
0,
0,
0,
-1,
-1,
-1,
-1,
-1,
0,
-1,
-1,
0,
-1,
0,
-1,
0,
-1,
-1,
-1,
-1,
-1,
0,
-1,
-1,
-1,
-1,
0,
-1,
0,
-1,
0,
-1,
-1,
0,
0,
0,
0,
0,
0,
0,
0,
-1,
-1,
-1,
-1,
0,
-1,
-1,
0,
-1,
-1,
-1,
-1,
-1,
-1,
-1,
-1,
-1,
-1,
0,
0,
0,
-1,
-1,
-1,
-1,
-1,
-1,
0,
0,
-1,
-1,
-1,
-1,
0,
-1,
-1,
-1,
-1,
-1,
-1,
-1,
-1,
-1,
-1,
-1,
-1,
0,
0,
-1,
-1,
-1,
-1,
0,
-1,
-1,
-1,
-1,
-1,
0,
0,
-1,
-1,
-1,
-1,
-1,
-1,
-1,
0,
-1,
-1,
-1,
-1,
-1,
-1,
0,
-1,
0,
-1,
-1,
-1,
-1,
0,
0,
-1,
-1,
-1,
-1,
0,
-1,
-1,
-1,
-1,
-1,
-1,
-1,
-1,
0,
0,
0,
-1,
-1,
-1,
-1,
-1,
-1,
-1,
0,
0,
-1,
-1,
-1,
0,
0,
-1,
0,
-1,
0,
-1,
-1,
0,
-1,
-1,
-1,
-1,
-1,
-1,
-1,
-1,
-1,
0,
-1,
-1,
-1,
0,
-1,
-1,
0,
0,
-1,
-1,
0,
0,
1,
0,
-1,
-1,
-1,
-1,
0,
0,
-1,
-1,
-1,
-1,
-1,
0,
0,
-1,
-1,
-1,
0,
0,
-1,
0,
-1,
-1,
0,
-1,
-1,
-1,
-1,
0,
-1,
-1,
0,
0,
-1,
0,
-1,
0,
0,
-1,
0,
-1,
-1,
-1,
-1,
-1,
0,
-1,
-1,
-1,
-1,
0,
-1,
-1,
0,
-1,
0,
-1,
-1,
0,
0,
-1,
-1,
-1,
0,
-1,
-1,
-1,
-1,
-1,
-1,
0,
-1,
-1,
0,
-1,
0,
0,
-1,
0,
-1,
-1,
0,
0,
0,
-1,
-1,
0,
-1,
-1,
-1,
-1,
0,
0,
-1,
0,
-1,
-1,
-1,
-1,
-1,
-1,
0,
-1,
-1,
-1,
0,
-1,
-1,
-1,
-1,
-1,
0,
0,
-1,
0,
-1,
-1,
0,
-1,
-1,
-1,
0,
-1,
-1,
-1,
-1,
0,
-1,
0,
-1,
-1,
0,
0,
0,
-1,
-1,
-1,
-1,
-1,
-1,
-1,
0,
-1,
0,
-1,
-1,
-1,
0,
-1,
-1,
-1,
-1,
-1,
-1,
0,
-1,
-1,
-1,
-1,
-1,
-1,
-1,
0,
-1,
0,
-1,
0,
0,
-1,
-1,
-1,
-1,
-1,
-1,
-1,
-1,
0,
0,
-1,
-1,
-1,
-1,
-1,
-1,
-1,
-1,
-1,
0,
0,
-1,
0,
-1,
-1,
-1,
0,
-1,
0,
0,
-1,
-1,
-1,
0,
-1,
-1,
-1,
0,
-1,
-1,
-1,
-1,
-1,
-1,
-1,
-1,
-1,
0,
0,
-1,
-1,
0,
0,
-1,
-1,
-1,
-1,
-1,
0,
0,
-1,
-1,
-1,
-1,
0,
-1,
-1,
-1,
-1,
-1,
-1,
0,
0,
0,
0,
-1,
-1,
0,
-1,
-1,
-1,
-1,
-1,
0,
0,
-1,
0,
-1,
0,
-1,
-1,
-1,
0,
0,
0,
-1,
0,
-1,
-1,
-1,
-1,
0,
-1,
-1,
-1,
-1,
-1,
0,
-1,
-1,
0,
-1,
0,
-1,
-1,
-1,
-1,
-1,
0,
-1,
-1,
-1,
-1,
-1,
-1,
-1,
-1,
-1,
-1,
-1,
0,
-1,
0,
0,
-1,
0,
0,
-1,
-1,
-1,
-1,
-1,
0,
-1,
0,
0,
-1,
-1,
-1,
0,
-1,
-1,
0,
-1,
0,
-1,
-1,
-1,
0,
-1,
0,
0,
0,
0,
-1,
-1,
-1,
-1,
-1,
0,
0,
0,
0,
0,
-1,
-1,
-1,
0,
-1,
-1,
-1,
0,
0,
-1,
-1,
0,
-1,
0,
-1,
-1,
-1,
-1,
0,
-1,
-1,
-1,
-1,
0,
-1,
-1,
-1,
0,
-1,
-1,
-1,
0,
0,
-1,
-1,
0,
0,
0,
0,
-1,
0,
-1,
0,
0,
0,
-1,
-1,
-1,
-1,
-1,
-1,
0,
0,
-1,
0,
0,
0,
-1,
-1,
-1,
0,
-1,
0,
-1,
-1,
0,
-1,
-1,
-1,
0,
-1,
-1,
-1,
0,
-1,
-1,
-1,
-1,
0,
-1,
-1,
0,
-1,
0,
-1,
-1,
-1,
-1,
-1,
-1,
-1,
-1,
0,
0,
-1,
0,
-1,
0,
-1,
-1,
-1,
0,
-1,
0,
-1,
-1,
0,
0,
-1,
-1,
-1,
-1,
-1,
-1,
0,
-1,
-1,
-1,
-1,
-1,
-1,
0,
0,
-1,
0,
-1,
-1,
0,
-1,
-1,
0,
-1,
-1,
0,
-1,
-1,
-1,
-1,
0,
-1,
0,
-1,
-1,
0,
0,
-1,
0,
0,
-1,
0,
-1,
0,
-1,
-1,
-1,
-1,
0,
-1,
-1,
-1,
0,
0,
-1,
0,
-1,
-1,
-1,
0,
-1,
-1,
-1,
-1,
-1,
-1,
0,
-1,
-1,
0,
-1,
-1,
-1,
0,
-1,
-1,
-1,
-1,
-1,
-1,
-1,
-1,
-1,
-1,
-1,
0,
0,
-1,
-1,
0,
-1,
0,
0,
-1,
-1,
-1,
-1,
-1,
-1,
-1,
-1,
-1,
0,
-1,
-1,
-1,
-1,
-1,
-1,
-1,
-1,
0,
-1,
-1,
0,
-1,
-1,
0,
-1,
-1,
-1,
0,
-1,
-1,
-1,
0,
0,
-1,
-1,
-1,
0,
0,
-1,
-1,
-1,
0,
0,
-1,
-1,
0,
-1,
-1,
-1,
0,
-1,
0,
-1,
0,
-1,
-1,
-1,
-1,
-1,
0,
-1,
-1,
0,
0,
-1,
-1,
-1,
-1,
-1,
-1,
-1,
-1,
-1,
0,
0,
0,
0,
1,
-1,
-1,
0,
0,
0,
-1,
0,
-1,
0,
0,
-1,
-1,
-1,
-1,
-1,
-1,
-1,
-1,
-1,
-1,
-1,
-1,
-1,
0,
0,
-1,
0,
-1,
-1,
-1,
0,
0,
-1,
-1,
-1,
-1,
-1,
0,
-1,
-1,
-1,
-1,
-1,
-1,
0,
-1,
-1,
-1,
-1,
-1,
-1,
-1,
-1,
0,
0,
-1,
-1,
-1,
0,
0,
0,
-1,
-1,
-1,
-1,
-1,
0,
0,
0,
-1,
-1,
0,
-1,
-1,
-1,
-1,
0,
-1,
-1,
-1,
-1,
-1,
-1,
-1,
-1,
-1,
-1,
-1,
-1,
-1,
-1,
-1,
-1,
-1,
0,
-1,
-1,
-1,
-1,
0,
-1,
-1,
-1,
-1,
-1,
-1,
0,
0,
-1,
-1,
0,
-1,
0,
0,
-1,
0,
-1,
0,
-1,
-1,
0,
-1,
0,
-1,
-1,
1,
0,
0,
-1,
-1,
0,
-1,
0,
-1,
-1,
0,
-1,
-1,
-1,
0,
-1,
0,
-1,
0,
-1,
-1,
-1,
-1,
-1,
-1,
0,
-1,
-1,
-1,
-1,
-1,
-1,
0,
-1,
-1,
-1,
-1,
-1,
-1,
0,
0,
-1,
-1,
-1,
-1,
-1,
-1,
-1,
-1,
-1,
-1,
-1,
0,
0,
0,
-1,
0,
-1,
-1,
-1,
-1,
-1,
-1,
-1,
-1,
-1,
0,
-1,
-1,
-1,
-1,
0,
-1,
-1,
-1,
-1,
0,
-1,
0,
-1,
-1,
-1,
0,
-1,
-1,
-1,
-1,
-1,
-1,
-1,
0,
-1,
-1,
0,
-1,
-1,
0,
0,
-1,
0,
-1,
-1,
0,
0,
-1,
0,
-1,
0,
-1,
0,
0,
0,
-1,
-1,
-1,
-1,
0,
-1,
-1,
0,
-1,
0,
-1,
-1,
-1,
-1,
-1,
0,
-1,
0,
-1,
-1,
0,
0,
-1,
0,
0,
0,
-1,
-1,
-1,
-1,
-1,
-1,
0,
-1,
0,
-1,
-1,
0,
-1,
-1,
-1,
0,
0,
-1,
0,
0,
-1,
-1,
-1,
-1,
-1,
-1,
-1,
0,
-1,
-1,
0,
-1,
-1,
-1,
-1,
-1,
0,
-1,
-1,
-1,
-1,
-1,
-1,
-1,
-1,
-1,
-1,
0,
-1,
-1,
-1,
-1,
-1,
-1,
0,
0,
-1,
-1,
-1,
-1,
0,
-1,
-1,
-1,
-1,
-1,
0,
-1,
-1,
0,
-1,
0,
-1,
0,
0,
-1,
0,
-1,
-1,
-1,
0,
-1,
-1,
-1,
0,
-1,
-1,
-1,
-1,
0,
-1,
-1,
-1,
0,
0,
0,
-1,
-1,
0,
-1,
-1,
0,
-1,
-1,
-1,
-1,
0,
0,
0,
-1,
0,
0,
-1,
-1,
0,
-1,
-1,
0,
-1,
0,
-1,
-1,
0,
-1,
-1,
0,
-1,
0,
-1,
0,
0,
-1,
0,
0,
-1,
0,
-1,
-1,
-1,
0,
-1,
-1,
-1,
0,
-1,
-1,
-1,
-1,
-1,
-1,
0,
-1,
-1,
0,
-1,
-1,
0,
0,
0,
-1,
-1,
-1,
-1,
0,
-1,
-1,
-1,
-1,
-1,
0,
0,
0,
-1,
-1,
-1,
-1,
-1,
-1,
0,
0,
0,
0,
0,
0,
0,
-1,
-1,
-1,
-1,
0,
-1,
-1,
0,
0,
-1,
-1,
0,
-1,
-1,
0,
-1,
-1,
0,
-1,
-1,
-1,
-1,
-1,
-1,
0,
-1,
-1,
0,
0,
-1,
-1,
-1,
-1,
0,
-1,
0,
-1,
0,
-1,
-1,
-1,
0,
-1,
0,
0,
0,
0,
-1,
-1,
0,
0,
0,
-1,
0,
-1,
-1,
0,
-1,
0,
-1,
-1,
-1,
0,
0,
-1,
0,
-1,
-1,
-1,
-1,
0,
0,
-1,
0,
0,
-1,
-1,
-1,
-1,
0,
0,
0,
0,
-1,
0,
-1,
0,
-1,
-1,
0,
-1,
0,
-1,
-1,
0,
-1,
-1,
0,
0,
-1,
-1,
-1,
-1,
0,
-1,
-1,
-1,
-1,
-1,
-1,
-1,
0,
-1,
-1,
0,
-1,
-1,
-1,
0,
-1,
-1,
0,
-1,
0,
0,
-1,
-1,
-1,
-1,
-1,
-1,
-1,
0,
-1,
-1,
-1,
-1,
0,
0,
0,
-1,
-1,
-1,
-1,
-1,
-1,
-1,
-1,
-1,
-1,
-1,
0,
-1,
-1,
-1,
-1,
0,
-1,
-1,
-1,
0,
-1,
-1,
0,
-1,
0,
-1,
-1,
0,
-1,
-1,
-1,
-1,
-1,
-1,
0,
-1,
0,
0,
-1,
-1,
-1,
-1,
-1,
-1,
-1,
0,
-1,
0,
-1,
-1,
0,
-1,
0,
-1,
-1,
0,
-1,
-1,
-1,
-1,
-1,
0,
0,
0,
0,
-1,
0,
-1,
0,
-1,
-1,
-1,
0,
-1,
-1,
0,
0,
-1,
0,
0,
0,
-1,
-1,
-1,
-1,
-1,
0,
-1,
-1,
0,
0,
0,
-1,
-1,
0,
0,
0,
0,
-1,
-1,
-1,
-1,
-1,
0,
0,
0,
-1,
-1,
-1,
-1,
0,
-1,
1,
-1,
-1,
-1,
-1,
0,
-1,
-1,
-1,
-1,
-1,
-1,
0,
-1,
0,
0,
-1,
-1,
-1,
-1,
-1,
-1,
-1,
0,
-1,
-1,
-1,
-1,
0,
0,
0,
-1,
0,
-1,
0,
-1,
0,
-1,
0,
0,
0,
0,
-1,
0,
-1,
0,
-1,
0,
0,
-1,
0,
0,
-1,
-1,
-1,
-1,
0,
0,
-1,
-1,
-1,
-1,
-1,
-1,
-1,
-1,
0,
-1,
0,
-1,
-1,
0,
0,
-1,
-1,
-1,
0,
0,
-1,
-1,
-1,
-1,
0,
-1,
-1,
0,
-1,
-1,
-1,
0,
0,
-1,
-1,
0,
-1,
0,
-1,
-1,
0,
0,
-1,
0,
0,
0,
0,
-1,
0,
-1,
0,
0,
-1,
-1,
0,
-1,
0,
-1,
0,
-1,
-1,
-1,
0,
0,
0,
0,
0,
-1,
-1,
-1,
0,
0,
-1,
0,
-1,
0,
-1,
0,
-1,
-1,
-1,
-1,
-1,
0,
0,
-1,
-1,
0,
-1,
0,
-1,
-1,
-1,
-1,
0,
0,
-1,
-1,
-1,
-1,
-1,
0,
-1,
-1,
-1,
-1,
-1,
0,
-1,
-1,
0,
-1,
-1,
-1,
0,
0,
-1,
-1,
-1,
-1,
0,
0,
-1,
-1,
0,
-1,
0,
0,
0,
0,
-1,
0,
-1,
0,
0,
-1,
0,
-1,
-1,
0,
0,
-1,
-1,
-1,
-1,
-1,
-1,
0,
0,
0,
-1,
0,
0,
-1,
0,
0,
0,
0,
-1,
0,
-1,
0,
-1,
0,
0,
0,
0,
0,
-1,
0,
0,
-1,
-1,
0,
-1,
-1,
0,
-1,
-1,
0,
0,
0,
0,
-1,
-1,
-1,
-1,
0,
-1,
0,
0,
0,
0,
0,
0,
-1,
0,
-1,
-1,
-1,
0,
-1,
0,
0,
0,
-1,
-1,
0,
-1,
0,
0,
-1,
-1,
-1,
-1,
0,
-1,
-1,
0,
-1,
-1,
-1,
-1,
-1,
-1,
0,
-1,
-1,
-1,
-1,
0,
-1,
0,
0,
0,
0,
-1,
-1,
0,
-1,
0,
0,
-1,
-1,
