Pruebas/ALL0005/A0005CH1.CSV

Memory Length,4000,
Trigger Level,8.400E-01,
Source,CH1,
Probe,1X,
Vertical Units,V,
Vertical Scale,1.000E+00,
Vertical Position,-5.200E-01,
Horizontal Units,s,
Horizontal Scale,2.500E-02,
Horizontal Position,0.000E+00,
Horizontal Mode,Main,
Sampling Period,1.000E-04,
Firmware,V1.12,
Time, ,
Mode,Fast,
Waveform Data,
23,
23,
23,
24,
25,
26,
26,
26,
25,
25,
24,
24,
23,
21,
21,
19,
18,
16,
15,
13,
12,
11,
8,
7,
6,
4,
4,
3,
2,
1,
0,
0,
0,
0,
1,
2,
3,
4,
4,
5,
7,
8,
10,
12,
13,
14,
16,
17,
19,
20,
22,
23,
23,
24,
25,
25,
26,
26,
24,
24,
24,
23,
23,
22,
21,
20,
17,
16,
15,
13,
12,
10,
9,
7,
6,
4,
4,
3,
3,
1,
0,
0,
0,
1,
1,
2,
2,
3,
4,
5,
7,
8,
9,
11,
13,
14,
15,
17,
19,
20,
22,
23,
23,
25,
25,
25,
26,
25,
25,
26,
24,
24,
23,
22,
21,
19,
17,
16,
15,
13,
11,
10,
9,
7,
5,
4,
4,
2,
2,
1,
1,
0,
0,
0,
2,
2,
3,
4,
4,
6,
7,
9,
9,
12,
12,
14,
16,
17,
19,
20,
22,
23,
24,
25,
25,
26,
25,
25,
25,
24,
24,
24,
23,
22,
20,
19,
18,
16,
15,
13,
12,
10,
8,
8,
6,
5,
3,
2,
2,
1,
0,
0,
0,
0,
2,
1,
3,
4,
4,
6,
7,
8,
10,
12,
14,
14,
16,
17,
19,
21,
21,
22,
24,
24,
26,
25,
26,
25,
25,
25,
24,
24,
23,
22,
21,
19,
18,
16,
15,
13,
12,
10,
9,
7,
6,
4,
3,
3,
2,
2,
1,
0,
0,
0,
1,
3,
3,
4,
4,
5,
7,
8,
10,
12,
13,
14,
16,
17,
19,
20,
21,
22,
24,
24,
25,
25,
25,
25,
25,
25,
24,
24,
23,
21,
21,
19,
17,
16,
15,
13,
12,
10,
9,
8,
5,
5,
3,
3,
1,
2,
1,
0,
0,
1,
0,
1,
3,
4,
4,
6,
7,
8,
11,
12,
13,
14,
16,
17,
19,
20,
22,
23,
24,
24,
25,
25,
25,
25,
25,
25,
24,
24,
23,
22,
21,
19,
18,
16,
15,
14,
12,
10,
8,
8,
6,
5,
4,
3,
2,
1,
2,
0,
1,
0,
1,
2,
2,
4,
4,
5,
7,
8,
10,
11,
14,
14,
16,
17,
19,
20,
21,
23,
23,
24,
24,
25,
26,
25,
25,
25,
24,
24,
23,
22,
20,
20,
18,
16,
15,
13,
12,
10,
8,
8,
6,
4,
3,
2,
1,
1,
0,
0,
0,
0,
1,
2,
2,
4,
4,
6,
7,
8,
10,
12,
13,
14,
16,
17,
19,
21,
21,
22,
24,
24,
25,
26,
26,
26,
26,
25,
24,
24,
23,
22,
20,
19,
17,
16,
15,
13,
12,
10,
8,
7,
6,
4,
4,
3,
1,
2,
1,
0,
1,
0,
1,
2,
3,
3,
4,
6,
8,
9,
10,
11,
13,
14,
16,
17,
18,
20,
22,
23,
24,
24,
24,
25,
26,
25,
25,
25,
24,
24,
24,
22,
21,
20,
17,
15,
15,
13,
12,
10,
8,
7,
6,
4,
4,
3,
2,
1,
1,
0,
0,
1,
0,
2,
2,
4,
4,
6,
7,
8,
10,
11,
12,
15,
16,
18,
18,
20,
21,
22,
23,
24,
25,
25,
25,
26,
25,
25,
24,
24,
23,
22,
21,
19,
18,
16,
15,
13,
12,
11,
9,
7,
6,
5,
4,
3,
2,
2,
1,
0,
1,
0,
2,
1,
3,
4,
4,
5,
7,
8,
9,
11,
12,
14,
16,
18,
19,
20,
22,
22,
23,
24,
25,
25,
26,
25,
26,
25,
24,
24,
23,
22,
20,
19,
18,
16,
15,
13,
12,
10,
9,
8,
6,
5,
3,
3,
1,
2,
1,
1,
1,
0,
1,
1,
2,
3,
4,
6,
8,
8,
10,
11,
13,
14,
16,
17,
19,
20,
21,
23,
23,
24,
25,
24,
26,
25,
25,
25,
25,
24,
23,
22,
20,
19,
18,
16,
15,
13,
12,
10,
8,
7,
6,
5,
4,
3,
2,
2,
1,
1,
0,
1,
1,
2,
3,
3,
4,
5,
7,
8,
10,
12,
13,
15,
16,
17,
18,
20,
22,
22,
23,
24,
24,
26,
26,
25,
26,
25,
24,
24,
23,
22,
20,
19,
17,
16,
15,
13,
12,
10,
8,
7,
6,
4,
3,
3,
2,
1,
0,
0,
0,
0,
1,
2,
3,
4,
4,
5,
7,
8,
10,
11,
13,
14,
15,
17,
19,
19,
21,
22,
23,
24,
25,
26,
25,
26,
25,
24,
25,
24,
23,
22,
20,
20,
17,
16,
15,
13,
11,
9,
8,
8,
6,
4,
4,
3,
2,
1,
0,
0,
0,
0,
1,
1,
3,
3,
4,
5,
8,
8,
10,
11,
13,
14,
15,
18,
18,
20,
21,
22,
23,
24,
24,
25,
25,
25,
25,
24,
24,
24,
23,
22,
21,
20,
17,
16,
15,
13,
12,
10,
9,
7,
6,
5,
4,
2,
2,
1,
1,
0,
1,
1,
1,
2,
2,
3,
5,
6,
7,
8,
11,
11,
13,
15,
15,
18,
20,
20,
22,
23,
24,
24,
24,
26,
26,
26,
25,
26,
25,
24,
23,
22,
20,
19,
17,
16,
15,
12,
11,
10,
9,
7,
5,
4,
4,
4,
2,
1,
0,
1,
0,
0,
1,
2,
3,
4,
4,
6,
7,
8,
10,
11,
13,
14,
16,
17,
19,
20,
21,
22,
23,
24,
24,
24,
25,
25,
26,
25,
24,
24,
23,
21,
21,
20,
17,
16,
15,
12,
12,
9,
8,
8,
6,
5,
4,
2,
1,
1,
1,
0,
0,
0,
2,
1,
3,
4,
5,
6,
7,
8,
10,
12,
13,
15,
15,
18,
19,
20,
22,
23,
24,
24,
25,
26,
25,
26,
25,
25,
24,
24,
23,
21,
20,
19,
18,
16,
15,
13,
12,
10,
9,
7,
6,
4,
3,
3,
2,
0,
0,
1,
1,
0,
1,
1,
3,
4,
5,
5,
7,
8,
10,
12,
13,
14,
16,
17,
18,
20,
22,
23,
24,
25,
25,
25,
25,
25,
25,
25,
24,
23,
23,
22,
21,
20,
18,
16,
15,
13,
12,
10,
9,
6,
5,
4,
4,
2,
2,
1,
0,
0,
1,
1,
0,
1,
3,
4,
5,
5,
7,
8,
9,
11,
12,
14,
16,
17,
19,
20,
22,
23,
24,
24,
25,
24,
26,
26,
25,
26,
24,
24,
24,
21,
20,
20,
18,
16,
15,
13,
11,
10,
9,
8,
6,
5,
4,
3,
2,
1,
2,
0,
1,
1,
1,
2,
3,
3,
4,
6,
7,
8,
10,
12,
12,
14,
15,
17,
19,
20,
21,
23,
24,
24,
25,
25,
26,
26,
25,
25,
24,
23,
23,
22,
20,
19,
18,
16,
14,
13,
12,
10,
9,
7,
6,
5,
4,
2,
2,
0,
0,
0,
0,
0,
1,
1,
2,
3,
4,
6,
7,
9,
10,
12,
12,
15,
16,
17,
19,
20,
22,
23,
23,
24,
25,
26,
26,
26,
25,
25,
25,
24,
23,
22,
20,
19,
17,
16,
15,
13,
12,
11,
8,
7,
5,
6,
4,
3,
2,
1,
1,
0,
0,
0,
1,
2,
3,
4,
4,
6,
7,
8,
10,
12,
13,
15,
16,
17,
19,
20,
22,
23,
23,
24,
25,
25,
25,
26,
25,
25,
24,
23,
23,
22,
21,
20,
18,
16,
15,
12,
11,
10,
8,
7,
6,
5,
4,
2,
1,
1,
0,
0,
0,
1,
1,
1,
3,
4,
4,
5,
7,
9,
10,
12,
13,
14,
16,
16,
19,
20,
21,
23,
23,
24,
24,
25,
25,
25,
26,
24,
25,
23,
23,
22,
21,
20,
18,
17,
15,
13,
12,
10,
9,
7,
6,
5,
3,
2,
2,
1,
0,
0,
0,
1,
2,
2,
2,
4,
5,
5,
7,
9,
10,
12,
13,
14,
16,
17,
20,
20,
22,
23,
23,
24,
24,
26,
25,
26,
26,
25,
25,
24,
23,
22,
21,
19,
17,
16,
14,
13,
12,
10,
8,
7,
6,
5,
4,
3,
2,
1,
0,
0,
0,
1,
1,
2,
2,
3,
4,
5,
7,
8,
10,
12,
12,
15,
16,
17,
19,
20,
22,
23,
24,
24,
25,
26,
25,
26,
25,
25,
24,
24,
23,
22,
21,
20,
17,
16,
14,
13,
12,
10,
8,
8,
6,
5,
3,
2,
2,
1,
0,
0,
0,
0,
1,
2,
3,
3,
4,
6,
8,
8,
10,
12,
12,
14,
16,
17,
19,
20,
22,
23,
24,
24,
25,
26,
26,
25,
25,
25,
25,
24,
23,
22,
21,
20,
18,
16,
14,
12,
12,
11,
8,
7,
6,
4,
4,
3,
2,
1,
1,
0,
1,
1,
1,
2,
3,
3,
4,
5,
7,
8,
10,
11,
13,
14,
15,
17,
18,
20,
22,
22,
23,
24,
25,
25,
26,
25,
25,
24,
24,
24,
23,
21,
21,
19,
17,
16,
15,
13,
12,
10,
9,
8,
6,
4,
4,
2,
3,
1,
2,
1,
0,
1,
1,
2,
3,
4,
5,
6,
7,
8,
11,
12,
13,
15,
16,
18,
19,
20,
22,
23,
24,
24,
26,
25,
25,
25,
25,
25,
24,
24,
22,
22,
20,
19,
18,
16,
15,
13,
12,
10,
9,
7,
6,
4,
3,
2,
2,
2,
0,
1,
0,
0,
2,
1,
2,
4,
4,
5,
7,
8,
10,
11,
12,
14,
16,
17,
18,
20,
21,
22,
24,
24,
25,
25,
25,
25,
25,
25,
25,
24,
23,
21,
21,
20,
18,
16,
14,
13,
12,
10,
8,
7,
6,
5,
4,
2,
2,
1,
1,
0,
1,
1,
1,
2,
3,
3,
5,
6,
8,
8,
10,
11,
13,
14,
16,
17,
19,
20,
21,
23,
24,
24,
25,
25,
25,
25,
24,
25,
24,
24,
23,
22,
21,
19,
17,
16,
15,
13,
12,
10,
8,
7,
6,
4,
4,
3,
2,
2,
1,
1,
0,
1,
1,
2,
2,
4,
4,
5,
7,
8,
10,
11,
12,
14,
16,
17,
19,
20,
21,
22,
24,
24,
25,
25,
26,
25,
25,
25,
24,
24,
23,
22,
20,
19,
18,
16,
15,
13,
12,
10,
8,
7,
6,
5,
4,
3,
2,
1,
0,
0,
1,
1,
2,
2,
3,
3,
5,
5,
7,
8,
10,
11,
13,
15,
16,
18,
19,
20,
21,
23,
24,
24,
24,
25,
26,
25,
25,
25,
24,
24,
23,
22,
20,
19,
17,
16,
15,
13,
12,
10,
9,
7,
6,
4,
4,
3,
1,
2,
0,
1,
0,
1,
2,
2,
1,
3,
4,
5,
7,
8,
10,
12,
13,
15,
16,
18,
19,
21,
22,
23,
23,
24,
25,
26,
26,
26,
25,
25,
24,
23,
23,
22,
20,
18,
17,
16,
15,
13,
12,
10,
8,
8,
5,
4,
3,
3,
2,
1,
1,
0,
0,
2,
1,
2,
3,
3,
5,
6,
7,
8,
10,
12,
12,
15,
16,
17,
20,
20,
21,
23,
24,
24,
24,
24,
26,
26,
26,
24,
24,
24,
23,
21,
20,
19,
18,
16,
15,
12,
11,
11,
8,
7,
5,
5,
3,
3,
2,
1,
0,
0,
0,
1,
1,
1,
3,
3,
5,
6,
8,
9,
10,
11,
13,
14,
16,
17,
19,
20,
21,
23,
23,
24,
25,
26,
25,
25,
25,
26,
24,
24,
23,
22,
20,
20,
17,
16,
15,
13,
11,
10,
9,
7,
6,
4,
4,
2,
2,
1,
1,
0,
0,
1,
2,
2,
3,
4,
5,
6,
7,
8,
10,
12,
12,
14,
16,
18,
19,
20,
22,
23,
24,
24,
24,
25,
26,
26,
25,
25,
24,
24,
23,
22,
20,
19,
18,
16,
15,
13,
12,
10,
8,
7,
6,
4,
4,
3,
3,
1,
1,
1,
0,
1,
1,
2,
2,
3,
4,
6,
7,
8,
10,
12,
12,
14,
16,
18,
19,
20,
21,
22,
23,
24,
26,
25,
25,
26,
24,
25,
24,
23,
24,
22,
21,
20,
18,
16,
15,
13,
12,
11,
8,
7,
6,
4,
4,
3,
2,
2,
1,
0,
0,
0,
2,
2,
3,
3,
4,
6,
7,
8,
10,
11,
13,
15,
16,
17,
19,
20,
21,
23,
24,
24,
25,
25,
25,
26,
25,
25,
25,
24,
23,
22,
21,
20,
18,
16,
15,
13,
12,
10,
8,
8,
6,
5,
4,
3,
2,
1,
0,
1,
0,
0,
2,
2,
3,
3,
4,
5,
7,
9,
10,
11,
13,
14,
16,
17,
19,
20,
22,
23,
23,
24,
25,
25,
26,
26,
25,
25,
24,
23,
23,
22,
20,
19,
18,
16,
15,
12,
12,
10,
8,
7,
5,
4,
4,
3,
1,
1,
1,
0,
1,
0,
1,
2,
3,
4,
4,
5,
8,
8,
10,
12,
13,
15,
16,
17,
19,
20,
22,
24,
24,
24,
25,
25,
25,
26,
26,
25,
24,
24,
23,
22,
20,
19,
18,
16,
15,
12,
12,
10,
9,
7,
6,
4,
4,
3,
2,
1,
1,
0,
1,
0,
2,
2,
3,
4,
4,
6,
7,
8,
10,
12,
13,
15,
16,
17,
18,
20,
22,
23,
24,
24,
24,
25,
25,
25,
26,
24,
24,
24,
23,
22,
20,
20,
17,
16,
15,
13,
11,
10,
8,
7,
6,
4,
4,
3,
2,
2,
0,
1,
0,
1,
0,
2,
3,
4,
5,
6,
7,
8,
10,
12,
12,
14,
16,
17,
19,
21,
22,
22,
24,
24,
24,
26,
25,
25,
25,
25,
24,
24,
23,
22,
20,
20,
18,
16,
15,
13,
11,
10,
9,
7,
5,
4,
3,
3,
2,
2,
1,
1,
0,
1,
2,
2,
3,
4,
4,
6,
8,
9,
10,
12,
13,
14,
16,
17,
20,
20,
22,
22,
24,
24,
25,
25,
27,
26,
25,
25,
24,
24,
23,
22,
20,
19,
18,
16,
14,
14,
12,
10,
8,
7,
6,
4,
4,
3,
2,
2,
1,
1,
0,
1,
1,
2,
3,
4,
5,
5,
7,
9,
10,
12,
13,
14,
16,
17,
20,
20,
22,
23,
24,
24,
25,
25,
25,
26,
25,
24,
24,
23,
23,
22,
20,
19,
18,
16,
15,
12,
12,
11,
8,
7,
6,
4,
4,
2,
2,
1,
0,
0,
0,
1,
1,
3,
3,
4,
4,
6,
7,
9,
10,
11,
13,
14,
16,
17,
19,
20,
22,
23,
24,
24,
25,
25,
25,
26,
26,
25,
24,
24,
23,
22,
20,
19,
17,
16,
15,
13,
12,
10,
8,
7,
6,
4,
4,
2,
2,
1,
1,
0,
0,
0,
1,
2,
2,
4,
4,
6,
7,
9,
10,
12,
12,
14,
16,
17,
19,
20,
21,
22,
24,
24,
25,
25,
25,
26,
26,
25,
24,
24,
23,
22,
20,
19,
18,
16,
15,
13,
12,
10,
8,
8,
7,
4,
3,
3,
2,
2,
0,
0,
0,
0,
0,
2,
2,
4,
4,
6,
7,
8,
10,
12,
14,
14,
16,
17,
18,
20,
21,
23,
24,
24,
25,
26,
26,
26,
25,
26,
24,
24,
23,
22,
20,
19,
18,
16,
15,
13,
12,
10,
8,
7,
5,
5,
4,
3,
2,
1,
0,
0,
2,
0,
2,
2,
2,
3,
4,
6,
7,
8,
10,
12,
13,
14,
16,
17,
20,
20,
22,
23,
24,
24,
25,
25,
26,
25,
25,
25,
24,
24,
23,
22,
21,
20,
17,
15,
15,
13,
11,
10,
8,
7,
5,
5,
4,
2,
2,
0,
1,
1,
0,
1,
0,
1,
2,
3,
4,
5,
7,
9,
10,
12,
12,
14,
16,
17,
19,
20,
22,
23,
24,
24,
25,
26,
26,
25,
25,
24,
24,
23,
22,
21,
20,
19,
17,
16,
15,
13,
12,
10,
8,
8,
6,
4,
4,
2,
1,
0,
1,
1,
0,
0,
2,
2,
3,
4,
4,
6,
8,
9,
10,
11,
13,
15,
16,
17,
19,
20,
21,
23,
24,
25,
25,
25,
25,
26,
25,
25,
24,
24,
23,
22,
20,
20,
18,
16,
15,
13,
12,
9,
8,
7,
6,
4,
4,
3,
2,
1,
1,
1,
0,
1,
1,
2,
3,
4,
4,
6,
7,
8,
10,
11,
12,
15,
16,
17,
19,
20,
21,
23,
24,
24,
24,
25,
26,
25,
26,
25,
25,
23,
23,
21,
21,
19,
17,
16,
15,
13,
12,
10,
8,
7,
5,
5,
4,
2,
1,
1,
0,
0,
0,
1,
1,
2,
2,
3,
4,
6,
8,
8,
9,
12,
13,
14,
16,
18,
19,
20,
21,
23,
24,
24,
25,
25,
26,
26,
26,
24,
24,
24,
23,
22,
20,
20,
18,
16,
15,
13,
11,
10,
8,
8,
6,
5,
4,
3,
2,
2,
0,
0,
0,
1,
1,
2,
3,
4,
5,
6,
8,
8,
10,
12,
13,
15,
16,
18,
20,
20,
21,
23,
24,
24,
25,
26,
25,
25,
26,
25,
24,
24,
24,
22,
20,
20,
18,
16,
15,
12,
12,
10,
8,
7,
6,
4,
4,
3,
2,
2,
0,
1,
0,
0,
1,
1,
3,
4,
5,
6,
8,
9,
10,
11,
13,
15,
16,
17,
19,
20,
21,
23,
24,
24,
25,
25,
25,
25,
25,
25,
24,
23,
23,
22,
21,
19,
17,
16,
14,
13,
12,
10,
8,
8,
5,
4,
4,
2,
2,
1,
1,
1,
0,
1,
1,
2,
3,
3,
5,
6,
8,
8,
10,
12,
13,
15,
15,
17,
19,
21,
22,
23,
24,
24,
25,
26,
27,
25,
25,
25,
24,
24,
23,
21,
20,
20,
18,
16,
15,
13,
11,
10,
8,
7,
5,
4,
4,
3,
1,
2,
1,
0,
0,
0,
1,
2,
3,
4,
4,
6,
7,
9,
10,
11,
12,
15,
16,
17,
19,
20,
21,
22,
24,
24,
25,
25,
25,
25,
26,
25,
24,
24,
23,
22,
20,
19,
17,
16,
15,
13,
12,
10,
8,
7,
6,
5,
4,
2,
2,
1,
1,
0,
0,
0,
1,
2,
3,
4,
4,
6,
7,
9,
11,
11,
13,
14,
16,
18,
19,
20,
22,
23,
23,
24,
25,
25,
25,
25,
25,
24,
24,
24,
23,
21,
20,
20,
17,
16,
15,
13,
12,
10,
8,
7,
6,
4,
3,
3,
2,
1,
0,
0,
1,
1,
0,
2,
3,
4,
5,
6,
7,
9,
10,
12,
13,
15,
16,
17,
19,
20,
21,
23,
24,
24,
25,
25,
26,
26,
26,
25,
24,
23,
23,
22,
21,
19,
17,
16,
15,
13,
12,
10,
8,
7,
5,
5,
4,
3,
2,
2,
1,
0,
0,
0,
0,
2,
2,
4,
5,
5,
7,
8,
10,
11,
13,
15,
16,
18,
19,
20,
22,
23,
24,
24,
24,
25,
25,
26,
25,
24,
25,
24,
23,
22,
20,
19,
18,
16,
14,
13,
12,
10,
8,
7,
6,
5,
4,
3,
2,
1,
1,
1,
0,
1,
2,
2,
3,
4,
4,
6,
7,
9,
11,
12,
14,
15,
15,
18,
20,
20,
22,
23,
23,
24,
24,
25,
26,
25,
26,
25,
24,
24,
23,
21,
21,
19,
17,
16,
15,
12,
12,
11,
8,
7,
6,
5,
4,
3,
2,
1,
1,
0,
0,
1,
1,
3,
3,
4,
4,
6,
8,
8,
10,
12,
13,
15,
16,
17,
19,
21,
22,
23,
23,
24,
25,
25,
25,
25,
25,
25,
24,
24,
23,
21,
20,
18,
18,
16,
15,
13,
11,
10,
8,
8,
6,
5,
3,
3,
3,
1,
1,
1,
0,
0,
1,
2,
3,
4,
4,
6,
7,
8,
10,
12,
12,
15,
16,
17,
19,
20,
22,
23,
24,
24,
24,
25,
25,
26,
25,
25,
24,
24,
23,
22,
20,
19,
18,
15,
15,
13,
12,
10,
8,
7,
6,
5,
4,
2,
1,
1,
1,
0,
0,
0,
1,
2,
2,
3,
4,
5,
7,
8,
10,
11,
12,
15,
16,
17,
19,
20,
22,
23,
23,
24,
25,
25,
26,
25,
25,
25,
24,
23,
23,
22,
20,
19,
18,
16,
15,
13,
12,
10,
8,
7,
6,
5,
4,
3,
2,
1,
1,
0,
1,
1,
2,
1,
3,
4,
5,
6,
7,
8,
10,
12,
13,
15,
16,
17,
20,
21,
21,
22,
24,
24,
25,
26,
26,
26,
25,
25,
24,
24,
22,
22,
21,
18,
18,
16,
14,
13,
11,
10,
8,
7,
6,
4,
4,
3,
2,
2,
1,
0,
0,
0,
0,
2,
3,
4,
4,
6,
7,
8,
10,
12,
13,
14,
16,
18,
18,
20,
22,
23,
24,
25,
25,
25,
25,
26,
25,
24,
25,
24,
23,
22,
21,
20,
17,
16,
15,
13,
11,
10,
8,
7,
6,
5,
4,
3,
2,
1,
1,
0,
1,
1,
1,
3,
3,
4,
4,
5,
8,
8,
10,
12,
13,
15,
16,
18,
19,
21,
22,
23,
24,
24,
24,
25,
25,
26,
25,
25,
24,
24,
23,
21,
20,
19,
17,
16,
15,
13,
12,
10,
8,
7,
6,
5,
4,
2,
2,
1,
1,
0,
0,
1,
2,
2,
2,
3,
4,
5,
8,
8,
10,
12,
13,
14,
15,
17,
19,
20,
21,
23,
24,
24,
25,
25,
25,
25,
25,
25,
24,
24,
23,
22,
20,
19,
17,
16,
14,
13,
12,
10,
8,
7,
6,
5,
4,
3,
2,
1,
0,
0,
1,
1,
2,
3,
3,
3,
4,
6,
7,
9,
11,
12,
13,
14,
16,
17,
19,
21,
22,
23,
24,
25,
25,
25,
25,
26,
26,
25,
25,
24,
24,
22,
20,
20,
17,
16,
15,
13,
11,
9,
9,
7,
6,
5,
4,
3,
3,
1,
1,
0,
1,
1,
2,
2,
3,
4,
4,
5,
7,
8,
9,
11,
13,
15,
16,
17,
19,
20,
22,
23,
24,
24,
25,
25,
25,
25,
24,
24,
24,
24,
23,
22,
21,
20,
17,
16,
14,
13,
12,
10,
8,
8,
5,
4,
4,
3,
1,
1,
0,
0,
0,
1,
1,
2,
3,
4,
4,
6,
7,
9,
11,
12,
13,
14,
16,
17,
19,
20,
22,
23,
24,
25,
25,
25,
26,
26,
25,
26,
24,
24,
23,
21,
21,
20,
17,
16,
15,
13,
12,
10,
8,
7,
6,
4,
3,
2,
2,
1,
1,
1,
0,
1,
2,
2,
3,
4,
5,
6,
7,
8,
11,
12,
13,
15,
16,
18,
19,
21,
21,
23,
24,
24,
25,
25,
25,
25,
25,
25,
24,
24,
23,
22,
20,
19,
17,
16,
14,
12,
12,
10,
8,
7,
6,
5,
4,
3,
2,
1,
1,
0,
1,
1,
1,
2,
3,
4,
4,
6,
8,
8,
10,
11,
13,
14,
16,
18,
19,
21,
22,
23,
24,
24,
25,
26,
25,
26,
25,
24,
24,
24,
23,
22,
20,
19,
17,
17,
15,
13,
11,
10,
8,
7,
6,
5,
4,
3,
2,
1,
1,
0,
0,
1,
1,
2,
3,
3,
4,
6,
7,
8,
10,
12,
12,
15,
16,
17,
19,
20,
22,
23,
24,
24,
25,
26,
25,
25,
26,
25,
24,
24,
23,
22,
20,
19,
17,
16,
15,
13,
11,
10,
9,
7,
5,
5,
4,
3,
2,
1,
1,
0,
2,
1,
1,
1,
3,
3,
5,
6,
7,
8,
11,
12,
13,
15,
16,
18,
19,
20,
22,
23,
23,
24,
25,
26,
26,
26,
25,
24,
24,
24,
23,
22,
21,
19,
18,
16,
14,
13,
12,
10,
8,
7,
6,
4,
4,
3,
2,
1,
0,
0,
0,
1,
1,
2,
3,
4,
5,
5,
7,
9,
10,
12,
13,
15,
16,
17,
18,
20,
21,
22,
24,
24,
24,
25,
26,
26,
26,
25,
24,
23,
23,
22,
20,
19,
17,
16,
14,
13,
11,
10,
8,
7,
5,
4,
4,
3,
2,
1,
0,
0,
1,
0,
1,
2,
2,
4,
4,
6,
8,
8,
10,
12,
14,
14,
16,
17,
18,
21,
21,
23,
24,
24,
25,
25,
26,
25,
25,
25,
24,
24,
23,
22,
20,
19,
18,
16,
15,
13,
11,
10,
8,
7,
6,
4,
4,
2,
2,
2,
1,
0,
1,
1,
1,
2,
3,
4,
5,
6,
7,
9,
10,
12,
13,
15,
16,
17,
19,
21,
22,
23,
24,
24,
24,
26,
26,
26,
25,
25,
24,
23,
23,
22,
20,
19,
17,
16,
14,
13,
11,
9,
8,
7,
6,
5,
4,
3,
2,
1,
0,
0,
0,
1,
1,
2,
2,
4,
5,
6,
8,
9,
10,
12,
13,
15,
16,
18,
19,
20,
22,
22,
23,
24,
25,
25,
26,
26,
26,
26,
24,
24,
23,
22,
20,
19,
17,
15,
15,
13,
11,
10,
8,
7,
5,
4,
3,
3,
2,
1,
0,
1,
0,
0,
1,
2,
3,
4,
4,
6,
7,
9,
10,
11,
13,
15,
16,
17,
19,
20,
