Pruebas/Fail/ALL0007/A0007CH2.CSV

Memory Length,4000,
Trigger Level,1.320E+00,
Source,CH2,
Probe,1X,
Vertical Units,V,
Vertical Scale,1.000E+00,
Vertical Position,-1.360E+00,
Horizontal Units,s,
Horizontal Scale,5.000E-02,
Horizontal Position,0.000E+00,
Horizontal Mode,Main,
Sampling Period,2.000E-04,
Firmware,V1.12,
Time, ,
Mode,Fast,
Waveform Data,
124,
124,
-1,
-1,
-1,
-1,
-1,
-1,
-1,
-2,
-2,
-1,
-1,
-1,
-1,
-2,
-1,
-1,
-1,
-1,
-2,
-1,
-2,
-1,
-1,
-1,
-1,
-2,
-2,
-1,
-2,
-1,
-1,
-2,
-1,
-1,
-2,
-2,
-2,
-2,
-1,
-1,
-1,
-1,
-2,
-1,
-2,
-1,
-2,
-1,
-1,
-1,
-1,
-2,
-2,
-2,
-1,
-1,
-2,
-1,
-2,
-1,
-1,
-1,
-1,
-2,
-2,
-1,
-2,
-1,
-1,
-1,
-1,
-2,
-1,
0,
-1,
-1,
-1,
-1,
-1,
-1,
-1,
-1,
-1,
-2,
-2,
-1,
-1,
-1,
-2,
-2,
-1,
-1,
-1,
-1,
-1,
-1,
-2,
-1,
-1,
-2,
-1,
-2,
-1,
-1,
-2,
-2,
-2,
-2,
-1,
-2,
-1,
-1,
-2,
-2,
-1,
-2,
-1,
-1,
-1,
-1,
-1,
-1,
-1,
-1,
-1,
-1,
-1,
-1,
-1,
-1,
-1,
-2,
-1,
-1,
-1,
-1,
-1,
-2,
-1,
-1,
-2,
-1,
-2,
-2,
-2,
-1,
-2,
-1,
-1,
-2,
-2,
-1,
-1,
-1,
-2,
-2,
-2,
-1,
-1,
-2,
-1,
-2,
-1,
-1,
-1,
-1,
-1,
-1,
-1,
-1,
-2,
-2,
-1,
-1,
-2,
-2,
-2,
-1,
-2,
-1,
-1,
-2,
-2,
-2,
-1,
0,
-2,
-2,
-2,
-1,
-2,
-1,
-1,
-2,
-2,
-2,
-1,
-2,
-1,
-2,
-1,
-2,
-1,
-1,
-1,
-1,
-1,
0,
-1,
-1,
-2,
-1,
-1,
-1,
-2,
-1,
-1,
-1,
-1,
-1,
-2,
-2,
-1,
-1,
-2,
0,
-2,
-2,
-1,
-2,
-2,
-1,
-2,
-1,
-1,
-1,
-1,
-2,
-1,
-1,
-1,
-2,
-2,
-1,
-1,
-2,
-1,
-1,
-2,
-2,
-2,
-1,
-2,
-2,
-1,
-1,
-2,
-1,
-1,
-2,
-1,
-2,
-1,
-1,
-1,
-1,
-1,
-1,
-1,
-2,
-1,
-1,
-2,
-2,
-2,
-2,
-1,
-2,
-1,
-2,
-2,
-1,
-2,
-1,
-1,
-2,
-2,
-2,
-1,
-1,
-1,
-1,
-2,
-1,
-2,
-1,
-1,
-2,
-2,
-1,
-1,
-2,
-2,
-2,
-1,
-1,
-1,
-1,
-1,
-1,
-1,
-1,
-1,
-1,
-1,
-1,
-1,
-1,
-1,
-1,
-1,
-1,
-1,
-1,
-1,
-2,
-1,
-1,
-1,
-1,
-2,
-1,
-1,
-1,
-1,
-1,
-2,
-2,
-2,
-1,
-1,
-1,
-2,
-1,
-1,
-2,
-2,
-2,
-2,
-1,
-1,
-1,
-1,
-1,
-1,
-1,
-2,
-1,
-2,
-2,
-1,
-1,
-1,
-1,
-2,
-1,
-2,
-2,
-1,
-2,
-1,
-1,
-2,
-2,
-1,
-1,
-1,
-1,
-1,
-2,
-1,
-1,
-1,
-1,
-1,
-1,
-1,
-2,
-2,
-1,
-2,
-1,
-1,
-1,
-1,
-2,
-2,
-1,
-1,
-2,
-1,
-2,
-1,
-1,
-2,
-2,
-1,
-1,
-1,
-1,
-1,
-1,
-1,
-1,
-1,
-2,
-2,
-2,
-2,
-1,
-1,
-2,
-1,
-1,
-1,
-2,
-1,
-1,
-1,
-1,
-1,
-1,
-2,
-2,
-1,
-2,
-2,
-1,
-1,
-2,
-2,
-2,
-1,
-1,
-2,
-1,
-2,
-2,
-1,
-2,
-2,
-2,
-1,
-1,
-1,
-1,
-1,
-1,
-1,
-2,
-1,
-1,
-2,
-1,
-1,
-2,
-1,
-1,
-1,
-2,
-1,
-2,
-1,
-1,
-1,
-1,
-2,
-1,
-2,
-2,
-1,
-2,
-2,
-2,
-1,
-1,
-1,
-1,
-1,
-2,
-1,
-1,
-1,
-1,
-1,
-2,
-1,
-1,
-1,
-1,
-1,
-1,
-1,
-2,
-2,
-1,
-2,
-1,
-2,
-2,
-2,
-1,
0,
-2,
-2,
-1,
-2,
-1,
-1,
-1,
-1,
-1,
-1,
-1,
-1,
-1,
-1,
-1,
-1,
-2,
-1,
-2,
-1,
-2,
-2,
-1,
-2,
-2,
-2,
-1,
-1,
-1,
-1,
-1,
-1,
-1,
-2,
-2,
-1,
-1,
-1,
-2,
-2,
-2,
-1,
-2,
-2,
-1,
-1,
-2,
-1,
-2,
-2,
-2,
-1,
-1,
-1,
-1,
-1,
-1,
-1,
-1,
-1,
-1,
-1,
-1,
-2,
-1,
-1,
-1,
-2,
-1,
-1,
-2,
-2,
-1,
-2,
-1,
-1,
-2,
-2,
-1,
-1,
-1,
-1,
-2,
-2,
-1,
-2,
-1,
-1,
-1,
-2,
-1,
-1,
-1,
-2,
-2,
-2,
-2,
-1,
-2,
-1,
-1,
-2,
-2,
-1,
-2,
-1,
-1,
-1,
-1,
-1,
-2,
-1,
-1,
-1,
-1,
-2,
-2,
-1,
-2,
-1,
-1,
-2,
-1,
-2,
-1,
-1,
-1,
-1,
-1,
-1,
-1,
-2,
-1,
-1,
-1,
-1,
-2,
-1,
-2,
-2,
-1,
-2,
-2,
-1,
-1,
-1,
-2,
-1,
-2,
-2,
-1,
-1,
-1,
-2,
-1,
-1,
-1,
-1,
-1,
-1,
-1,
-1,
-1,
-1,
-2,
-1,
-1,
-1,
-1,
-1,
-2,
-1,
-1,
-1,
-1,
-2,
-1,
-1,
-1,
-2,
-1,
-2,
-1,
-1,
-2,
-1,
-1,
-1,
-2,
-1,
-2,
-1,
-1,
-2,
-2,
-2,
-2,
-1,
-1,
-1,
-1,
-1,
-1,
-1,
-1,
-1,
-1,
-2,
-1,
-1,
-1,
-1,
-1,
-1,
-2,
-2,
-2,
-2,
-2,
-1,
-1,
-2,
-1,
-1,
-2,
-1,
-1,
-1,
-2,
-1,
-1,
-1,
-1,
-1,
-1,
-2,
-2,
-2,
-1,
-1,
-1,
-1,
-1,
-2,
-1,
-1,
-1,
-1,
-1,
-1,
-2,
-1,
-2,
-1,
-1,
-1,
-2,
-2,
-2,
-1,
-1,
-1,
-2,
-2,
-1,
-2,
-2,
-2,
-2,
-1,
-1,
-1,
-2,
-1,
-1,
-1,
-2,
-1,
-2,
-1,
-2,
-1,
-2,
-1,
-2,
-2,
-1,
-1,
-1,
-1,
-1,
-2,
-2,
-2,
-1,
-2,
-1,
-1,
-2,
-1,
-1,
-1,
-2,
-2,
-2,
-2,
-1,
-2,
-1,
-2,
-2,
-2,
-1,
-1,
-1,
-2,
-2,
-1,
-1,
-1,
-1,
-2,
-2,
-1,
-1,
-2,
-2,
-2,
-1,
-1,
-2,
-1,
-2,
-1,
-2,
-2,
-2,
-1,
-1,
-1,
-1,
-1,
-1,
-1,
-1,
-2,
-1,
-1,
-1,
-1,
-1,
-2,
-2,
-1,
-1,
-1,
-1,
-1,
-1,
-2,
-2,
-1,
-1,
-1,
-1,
-2,
-1,
-1,
-1,
-1,
-2,
0,
-1,
-1,
-1,
-1,
-1,
-2,
-2,
-1,
-1,
-2,
-2,
-1,
-1,
-2,
-1,
-1,
-2,
-2,
-1,
-1,
-2,
-2,
-2,
-2,
-1,
-1,
-2,
-2,
-1,
-1,
-1,
-1,
-2,
-2,
-1,
-2,
-1,
-1,
-2,
-1,
-2,
-1,
-2,
-1,
-1,
-2,
-1,
-1,
-2,
-2,
-1,
-2,
-2,
-1,
-1,
-1,
-2,
-1,
-1,
-1,
-1,
-1,
-2,
-1,
-2,
-2,
-1,
-1,
-1,
-2,
-2,
-2,
-1,
-1,
-2,
-1,
-2,
-2,
-1,
-1,
-1,
-1,
-1,
-2,
-1,
-2,
-1,
-1,
-2,
-2,
-1,
-1,
-2,
-2,
-2,
-2,
-1,
-2,
-2,
-1,
-2,
-2,
-1,
-1,
0,
-1,
-1,
-2,
-1,
-2,
-1,
-1,
-1,
-1,
-1,
-2,
-1,
-1,
-2,
-1,
-1,
-2,
-1,
-1,
-2,
-1,
-1,
-1,
-2,
-2,
-2,
-1,
-1,
-2,
-1,
-1,
-1,
-2,
-1,
-1,
-1,
-1,
-2,
-1,
-1,
-1,
-2,
-1,
-1,
-1,
-2,
-2,
-1,
-2,
-1,
-2,
-2,
-1,
-1,
-1,
-1,
-2,
-2,
-1,
-2,
-1,
-2,
-1,
-1,
-2,
-1,
-2,
-2,
0,
-1,
-2,
-1,
-1,
-2,
-2,
-2,
-2,
-1,
-1,
-1,
-2,
-1,
-1,
-2,
-1,
-1,
-2,
-2,
-1,
-1,
-1,
-2,
-1,
-2,
-1,
-2,
-1,
-1,
-1,
-1,
-2,
-1,
-1,
-2,
-2,
-2,
-2,
-2,
-1,
-1,
-2,
-2,
-2,
-1,
-2,
-2,
-1,
-1,
-2,
-1,
-2,
-1,
-1,
-1,
-2,
-1,
-1,
-1,
-2,
-1,
-1,
-1,
-2,
-1,
-1,
-2,
-1,
-2,
-1,
-1,
-1,
-1,
-2,
-2,
-2,
-2,
-2,
-1,
-1,
-1,
-1,
-2,
-1,
-2,
-1,
-2,
-1,
-1,
-1,
-2,
-1,
-2,
-1,
-1,
-1,
-1,
-1,
-2,
-1,
-1,
-2,
-2,
-1,
-1,
-1,
-1,
-1,
-1,
-2,
-1,
-1,
-1,
-2,
-2,
-2,
-1,
-2,
-1,
-1,
-2,
-2,
-1,
-1,
-2,
-2,
0,
-2,
-1,
-2,
-2,
-2,
-1,
-1,
-2,
-2,
-1,
-1,
-2,
-1,
-1,
-1,
-1,
-1,
-1,
-1,
-1,
-1,
-1,
-1,
-2,
-2,
-1,
-1,
-1,
-1,
-1,
-1,
-1,
-2,
-2,
-1,
-2,
-1,
-1,
-1,
-2,
-2,
-2,
-1,
-1,
-1,
-1,
-1,
-2,
-2,
-1,
-1,
-1,
-1,
-1,
-1,
-1,
-2,
-2,
-1,
-1,
-1,
-2,
-2,
-2,
-1,
-1,
-1,
-1,
-1,
-1,
-1,
-1,
-2,
-1,
-1,
-1,
-1,
-1,
-1,
-1,
-2,
-2,
-1,
-1,
-1,
-1,
-2,
-1,
-2,
-1,
-2,
-1,
-2,
-1,
-1,
-1,
-1,
-1,
-1,
-1,
-1,
-2,
-1,
-1,
-2,
-1,
-1,
-1,
-2,
-2,
-1,
-2,
-1,
-1,
-1,
-2,
-1,
-1,
-1,
-1,
-2,
-1,
-1,
-1,
-2,
-1,
-1,
-1,
-1,
-1,
-2,
-2,
-1,
-2,
-1,
-1,
-1,
-2,
-2,
-2,
-1,
-2,
-2,
-1,
-1,
-1,
-1,
-1,
-2,
-2,
-1,
-1,
-1,
-2,
-2,
-2,
-2,
-1,
-1,
-2,
-2,
-1,
-1,
-1,
-2,
-2,
-1,
-1,
-1,
-2,
-2,
-1,
-2,
-2,
-1,
-1,
-1,
-1,
-2,
-2,
-1,
-2,
-2,
-2,
-1,
-1,
-1,
-2,
-1,
-1,
-1,
-1,
-2,
-2,
-2,
-1,
-2,
-2,
-1,
-1,
-1,
-2,
-1,
-2,
-1,
-1,
-1,
-1,
-1,
-2,
-1,
-1,
-1,
-1,
-1,
-2,
-1,
-2,
-1,
-1,
-2,
-1,
-1,
-1,
-1,
-1,
-1,
-1,
-1,
-1,
-1,
-1,
-1,
-1,
-2,
-1,
-1,
-1,
-1,
-2,
-1,
-2,
-1,
-2,
-1,
-2,
-2,
-1,
-1,
-1,
-1,
-2,
-1,
-1,
-1,
-2,
-1,
-1,
-2,
-1,
-1,
-1,
-1,
-1,
-2,
-2,
-1,
-2,
-2,
-1,
-1,
-2,
-1,
-1,
-2,
-2,
-1,
-1,
-2,
-1,
-2,
-2,
-1,
-1,
-2,
-1,
-2,
-1,
-2,
-1,
-1,
-1,
-2,
-1,
-1,
-2,
-1,
-1,
-2,
0,
-2,
-1,
-1,
-1,
-1,
-1,
-2,
-1,
-2,
-2,
-2,
-1,
-1,
-1,
-1,
-2,
-2,
-2,
-2,
-1,
-2,
-2,
-2,
-1,
-2,
-1,
-2,
-1,
-2,
-1,
-1,
-2,
-1,
-1,
-1,
-1,
-2,
-1,
-2,
-1,
-2,
-1,
-1,
-1,
-2,
-1,
-1,
-1,
-1,
-1,
-1,
-2,
-1,
-1,
-1,
-2,
-1,
-2,
-1,
-2,
-1,
-1,
-1,
-1,
-2,
-1,
-1,
-2,
-2,
-1,
-1,
-1,
-1,
-1,
-1,
-1,
-1,
-1,
-1,
-1,
-1,
-2,
-1,
-1,
-2,
-1,
-1,
-1,
-1,
-1,
-1,
-2,
-2,
-1,
-1,
-2,
-1,
-1,
-2,
-2,
-2,
-2,
-1,
-2,
-1,
-1,
-2,
-1,
-1,
-1,
-2,
-1,
-1,
-1,
-1,
-2,
-1,
-2,
-1,
-2,
-1,
-2,
-1,
-2,
-2,
-1,
-1,
-1,
-1,
-1,
-2,
-1,
-1,
-1,
-1,
-1,
-2,
-2,
-1,
-1,
-1,
-1,
-1,
-1,
-1,
-1,
-1,
-1,
-2,
-1,
-1,
-2,
-1,
-1,
-1,
-2,
-1,
-1,
-1,
-1,
-1,
-2,
-1,
-1,
-1,
-1,
-1,
-2,
-2,
-1,
-1,
-2,
-2,
-1,
-1,
-1,
-1,
-1,
-2,
-1,
-1,
-1,
-2,
-2,
-1,
-1,
-2,
-1,
-1,
-1,
-1,
-1,
-2,
-1,
-1,
-1,
-1,
-1,
-2,
-1,
-1,
-2,
-2,
-1,
-1,
-1,
-1,
-2,
-1,
-2,
-2,
-1,
-2,
-1,
-1,
-1,
-1,
-1,
-2,
-2,
-2,
-2,
-1,
-1,
-2,
-2,
-1,
-1,
-2,
-2,
-2,
-1,
-1,
-2,
-1,
-2,
-1,
-1,
-2,
-1,
-1,
-2,
-2,
-1,
-2,
-2,
-1,
-1,
-2,
-2,
-1,
-1,
-1,
-1,
-1,
-2,
-1,
-1,
-1,
-2,
-2,
-1,
-1,
-2,
-1,
-2,
-1,
-2,
-1,
-1,
-1,
-1,
-2,
-1,
-2,
-1,
-1,
-1,
-1,
-2,
-1,
-1,
-1,
-1,
-1,
-2,
-1,
-2,
-1,
-1,
-2,
-2,
-2,
-1,
-1,
-1,
-1,
-1,
-2,
-1,
-1,
-1,
-2,
-1,
-1,
-2,
-1,
-1,
-1,
-2,
-1,
-1,
-1,
-2,
-1,
-2,
-1,
-1,
-1,
-1,
-1,
-1,
-1,
-1,
-2,
-2,
-2,
-1,
-2,
-1,
-2,
-2,
-1,
-1,
-1,
-2,
-2,
-2,
-1,
-2,
-2,
-2,
-2,
-1,
-2,
-1,
-2,
-1,
-2,
-1,
-1,
-1,
-1,
-1,
-1,
-1,
-2,
-1,
-1,
-2,
-2,
-1,
-1,
-1,
-2,
-1,
-2,
-1,
-1,
-1,
-1,
-2,
-1,
-1,
-2,
-2,
-1,
-1,
-2,
-2,
-2,
-2,
-2,
-1,
-2,
-2,
-1,
-2,
-2,
-1,
-1,
-1,
-2,
-1,
-2,
-2,
-1,
-2,
-1,
-2,
-2,
-2,
-1,
-1,
-1,
-1,
-1,
-2,
-2,
-1,
-2,
-2,
-1,
-1,
-2,
-1,
-2,
-2,
-2,
-2,
-1,
-1,
-2,
-1,
-1,
-1,
-2,
-2,
-2,
-1,
-1,
-1,
-1,
-2,
-2,
-1,
-2,
-1,
-2,
-1,
-1,
-1,
-2,
-2,
-2,
-1,
-2,
-2,
-1,
-1,
-1,
-2,
-2,
-1,
-1,
-1,
-2,
-1,
-1,
-1,
-2,
-2,
-2,
-2,
-1,
-1,
-2,
-2,
-1,
-1,
-1,
-1,
-1,
-1,
-2,
-1,
-2,
-1,
-1,
-2,
-1,
-1,
-1,
-2,
-1,
-2,
-2,
-1,
-1,
-2,
-1,
-1,
-1,
-2,
-2,
-1,
-1,
-1,
-1,
-2,
-1,
-2,
-2,
-2,
-1,
-1,
-2,
-2,
-2,
-1,
-2,
0,
3,
5,
9,
12,
15,
18,
21,
24,
26,
28,
31,
34,
35,
37,
39,
42,
44,
47,
49,
50,
52,
54,
55,
57,
58,
61,
62,
63,
66,
66,
68,
70,
71,
73,
74,
75,
76,
77,
79,
80,
81,
82,
83,
85,
86,
86,
88,
89,
89,
90,
91,
92,
93,
94,
94,
95,
97,
97,
98,
98,
99,
99,
100,
100,
102,
101,
102,
103,
104,
104,
104,
105,
106,
106,
107,
107,
107,
108,
108,
109,
109,
109,
110,
110,
111,
111,
111,
112,
112,
112,
113,
113,
114,
113,
114,
114,
114,
114,
114,
115,
115,
115,
116,
116,
117,
116,
116,
117,
117,
117,
117,
117,
117,
118,
118,
118,
118,
118,
118,
119,
119,
119,
119,
120,
119,
120,
119,
120,
119,
120,
120,
120,
120,
121,
121,
121,
120,
121,
121,
121,
121,
121,
121,
121,
122,
122,
122,
122,
121,
122,
122,
122,
122,
122,
122,
122,
122,
122,
122,
122,
122,
122,
122,
123,
123,
122,
122,
122,
123,
122,
123,
122,
123,
122,
122,
122,
122,
123,
122,
123,
123,
123,
123,
123,
123,
124,
124,
123,
124,
123,
124,
124,
124,
123,
124,
123,
124,
124,
123,
124,
124,
124,
124,
124,
124,
123,
124,
124,
124,
124,
124,
124,
124,
124,
125,
124,
125,
123,
124,
124,
124,
124,
124,
124,
124,
124,
124,
124,
124,
124,
124,
124,
124,
124,
124,
124,
124,
124,
124,
124,
124,
124,
125,
124,
124,
125,
124,
124,
125,
124,
124,
124,
125,
124,
124,
124,
124,
124,
125,
124,
124,
124,
124,
124,
124,
124,
124,
125,
124,
124,
125,
124,
125,
125,
125,
125,
124,
124,
125,
124,
125,
125,
124,
125,
125,
124,
125,
125,
125,
125,
125,
125,
125,
124,
124,
124,
125,
124,
124,
125,
124,
125,
125,
125,
124,
125,
124,
124,
125,
125,
125,
124,
125,
125,
125,
125,
124,
125,
125,
125,
125,
124,
124,
125,
124,
125,
124,
125,
125,
125,
125,
125,
125,
125,
125,
125,
124,
125,
125,
125,
125,
124,
125,
125,
124,
125,
124,
125,
124,
124,
125,
125,
125,
124,
124,
125,
125,
124,
125,
125,
124,
124,
125,
125,
125,
125,
125,
125,
124,
125,
124,
124,
125,
125,
125,
125,
125,
125,
125,
125,
125,
125,
124,
124,
125,
125,
125,
124,
125,
125,
125,
124,
124,
125,
124,
124,
125,
124,
125,
125,
125,
125,
125,
125,
124,
124,
124,
125,
124,
124,
125,
124,
125,
124,
125,
124,
124,
125,
124,
126,
125,
125,
125,
124,
125,
124,
124,
125,
125,
125,
125,
125,
125,
125,
125,
125,
125,
126,
125,
125,
125,
125,
124,
124,
125,
125,
124,
125,
124,
124,
125,
124,
124,
125,
124,
125,
125,
124,
125,
125,
124,
125,
125,
125,
125,
125,
125,
125,
125,
125,
125,
125,
125,
125,
124,
125,
124,
124,
124,
124,
125,
124,
125,
124,
125,
125,
125,
125,
124,
124,
125,
125,
124,
124,
125,
125,
124,
124,
126,
124,
125,
125,
125,
125,
125,
125,
124,
125,
125,
125,
125,
124,
124,
125,
125,
124,
124,
124,
125,
125,
125,
125,
124,
124,
124,
124,
124,
125,
124,
125,
125,
125,
124,
125,
124,
125,
124,
124,
125,
124,
125,
125,
124,
125,
125,
124,
125,
125,
125,
124,
125,
125,
125,
125,
125,
125,
125,
125,
125,
125,
124,
126,
124,
125,
125,
125,
125,
125,
125,
125,
125,
124,
125,
125,
125,
124,
124,
125,
125,
125,
125,
125,
125,
124,
125,
124,
124,
125,
126,
125,
125,
125,
125,
125,
124,
125,
125,
125,
125,
125,
125,
125,
125,
125,
125,
125,
125,
125,
125,
125,
124,
125,
125,
124,
125,
125,
124,
125,
124,
124,
125,
125,
125,
125,
125,
125,
124,
125,
125,
124,
125,
125,
124,
125,
125,
125,
124,
125,
125,
124,
125,
125,
125,
125,
124,
124,
124,
125,
125,
124,
125,
125,
125,
125,
124,
124,
124,
125,
125,
125,
125,
125,
125,
124,
125,
124,
125,
125,
125,
125,
125,
125,
125,
125,
125,
125,
125,
124,
125,
124,
124,
124,
125,
125,
125,
125,
125,
124,
125,
124,
124,
125,
124,
125,
125,
125,
124,
125,
124,
124,
124,
124,
125,
125,
125,
125,
125,
125,
124,
125,
124,
124,
124,
125,
125,
124,
125,
125,
125,
125,
124,
125,
125,
125,
124,
124,
125,
125,
125,
125,
125,
124,
125,
125,
125,
124,
124,
125,
125,
125,
125,
125,
124,
125,
125,
125,
125,
125,
125,
125,
124,
124,
125,
125,
124,
124,
125,
125,
125,
124,
125,
125,
125,
125,
125,
125,
125,
125,
125,
125,
125,
125,
125,
124,
125,
125,
124,
125,
125,
124,
124,
125,
124,
125,
125,
124,
125,
125,
125,
125,
124,
125,
124,
125,
125,
125,
125,
125,
125,
125,
124,
125,
125,
125,
124,
124,
125,
125,
125,
125,
125,
125,
125,
124,
125,
125,
125,
124,
125,
125,
125,
125,
125,
124,
125,
125,
125,
125,
125,
124,
125,
125,
125,
124,
125,
125,
125,
125,
125,
124,
125,
125,
125,
125,
125,
124,
125,
125,
124,
125,
125,
125,
125,
124,
125,
125,
125,
125,
125,
125,
125,
125,
125,
125,
125,
125,
125,
125,
125,
125,
125,
124,
125,
124,
125,
125,
124,
125,
125,
125,
125,
125,
125,
125,
124,
124,
125,
124,
125,
125,
124,
125,
125,
125,
124,
125,
124,
125,
125,
125,
125,
125,
125,
125,
125,
125,
125,
125,
125,
125,
125,
125,
125,
125,
125,
125,
125,
125,
124,
125,
125,
125,
125,
125,
125,
125,
124,
125,
124,
125,
125,
124,
125,
125,
125,
125,
125,
125,
124,
124,
125,
125,
125,
124,
125,
124,
124,
125,
125,
125,
125,
125,
125,
124,
125,
125,
125,
125,
125,
125,
125,
125,
125,
125,
125,
124,
124,
125,
125,
125,
125,
125,
124,
124,
124,
125,
125,
125,
125,
125,
125,
125,
125,
125,
125,
125,
125,
125,
125,
124,
125,
124,
125,
124,
124,
125,
125,
125,
125,
124,
124,
125,
125,
125,
125,
125,
125,
125,
125,
124,
125,
125,
125,
125,
125,
125,
124,
125,
125,
125,
125,
125,
125,
125,
125,
125,
124,
125,
125,
125,
124,
125,
124,
124,
125,
124,
125,
124,
125,
125,
125,
125,
125,
124,
124,
125,
124,
125,
125,
124,
125,
125,
125,
125,
125,
125,
124,
125,
124,
125,
125,
125,
124,
124,
124,
125,
125,
125,
125,
125,
125,
124,
125,
125,
125,
124,
124,
125,
125,
124,
125,
125,
125,
124,
125,
125,
125,
125,
125,
124,
125,
124,
125,
126,
125,
124,
125,
124,
125,
125,
125,
125,
125,
125,
125,
125,
125,
125,
125,
125,
125,
125,
125,
125,
124,
125,
124,
125,
124,
124,
125,
125,
124,
125,
125,
124,
125,
125,
125,
125,
125,
125,
125,
125,
125,
125,
124,
125,
125,
124,
125,
125,
125,
125,
124,
125,
124,
124,
124,
125,
125,
124,
125,
125,
125,
125,
125,
125,
124,
125,
125,
125,
125,
124,
125,
125,
124,
125,
125,
125,
125,
125,
125,
125,
125,
125,
124,
125,
124,
124,
125,
125,
125,
125,
125,
125,
125,
125,
124,
124,
125,
124,
125,
124,
125,
125,
124,
124,
124,
125,
125,
125,
125,
124,
125,
125,
125,
124,
125,
124,
125,
125,
125,
125,
126,
125,
125,
125,
125,
124,
126,
125,
125,
125,
125,
124,
125,
125,
124,
125,
125,
125,
125,
125,
124,
125,
125,
125,
125,
125,
125,
125,
125,
124,
126,
125,
124,
124,
125,
124,
125,
124,
124,
124,
125,
125,
124,
124,
125,
125,
125,
125,
124,
125,
124,
124,
124,
125,
125,
125,
124,
125,
125,
125,
124,
125,
125,
124,
125,
125,
124,
125,
125,
125,
125,
125,
124,
125,
125,
125,
125,
125,
124,
125,
125,
125,
125,
125,
125,
125,
125,
125,
124,
125,
125,
124,
124,
125,
125,
124,
125,
124,
125,
124,
125,
124,
125,
125,
125,
125,
124,
125,
125,
125,
125,
124,
125,
125,
125,
125,
125,
125,
124,
125,
125,
124,
125,
125,
125,
125,
125,
125,
125,
125,
124,
125,
125,
124,
125,
125,
125,
125,
125,
125,
124,
125,
125,
125,
125,
125,
124,
125,
124,
124,
124,
125,
125,
124,
125,
124,
125,
125,
125,
125,
124,
125,
125,
125,
125,
125,
125,
125,
125,
125,
125,
125,
125,
125,
125,
125,
125,
125,
125,
125,
125,
124,
125,
125,
124,
125,
125,
125,
125,
125,
125,
125,
125,
125,
125,
125,
125,
125,
126,
124,
124,
125,
124,
124,
125,
124,
125,
125,
124,
125,
125,
124,
125,
125,
125,
125,
125,
125,
125,
125,
125,
124,
125,
125,
125,
125,
125,
125,
125,
125,
124,
125,
125,
124,
126,
125,
125,
124,
124,
125,
124,
125,
124,
125,
125,
125,
124,
125,
125,
125,
125,
125,
125,
125,
125,
124,
125,
125,
125,
124,
124,
125,
125,
125,
124,
125,
125,
125,
125,
125,
125,
125,
125,
125,
125,
125,
125,
125,
125,
125,
125,
125,
124,
125,
125,
125,
125,
125,
126,
125,
125,
125,
124,
125,
125,
125,
125,
125,
125,
125,
125,
125,
124,
125,
124,
125,
124,
125,
125,
125,
124,
124,
125,
125,
125,
125,
124,
125,
125,
125,
125,
125,
125,
125,
124,
124,
124,
125,
125,
126,
126,
125,
125,
124,
124,
124,
125,
125,
125,
125,
125,
125,
125,
124,
125,
125,
125,
125,
125,
125,
125,
125,
126,
125,
124,
125,
125,
124,
125,
124,
124,
125,
125,
125,
124,
125,
125,
124,
125,
125,
125,
125,
125,
124,
125,
125,
125,
124,
125,
125,
124,
124,
125,
125,
124,
125,
125,
125,
125,
125,
125,
125,
125,
125,
125,
125,
125,
125,
125,
125,
125,
125,
125,
125,
125,
125,
125,
125,
125,
125,
125,
125,
125,
125,
125,
125,
125,
125,
125,
125,
125,
125,
124,
124,
124,
124,
126,
124,
125,
126,
125,
125,
125,
125,
125,
125,
125,
125,
125,
125,
125,
125,
125,
125,
125,
125,
124,
125,
125,
125,
124,
125,
125,
124,
125,
125,
124,
125,
125,
125,
125,
125,
125,
126,
124,
125,
125,
125,
125,
125,
124,
124,
125,
125,
125,
125,
125,
124,
125,
125,
124,
124,
125,
124,
125,
124,
125,
125,
125,
125,
125,
125,
125,
124,
125,
125,
125,
125,
125,
124,
125,
125,
125,
125,
125,
125,
125,
125,
125,
125,
124,
125,
125,
125,
124,
125,
125,
124,
125,
125,
125,
125,
124,
125,
125,
125,
124,
124,
125,
125,
125,
124,
125,
125,
125,
125,
125,
125,
125,
125,
125,
125,
124,
125,
125,
124,
125,
125,
124,
125,
125,
125,
125,
125,
125,
124,
125,
124,
125,
125,
125,
125,
125,
125,
125,
125,
125,
125,
125,
124,
125,
125,
125,
125,
124,
124,
124,
125,
126,
125,
124,
125,
125,
125,
125,
125,
124,
125,
125,
125,
124,
125,
125,
125,
125,
124,
125,
124,
125,
124,
125,
125,
124,
124,
125,
125,
125,
125,
125,
125,
125,
125,
125,
125,
125,
125,
125,
125,
125,
125,
125,
125,
125,
125,
125,
125,
125,
125,
124,
125,
124,
125,
125,
125,
125,
125,
125,
125,
124,
125,
125,
124,
125,
125,
125,
124,
125,
125,
124,
124,
125,
125,
125,
125,
124,
124,
125,
125,
125,
125,
125,
125,
125,
124,
125,
124,
125,
125,
125,
125,
124,
125,
125,
125,
124,
124,
125,
125,
125,
124,
125,
125,
125,
125,
125,
125,
124,
125,
125,
125,
125,
125,
125,
125,
125,
125,
125,
125,
125,
125,
125,
126,
125,
125,
126,
125,
124,
125,
126,
125,
124,
125,
124,
124,
124,
125,
125,
125,
125,
125,
125,
124,
125,
125,
125,
125,
125,
124,
125,
125,
125,
125,
124,
125,
125,
125,
125,
125,
124,
125,
125,
125,
124,
125,
125,
125,
125,
125,
125,
125,
124,
125,
125,
125,
126,
124,
124,
124,
125,
125,
124,
125,
124,
125,
125,
125,
125,
125,
125,
125,
125,
125,
125,
124,
125,
124,
125,
125,
124,
124,
125,
125,
125,
125,
125,
125,
