Actividad 2/160Ohm/ALL0000/A0000CH1.CSV

Memory Length,4000,
Trigger Level,4.240E-01,
Source,CH1,
Probe,1X,
Vertical Units,V,
Vertical Scale,1.000E+00,
Vertical Position,-4.000E-02,
Horizontal Units,s,
Horizontal Scale,2.500E-02,
Horizontal Position,0.000E+00,
Horizontal Mode,Main,
Sampling Period,1.000E-04,
Firmware,V1.11,
Time, ,
Mode,Fast,
Waveform Data,
10,
10,
11,
10,
11,
11,
11,
11,
11,
11,
11,
12,
11,
11,
11,
11,
12,
11,
12,
12,
12,
12,
11,
11,
12,
12,
12,
11,
12,
11,
12,
12,
12,
13,
12,
12,
12,
13,
12,
13,
12,
12,
12,
12,
13,
13,
13,
13,
13,
13,
13,
12,
12,
13,
13,
13,
13,
13,
13,
13,
13,
13,
12,
12,
13,
13,
13,
13,
13,
13,
13,
13,
13,
13,
13,
13,
13,
13,
13,
13,
13,
13,
13,
14,
13,
13,
13,
13,
13,
13,
14,
15,
14,
14,
13,
14,
13,
14,
14,
14,
13,
13,
13,
14,
14,
14,
15,
14,
13,
14,
15,
14,
15,
14,
14,
14,
14,
14,
14,
14,
13,
14,
14,
15,
14,
15,
14,
15,
15,
15,
14,
15,
14,
14,
15,
15,
14,
15,
15,
13,
14,
14,
15,
15,
15,
14,
15,
15,
14,
14,
15,
15,
15,
15,
15,
15,
15,
15,
15,
15,
15,
14,
14,
15,
15,
15,
14,
14,
15,
15,
15,
15,
15,
15,
16,
15,
15,
15,
15,
15,
15,
15,
15,
15,
16,
15,
15,
15,
14,
15,
16,
15,
15,
15,
16,
16,
16,
15,
15,
15,
15,
15,
16,
15,
16,
16,
16,
15,
16,
15,
16,
16,
16,
16,
15,
15,
15,
16,
16,
16,
15,
15,
16,
16,
16,
16,
15,
16,
15,
16,
16,
16,
16,
16,
17,
17,
16,
16,
15,
16,
16,
16,
16,
16,
16,
16,
16,
16,
15,
16,
15,
16,
15,
16,
16,
16,
16,
16,
16,
16,
17,
16,
16,
16,
16,
16,
17,
16,
16,
16,
16,
16,
15,
15,
16,
16,
15,
16,
16,
16,
16,
16,
16,
16,
16,
15,
16,
16,
16,
16,
16,
16,
16,
16,
16,
16,
16,
16,
15,
16,
15,
16,
16,
16,
16,
16,
15,
16,
16,
16,
16,
17,
16,
16,
16,
16,
16,
16,
16,
16,
15,
16,
16,
16,
17,
16,
16,
16,
16,
15,
15,
16,
16,
16,
16,
16,
15,
16,
16,
16,
15,
16,
17,
16,
15,
16,
15,
16,
16,
16,
15,
16,
16,
16,
16,
15,
16,
16,
15,
16,
16,
16,
16,
16,
16,
14,
16,
16,
16,
16,
16,
16,
16,
16,
16,
16,
16,
16,
16,
15,
16,
15,
15,
15,
16,
15,
15,
16,
15,
15,
15,
15,
15,
15,
15,
15,
15,
15,
16,
16,
15,
16,
15,
15,
15,
16,
15,
15,
15,
16,
15,
15,
16,
15,
15,
15,
15,
15,
15,
14,
15,
15,
14,
15,
15,
15,
15,
15,
15,
14,
15,
14,
15,
14,
15,
15,
15,
15,
15,
15,
14,
15,
15,
15,
15,
15,
15,
15,
15,
15,
15,
15,
14,
14,
15,
14,
15,
14,
14,
14,
14,
14,
15,
14,
15,
14,
14,
15,
14,
14,
15,
14,
14,
14,
15,
15,
14,
15,
14,
14,
14,
14,
14,
14,
14,
15,
14,
14,
14,
13,
13,
14,
13,
13,
14,
13,
13,
13,
13,
13,
13,
13,
13,
13,
14,
13,
13,
14,
14,
13,
13,
13,
13,
13,
13,
13,
13,
13,
14,
13,
13,
12,
13,
13,
13,
13,
13,
13,
13,
13,
12,
13,
13,
13,
13,
13,
12,
12,
13,
13,
12,
13,
12,
13,
12,
12,
13,
12,
12,
12,
12,
12,
12,
12,
12,
11,
12,
12,
12,
11,
12,
11,
12,
12,
11,
11,
12,
11,
11,
12,
11,
11,
11,
12,
11,
11,
11,
11,
11,
10,
11,
10,
11,
10,
11,
11,
11,
11,
11,
10,
10,
10,
11,
11,
11,
10,
11,
11,
11,
11,
11,
10,
10,
10,
10,
10,
10,
10,
10,
11,
10,
11,
10,
11,
11,
10,
10,
10,
10,
11,
10,
10,
9,
10,
9,
9,
10,
10,
10,
9,
10,
9,
10,
10,
9,
10,
10,
9,
9,
9,
10,
9,
9,
9,
9,
9,
9,
9,
9,
9,
9,
9,
9,
9,
9,
9,
9,
9,
8,
8,
9,
9,
9,
8,
9,
8,
8,
8,
7,
8,
8,
8,
7,
8,
8,
8,
7,
8,
8,
8,
9,
8,
7,
7,
7,
7,
7,
7,
7,
7,
7,
7,
8,
7,
7,
6,
7,
7,
7,
7,
7,
6,
6,
7,
6,
7,
7,
6,
7,
7,
7,
7,
6,
7,
6,
6,
6,
6,
6,
6,
7,
7,
7,
6,
5,
7,
6,
6,
6,
6,
6,
6,
5,
6,
6,
5,
6,
5,
5,
5,
5,
6,
5,
6,
6,
5,
5,
5,
5,
5,
5,
5,
5,
5,
5,
5,
5,
5,
5,
5,
4,
4,
5,
5,
4,
4,
4,
4,
4,
3,
4,
4,
4,
4,
4,
3,
4,
4,
4,
4,
3,
3,
3,
3,
4,
4,
3,
3,
4,
4,
2,
3,
3,
3,
3,
3,
3,
2,
3,
3,
3,
3,
2,
2,
2,
2,
3,
3,
3,
2,
3,
3,
2,
3,
2,
2,
2,
2,
3,
2,
2,
2,
2,
2,
2,
2,
1,
1,
2,
2,
3,
2,
2,
1,
2,
1,
2,
2,
2,
2,
1,
2,
2,
2,
1,
1,
2,
1,
1,
1,
1,
1,
1,
1,
1,
1,
1,
1,
1,
1,
1,
1,
1,
1,
1,
1,
1,
1,
1,
1,
1,
1,
0,
1,
0,
0,
0,
0,
0,
0,
0,
0,
0,
1,
0,
0,
0,
0,
0,
0,
0,
-1,
0,
0,
0,
0,
-1,
-1,
-1,
-1,
-1,
0,
-1,
0,
-1,
-1,
-1,
-1,
-1,
-2,
-1,
-2,
-1,
-2,
-1,
-1,
-1,
-1,
-1,
-1,
-1,
-1,
-2,
-2,
-1,
-1,
-1,
-2,
-2,
-2,
-3,
-2,
-1,
-1,
-3,
-3,
-2,
-3,
-3,
-2,
-2,
-3,
-2,
-3,
-3,
-1,
-3,
-3,
-3,
-3,
-3,
-3,
-2,
-3,
-3,
-3,
-3,
-2,
-3,
-3,
-2,
-3,
-3,
-3,
-3,
-3,
-3,
-3,
-3,
-3,
-3,
-3,
-3,
-3,
-3,
-4,
-3,
-3,
-5,
-3,
-3,
-3,
-4,
-4,
-4,
-4,
-4,
-4,
-3,
-4,
-4,
-4,
-4,
-4,
-4,
-4,
-4,
-4,
-4,
-5,
-4,
-4,
-5,
-4,
-4,
-4,
-4,
-4,
-4,
-4,
-6,
-5,
-4,
-4,
-4,
-6,
-6,
-6,
-6,
-5,
-5,
-5,
-5,
-5,
-5,
-5,
-5,
-5,
-6,
-4,
-5,
-5,
-6,
-6,
-6,
-5,
-6,
-6,
-6,
-6,
-6,
-6,
-6,
-6,
-5,
-6,
-6,
-6,
-6,
-5,
-6,
-6,
-5,
-6,
-6,
-6,
-6,
-6,
-6,
-6,
-6,
-6,
-6,
-6,
-6,
-6,
-6,
-6,
-7,
-7,
-7,
-7,
-6,
-6,
-6,
-7,
-7,
-6,
-7,
-7,
-7,
-6,
-7,
-7,
-7,
-7,
-7,
-7,
-7,
-7,
-7,
-7,
-7,
-7,
-7,
-7,
-7,
-7,
-7,
-7,
-7,
-7,
-7,
-7,
-7,
-7,
-7,
-7,
-7,
-8,
-7,
-8,
-7,
-8,
-7,
-8,
-7,
-7,
-8,
-7,
-8,
-7,
-8,
-7,
-8,
-7,
-7,
-8,
-8,
-7,
-7,
-7,
-7,
-8,
-8,
-7,
-8,
-8,
-8,
-7,
-7,
-8,
-7,
-8,
-8,
-8,
-9,
-8,
-8,
-8,
-8,
-8,
-8,
-8,
-8,
-8,
-8,
-8,
-8,
-8,
-8,
-9,
-8,
-8,
-8,
-8,
-8,
-8,
-9,
-8,
-8,
-9,
-9,
-8,
-9,
-8,
-8,
-9,
-9,
-9,
-8,
-9,
-8,
-9,
-9,
-9,
-9,
-8,
-8,
-9,
-8,
-8,
-10,
-9,
-9,
-9,
-9,
-8,
-9,
-8,
-9,
-8,
-9,
-9,
-9,
-9,
-9,
-9,
-9,
-9,
-9,
-9,
-9,
-9,
-9,
-9,
-9,
-10,
-9,
-9,
-9,
-10,
-9,
-9,
-10,
-9,
-9,
-9,
-9,
-9,
-10,
-9,
-9,
-9,
-9,
-10,
-9,
-9,
-9,
-9,
-9,
-9,
-9,
-9,
-9,
-10,
-9,
-9,
-9,
-9,
-9,
-10,
-10,
-9,
-9,
-9,
-10,
-9,
-9,
-9,
-9,
-10,
-9,
-9,
-9,
-9,
-9,
-9,
-9,
-9,
-9,
-9,
-9,
-9,
-9,
-9,
-9,
-9,
-9,
-9,
-9,
-10,
-10,
-9,
-9,
-9,
-9,
-9,
-9,
-9,
-10,
-9,
-10,
-9,
-9,
-10,
-10,
-9,
-9,
-9,
-9,
-9,
-9,
-9,
-10,
-9,
-9,
-9,
-9,
-9,
-9,
-9,
-9,
-9,
-9,
-9,
-9,
-9,
-9,
-9,
-9,
-9,
-9,
-9,
-9,
-9,
-9,
-9,
-10,
-10,
-9,
-10,
-9,
-9,
-9,
-10,
-9,
-9,
-10,
-9,
-9,
-9,
-10,
-9,
-10,
-9,
-9,
-9,
-9,
-9,
-9,
-10,
-9,
-9,
-10,
-10,
-9,
-9,
-9,
-9,
-9,
-9,
-9,
-10,
-9,
-9,
-9,
-9,
-9,
-9,
-9,
-9,
-8,
-9,
-10,
-9,
-9,
-9,
-9,
-10,
-9,
-9,
-8,
-9,
-9,
-9,
-9,
-9,
-9,
-9,
-8,
-9,
-8,
-8,
-9,
-9,
-8,
-9,
-9,
-8,
-9,
-9,
-9,
-8,
-9,
-9,
-9,
-8,
-8,
-9,
-8,
-8,
-8,
-8,
-8,
-8,
-8,
-8,
-9,
-9,
-8,
-8,
-8,
-8,
-7,
-8,
-8,
-7,
-8,
-8,
-9,
-8,
-7,
-8,
-8,
-8,
-8,
-8,
-8,
-8,
-7,
-8,
-8,
-7,
-8,
-8,
-8,
-7,
-8,
-8,
-7,
-7,
-8,
-7,
-8,
-8,
-8,
-8,
-7,
-8,
-8,
-8,
-7,
-8,
-8,
-7,
-8,
-8,
-7,
-7,
-7,
-8,
-7,
-7,
-7,
-7,
-7,
-7,
-7,
-7,
-7,
-7,
-8,
-7,
-7,
-7,
-7,
-7,
-7,
-7,
-7,
-7,
-7,
-7,
-7,
-7,
-6,
-7,
-7,
-7,
-7,
-7,
-7,
-7,
-7,
-6,
-7,
-7,
-6,
-6,
-7,
-6,
-7,
-7,
-6,
-7,
-6,
-6,
-7,
-6,
-6,
-6,
-6,
-6,
-6,
-6,
-7,
-6,
-6,
-6,
-6,
-5,
-6,
-6,
-6,
-5,
-6,
-6,
-6,
-6,
-6,
-6,
-5,
-5,
-5,
-6,
-6,
-6,
-6,
-5,
-5,
-6,
-6,
-5,
-6,
-6,
-6,
-6,
-6,
-6,
-5,
-5,
-6,
-5,
-5,
-5,
-5,
-5,
-5,
-5,
-5,
-5,
-5,
-5,
-6,
-6,
-4,
-4,
-4,
-4,
-5,
-4,
-4,
-4,
-4,
-4,
-4,
-4,
-4,
-4,
-4,
-4,
-4,
-4,
-3,
-4,
-3,
-3,
-5,
-3,
-4,
-4,
-5,
-4,
-3,
-3,
-3,
-3,
-4,
-3,
-3,
-3,
-3,
-3,
-3,
-3,
-3,
-3,
-3,
-3,
-3,
-3,
-3,
-3,
-3,
-4,
-3,
-3,
-3,
-3,
-3,
-3,
-3,
-3,
-2,
-3,
-3,
-3,
-2,
-2,
-2,
-2,
-1,
-2,
-3,
-3,
-2,
-1,
-3,
-2,
-2,
-2,
-2,
-1,
-2,
-2,
-2,
-1,
-1,
-1,
-2,
-1,
-1,
-1,
-2,
-1,
-2,
-1,
-1,
-2,
-1,
-1,
-1,
-1,
-2,
-1,
-1,
-1,
-1,
0,
-1,
-1,
-1,
-1,
-1,
-2,
-1,
-1,
0,
0,
-1,
-1,
0,
0,
0,
0,
0,
-1,
-1,
1,
-1,
0,
0,
0,
0,
0,
1,
0,
1,
0,
0,
1,
1,
0,
1,
1,
1,
1,
0,
1,
1,
1,
1,
1,
1,
1,
1,
1,
1,
1,
1,
0,
1,
1,
1,
1,
1,
1,
1,
2,
1,
1,
2,
2,
1,
1,
1,
1,
2,
2,
1,
1,
2,
2,
2,
2,
2,
2,
2,
2,
2,
3,
2,
2,
2,
2,
2,
2,
3,
3,
2,
2,
3,
2,
2,
3,
3,
3,
3,
3,
3,
2,
3,
3,
3,
3,
3,
3,
2,
3,
3,
3,
3,
3,
3,
3,
4,
3,
3,
3,
3,
4,
4,
4,
4,
3,
4,
4,
3,
4,
4,
4,
4,
4,
4,
5,
4,
4,
4,
4,
4,
5,
5,
5,
5,
4,
5,
4,
4,
5,
4,
5,
5,
5,
5,
5,
5,
5,
5,
5,
6,
5,
5,
6,
6,
5,
5,
5,
5,
6,
6,
5,
5,
6,
6,
6,
5,
6,
6,
6,
6,
6,
6,
6,
6,
6,
6,
6,
6,
7,
6,
6,
6,
6,
6,
7,
7,
7,
7,
6,
7,
7,
6,
7,
6,
7,
6,
7,
7,
6,
7,
7,
7,
8,
8,
8,
7,
7,
7,
8,
7,
7,
8,
8,
8,
8,
8,
8,
8,
8,
9,
8,
8,
7,
8,
7,
8,
8,
9,
8,
8,
8,
8,
8,
9,
8,
9,
9,
8,
9,
9,
9,
9,
9,
9,
9,
9,
9,
9,
9,
9,
9,
9,
9,
10,
9,
9,
9,
9,
9,
9,
9,
9,
9,
9,
9,
9,
9,
10,
10,
10,
10,
9,
10,
10,
9,
10,
11,
10,
9,
10,
10,
11,
11,
10,
10,
10,
10,
10,
10,
10,
10,
10,
11,
10,
11,
10,
10,
10,
10,
11,
11,
10,
11,
12,
11,
11,
10,
11,
11,
10,
10,
11,
11,
11,
10,
11,
10,
11,
11,
11,
11,
11,
11,
12,
12,
11,
11,
12,
12,
12,
12,
11,
11,
11,
12,
11,
11,
12,
12,
12,
12,
12,
12,
12,
12,
12,
11,
12,
12,
12,
12,
12,
12,
12,
12,
12,
13,
13,
12,
12,
12,
13,
13,
12,
13,
13,
13,
13,
13,
12,
13,
13,
12,
13,
13,
13,
14,
13,
13,
14,
13,
13,
13,
13,
13,
13,
13,
13,
14,
13,
13,
13,
14,
14,
13,
13,
13,
13,
14,
14,
13,
14,
14,
14,
13,
13,
14,
13,
14,
14,
14,
14,
14,
14,
14,
15,
14,
13,
15,
15,
14,
14,
15,
14,
15,
15,
14,
15,
14,
14,
14,
15,
14,
14,
15,
15,
14,
15,
15,
15,
14,
15,
15,
15,
14,
15,
14,
15,
15,
15,
15,
15,
15,
15,
15,
15,
15,
15,
15,
15,
15,
14,
15,
15,
14,
15,
15,
15,
15,
15,
15,
14,
15,
15,
14,
15,
15,
14,
15,
15,
15,
16,
14,
15,
16,
15,
15,
16,
15,
15,
15,
15,
15,
15,
15,
15,
15,
16,
15,
15,
15,
15,
15,
16,
15,
16,
15,
15,
15,
16,
14,
15,
15,
15,
15,
15,
16,
16,
15,
15,
15,
16,
16,
15,
16,
16,
17,
15,
16,
15,
16,
16,
16,
16,
15,
16,
15,
15,
16,
15,
16,
16,
15,
15,
16,
16,
17,
16,
16,
16,
16,
16,
16,
16,
16,
16,
16,
16,
16,
16,
17,
16,
16,
16,
16,
15,
17,
16,
15,
17,
16,
15,
15,
16,
16,
16,
16,
16,
15,
16,
16,
16,
15,
15,
16,
16,
16,
16,
17,
16,
16,
16,
16,
17,
16,
16,
16,
16,
16,
16,
16,
16,
16,
16,
17,
16,
16,
16,
16,
16,
17,
16,
16,
16,
17,
16,
17,
16,
16,
16,
16,
16,
16,
17,
17,
16,
16,
16,
16,
16,
16,
16,
16,
15,
17,
16,
16,
16,
15,
17,
16,
16,
17,
16,
16,
16,
16,
16,
16,
15,
16,
16,
16,
16,
15,
16,
16,
16,
16,
16,
16,
15,
16,
16,
15,
16,
16,
16,
16,
16,
16,
16,
16,
16,
16,
16,
16,
15,
16,
16,
16,
15,
16,
15,
16,
15,
16,
16,
15,
15,
16,
15,
15,
15,
16,
16,
14,
15,
14,
15,
16,
15,
15,
15,
16,
15,
15,
15,
15,
15,
14,
15,
15,
15,
16,
15,
15,
15,
14,
15,
15,
15,
15,
15,
16,
15,
15,
14,
14,
15,
15,
14,
15,
15,
15,
14,
15,
14,
15,
15,
15,
15,
15,
15,
14,
15,
15,
15,
15,
15,
15,
15,
15,
15,
14,
15,
15,
14,
14,
14,
15,
14,
15,
15,
15,
15,
15,
14,
15,
15,
14,
15,
14,
14,
14,
15,
14,
15,
14,
14,
14,
15,
14,
14,
14,
15,
14,
14,
14,
14,
14,
14,
13,
15,
13,
14,
13,
13,
13,
13,
13,
15,
14,
14,
14,
13,
14,
13,
14,
13,
13,
13,
13,
13,
14,
13,
13,
13,
13,
13,
13,
13,
13,
13,
13,
13,
13,
13,
13,
13,
13,
13,
13,
13,
13,
12,
13,
13,
13,
13,
13,
12,
12,
13,
12,
13,
12,
13,
13,
12,
12,
13,
13,
12,
12,
12,
13,
12,
12,
12,
13,
12,
12,
11,
12,
12,
12,
12,
12,
12,
11,
11,
11,
11,
11,
12,
11,
11,
11,
11,
11,
11,
11,
11,
11,
11,
11,
11,
11,
11,
10,
11,
11,
11,
11,
10,
11,
11,
11,
10,
10,
11,
11,
10,
11,
10,
11,
11,
10,
10,
11,
10,
10,
11,
10,
10,
10,
11,
10,
10,
10,
11,
11,
10,
10,
11,
9,
10,
10,
9,
10,
10,
9,
9,
10,
9,
9,
9,
10,
9,
9,
10,
10,
9,
10,
9,
9,
9,
9,
9,
9,
9,
9,
9,
9,
9,
9,
9,
9,
9,
9,
9,
9,
9,
9,
9,
9,
9,
9,
9,
9,
8,
9,
7,
9,
9,
9,
8,
7,
9,
8,
9,
8,
7,
8,
8,
8,
8,
8,
8,
8,
8,
7,
8,
7,
9,
7,
8,
6,
7,
6,
7,
7,
8,
7,
7,
7,
7,
7,
7,
6,
7,
7,
6,
7,
7,
6,
6,
6,
7,
7,
7,
6,
7,
6,
6,
6,
6,
6,
6,
6,
6,
6,
5,
6,
6,
5,
6,
6,
5,
5,
5,
5,
6,
6,
6,
5,
5,
5,
6,
5,
5,
5,
5,
5,
5,
5,
5,
5,
5,
5,
5,
4,
5,
5,
4,
5,
4,
4,
4,
4,
4,
5,
4,
4,
4,
4,
5,
5,
4,
4,
4,
4,
4,
3,
4,
3,
4,
4,
3,
4,
4,
3,
4,
3,
4,
3,
3,
3,
4,
3,
3,
2,
3,
3,
3,
3,
3,
2,
3,
3,
3,
2,
3,
2,
3,
3,
3,
2,
2,
2,
2,
2,
2,
2,
3,
3,
2,
2,
2,
2,
2,
2,
2,
3,
2,
2,
2,
2,
2,
2,
2,
2,
1,
2,
1,
2,
2,
1,
2,
2,
2,
1,
2,
1,
2,
1,
2,
1,
1,
1,
1,
2,
1,
1,
1,
1,
1,
1,
1,
1,
1,
1,
0,
0,
1,
0,
1,
1,
0,
0,
1,
1,
1,
0,
0,
1,
0,
0,
0,
0,
0,
1,
0,
0,
-1,
0,
0,
-1,
-1,
-1,
-1,
-1,
-1,
-1,
-1,
-1,
0,
0,
-1,
-1,
-1,
0,
-1,
-1,
-1,
-1,
-1,
-1,
-2,
-1,
-1,
-1,
-2,
-2,
-1,
-1,
-2,
-1,
-1,
-2,
-1,
-1,
-2,
-1,
-1,
-2,
-2,
-1,
-1,
-2,
-2,
-1,
-2,
-1,
-1,
-3,
-2,
-1,
-2,
-2,
-2,
-2,
-3,
-2,
-3,
-3,
-3,
-2,
-2,
-3,
-3,
-3,
-3,
-2,
-3,
-3,
-3,
-3,
-3,
-3,
-3,
-3,
-3,
-3,
-3,
-3,
-3,
-3,
-3,
-3,
-3,
-3,
-3,
-4,
-3,
-3,
-4,
-3,
-3,
-4,
-3,
-4,
-3,
-3,
-3,
-3,
-4,
-4,
-4,
-4,
-4,
-4,
-4,
-4,
-4,
-4,
-4,
-4,
-5,
-5,
-4,
-6,
-6,
-4,
-4,
-4,
-4,
-6,
-5,
-4,
-5,
-5,
-6,
-6,
-4,
-5,
-5,
-5,
-5,
-5,
-5,
-6,
-6,
-6,
-5,
-5,
-6,
-5,
-6,
-5,
-6,
-6,
-5,
-5,
-5,
-5,
-6,
-5,
-6,
-6,
-6,
-6,
-6,
-6,
-6,
-6,
-5,
-6,
-5,
-6,
-6,
-6,
-6,
-6,
-6,
-6,
-6,
-6,
-6,
-7,
-7,
-6,
-7,
-7,
-6,
-6,
-6,
-7,
-7,
-6,
-6,
-7,
-7,
-6,
-6,
-6,
-7,
-7,
-7,
-7,
-6,
-6,
-7,
-7,
-7,
-7,
-7,
-7,
-6,
-7,
-7,
-7,
-7,
-7,
-7,
-7,
-7,
-7,
-7,
-7,
-7,
-7,
-7,
-7,
-7,
-7,
-7,
-7,
-7,
-6,
-7,
-7,
-7,
-7,
-8,
-8,
-7,
-7,
-8,
-7,
-7,
-7,
-7,
-7,
-8,
-7,
-8,
-8,
-8,
-8,
-8,
-8,
-8,
-7,
-8,
-8,
-8,
-8,
-8,
-8,
-7,
-7,
-8,
-8,
-8,
-8,
-8,
-8,
-8,
-8,
-8,
-8,
-8,
-8,
-8,
-8,
-8,
-9,
-8,
-8,
-9,
-9,
-8,
-9,
-8,
-8,
-8,
-9,
-9,
-8,
-8,
-8,
-9,
-9,
-8,
-9,
-8,
-9,
-8,
-8,
-9,
-8,
-9,
-8,
-8,
-9,
-8,
-9,
-9,
-9,
-8,
-9,
-9,
-9,
-9,
-9,
-9,
-9,
-9,
-8,
-9,
-9,
-9,
-9,
-9,
-9,
-9,
-9,
-9,
-9,
-9,
-8,
-9,
-8,
-9,
-9,
-9,
-9,
-9,
-9,
-9,
-9,
-9,
-9,
-10,
-9,
-9,
-9,
-9,
-9,
-10,
-9,
-9,
-9,
-9,
-9,
-9,
-9,
-9,
-10,
-10,
-9,
-9,
-10,
-10,
-9,
-9,
-9,
-9,
-9,
-9,
-9,
-9,
-10,
-10,
-9,
-9,
-9,
-9,
-9,
-9,
-10,
-9,
-9,
-10,
-10,
-9,
-9,
-9,
-9,
-9,
-10,
-9,
-9,
-9,
-10,
-10,
-10,
-10,
-10,
-10,
-9,
-10,
-9,
-9,
-9,
-9,
-9,
-9,
-9,
-10,
-9,
-9,
-9,
-9,
-9,
-9,
-9,
-8,
-9,
-9,
-9,
-9,
-9,
-9,
-9,
-9,
-9,
-10,
-9,
-9,
-9,
-10,
-9,
-9,
-10,
-9,
-9,
-9,
-9,
-9,
-9,
-9,
-9,
-9,
-10,
-9,
-9,
-9,
-9,
-9,
-9,
-9,
-9,
-9,
-9,
-9,
-10,
-10,
-9,
-9,
-9,
-10,
-10,
-9,
-9,
-8,
-9,
-9,
-9,
-9,
-9,
-9,
-9,
-9,
-9,
-9,
-10,
-10,
-9,
-9,
-9,
-10,
-9,
-9,
-9,
-9,
-9,
-9,
-9,
-9,
-9,
-10,
-9,
-9,
-9,
-9,
-9,
-9,
-9,
-9,
-9,
-9,
-9,
-9,
-9,
-9,
-9,
-9,
-9,
-9,
-9,
-8,
-8,
-9,
-8,
-8,
-8,
-8,
-9,
-8,
-9,
-9,
-9,
-9,
-8,
-8,
-8,
-9,
-9,
-8,
-9,
-8,
-8,
-8,
-8,
-8,
-8,
-8,
-9,
-9,
-8,
-8,
-7,
-8,
-8,
-8,
-8,
-9,
-8,
-8,
-8,
-8,
-8,
-8,
-8,
-8,
-8,
-8,
-8,
-8,
-8,
-8,
-7,
-8,
-7,
-7,
-8,
-7,
-8,
-7,
-8,
-7,
-8,
-8,
-8,
-7,
-7,
-8,
-7,
-7,
-7,
-8,
-7,
-7,
-8,
-7,
-7,
-7,
-8,
-8,
-7,
-7,
-7,
-7,
-7,
-7,
-7,
-7,
-7,
-7,
-7,
-7,
-8,
-7,
-7,
-7,
-7,
-7,
-7,
-7,
-7,
-7,
-6,
-7,
-7,
-7,
-7,
-7,
-7,
-6,
-7,
-6,
-7,
-7,
-6,
-7,
-6,
-7,
-7,
-6,
-7,
-7,
-6,
-7,
-6,
-7,
-6,
-6,
-5,
-6,
-6,
-6,
-5,
-6,
-6,
-6,
-6,
-6,
-6,
-6,
-6,
-6,
-6,
-5,
-6,
-5,
-5,
-7,
-6,
-6,
-5,
-6,
-6,
-5,
-6,
-6,
-5,
-5,
-6,
-5,
-6,
-6,
-6,
-5,
-5,
-4,
-5,
-6,
-6,
-4,
-5,
-5,
-4,
-5,
-5,
-5,
-5,
-4,
-4,
-5,
-4,
-5,
-5,
-4,
-5,
-4,
-5,
-5,
-4,
-4,
-4,
-4,
-4,
-4,
-4,
-3,
-4,
-4,
-4,
-4,
-4,
-3,
-4,
-4,
-4,
-4,
-4,
-3,
-3,
-4,
-3,
-3,
-3,
-3,
-3,
-3,
-4,
-3,
-3,
-3,
-3,
-3,
-3,
-3,
-3,
-3,
-3,
-3,
-3,
-3,
-3,
-3,
-3,
-3,
-2,
-3,
-2,
-2,
-2,
-2,
-3,
-2,
-2,
-3,
-3,
-3,
-2,
-2,
-2,
-3,
-2,
-2,
-2,
-2,
-2,
-3,
-3,
-2,
-2,
-2,
-2,
-1,
-1,
-1,
-1,
-2,
-1,
-1,
-2,
-1,
-2,
-2,
-1,
-2,
-1,
-1,
-2,
-1,
-1,
-1,
-2,
-1,
-1,
-1,
-1,
-1,
-1,
-1,
-1,
-1,
-1,
-1,
-1,
0,
-1,
-1,
0,
0,
-1,
0,
0,
0,
0,
-1,
0,
0,
0,
0,
0,
0,
0,
1,
0,
1,
0,
0,
0,
1,
1,
0,
0,
0,
1,
1,
1,
1,
1,
1,
1,
1,
1,
1,
1,
1,
1,
1,
1,
1,
1,
1,
1,
1,
2,
1,
1,
1,
1,
1,
1,
2,
1,
2,
1,
2,
2,
2,
2,
1,
3,
2,
2,
2,
2,
2,
2,
3,
3,
2,
2,
2,
3,
2,
3,
2,
2,
2,
2,
3,
3,
3,
2,
2,
3,
2,
2,
2,
3,
3,
3,
3,
4,
3,
3,
3,
3,
3,
3,
3,
3,
3,
3,
4,
3,
4,
4,
3,
3,
4,
3,
4,
4,
4,
5,
3,
4,
4,
4,
4,
4,
4,
4,
5,
4,
5,
4,
5,
4,
4,
5,
5,
5,
5,
5,
4,
4,
5,
4,
5,
5,
5,
5,
5,
5,
5,
5,
5,
5,
5,
5,
5,
5,
5,
5,
5,
5,
5,
6,
6,
5,
6,
6,
6,
6,
6,
5,
6,
5,
7,
6,
6,
6,
6,
6,
6,
6,
6,
7,
7,
7,
7,
7,
6,
7,
7,
6,
7,
7,
7,
7,
7,
7,
8,
7,
7,
7,
7,
6,
7,
7,
7,
7,
8,
7,
8,
7,
8,
7,
7,
8,
9,
8,
8,
8,
8,
7,
9,
8,
8,
9,
8,
9,
7,
8,
9,
9,
8,
9,
8,
8,
9,
8,
9,
9,
9,
8,
8,
9,
9,
9,
9,
8,
9,
9,
9,
9,
9,
9,
9,
9,
9,
9,
9,
9,
9,
9,
10,
9,
9,
9,
9,
10,
9,
10,
10,
9,
10,
10,
10,
10,
10,
10,
10,
10,
10,
10,
10,
10,
10,
10,
11,
11,
9,
10,
10,
10,
10,
10,
10,
10,
10,
11,
10,
11,
11,
10,
10,
10,
11,
10,
10,
10,
11,
10,
11,
10,
10,
11,
