Actividad 1/ALL0000/A0000CH2.CSV

Memory Length,4000,
Trigger Level,1.600E-01,
Source,CH2,
Probe,1X,
Vertical Units,V,
Vertical Scale,2.000E-01,
Vertical Position,-8.000E-03,
Horizontal Units,s,
Horizontal Scale,5.000E-02,
Horizontal Position,0.000E+00,
Horizontal Mode,Main,
Sampling Period,2.000E-04,
Firmware,V1.11,
Time, ,
Mode,Fast,
Waveform Data,
-5,
-5,
-5,
-5,
-5,
-5,
-5,
-5,
-6,
-5,
-6,
-5,
-5,
-5,
-6,
-5,
-5,
-5,
-5,
-5,
-5,
-5,
-4,
-3,
-6,
-5,
-5,
-5,
-4,
-6,
-6,
-5,
-6,
-7,
-4,
-6,
-5,
-5,
-5,
-5,
-4,
-4,
-5,
-6,
-5,
-6,
-5,
-6,
-5,
-4,
-6,
-5,
-5,
-5,
-5,
-5,
-6,
-5,
-5,
-4,
-6,
-5,
-5,
-5,
-6,
-5,
-5,
-4,
-5,
-4,
-6,
-5,
-6,
-5,
-5,
-6,
-5,
-6,
-5,
-5,
-5,
-4,
-5,
-3,
-5,
-5,
-5,
-4,
-7,
-8,
-7,
-3,
-6,
-5,
-5,
-6,
-4,
-6,
-5,
-5,
-5,
-5,
-6,
-5,
-5,
-5,
-5,
-5,
-6,
-6,
-6,
-6,
-5,
-6,
-5,
-5,
-5,
-5,
-6,
-5,
-6,
-5,
-6,
-6,
-5,
-5,
-6,
-7,
-4,
-5,
-5,
-5,
-5,
-5,
-7,
-6,
-5,
-5,
-4,
-5,
-4,
-5,
-5,
-6,
-5,
-5,
-6,
-5,
-5,
-5,
-6,
-6,
-4,
-5,
-5,
-5,
-5,
-5,
-6,
-5,
-5,
-6,
-5,
-5,
-6,
-5,
-5,
-5,
-5,
-5,
-6,
-6,
-5,
-6,
-5,
-7,
-5,
-5,
-6,
-5,
-5,
-4,
-5,
-5,
-9,
-7,
-5,
-5,
-6,
-7,
-6,
-5,
-6,
-5,
-6,
-5,
-5,
-5,
-6,
-6,
-6,
-6,
-6,
-5,
-5,
-6,
-5,
-5,
-5,
-6,
-5,
-6,
-6,
-5,
-7,
-5,
-5,
-5,
-6,
-5,
-6,
-5,
-5,
-5,
-7,
-5,
-6,
-5,
-6,
-6,
-5,
-5,
-5,
-5,
-5,
-5,
-3,
-5,
-5,
-4,
-6,
-5,
-5,
-4,
-6,
-6,
-4,
-5,
-5,
-5,
-5,
-5,
-5,
-5,
-5,
-5,
-5,
-5,
-5,
-5,
-5,
-6,
-5,
-5,
-5,
-6,
-6,
-6,
-5,
-6,
-6,
-5,
-7,
-4,
-5,
-5,
-5,
-5,
-5,
-6,
-6,
-5,
-8,
-4,
-6,
-5,
-6,
-6,
-6,
-5,
-6,
-5,
-5,
-5,
-5,
-6,
-6,
-6,
-6,
-6,
-5,
-6,
-5,
-6,
-6,
-6,
-6,
-5,
-5,
-6,
-6,
-5,
-6,
-5,
-5,
-5,
-6,
-5,
-6,
-5,
-5,
-7,
-6,
-6,
-5,
-5,
-6,
-5,
-6,
-5,
-4,
-5,
-5,
-5,
-5,
-6,
-5,
-5,
-7,
-4,
-5,
-5,
-5,
-5,
-5,
-5,
-6,
-5,
-6,
-4,
-5,
-7,
-5,
-5,
-6,
-5,
-5,
-6,
-6,
-5,
-6,
-5,
-6,
-5,
-5,
-6,
-5,
-5,
-5,
-5,
-5,
-4,
-5,
-3,
-7,
-5,
-5,
-5,
-5,
-5,
-5,
-5,
-5,
-5,
-4,
-6,
-5,
-4,
-7,
-3,
-5,
-6,
-6,
-4,
-5,
-7,
-6,
-5,
-5,
-6,
-5,
-5,
-6,
-6,
-5,
-5,
-5,
-5,
-5,
-6,
-5,
-6,
-5,
-6,
-7,
-5,
-5,
-5,
-5,
-5,
-6,
-6,
-6,
-5,
-4,
-4,
-5,
-5,
-6,
-6,
-6,
-5,
-5,
-4,
-6,
-5,
-5,
-5,
-4,
-6,
-5,
-6,
-5,
-6,
-6,
-5,
-6,
-5,
-5,
-5,
-6,
-5,
-5,
-5,
-5,
-6,
-5,
-6,
-5,
-6,
-6,
-5,
-5,
-5,
-5,
-5,
-5,
-5,
-5,
-6,
-5,
-5,
-6,
-5,
-5,
-5,
-5,
-5,
-5,
-5,
-5,
-5,
-6,
-5,
-4,
-5,
-6,
-5,
-3,
-6,
-5,
-5,
-4,
-5,
-5,
-5,
-6,
-6,
-5,
-5,
-5,
-6,
-5,
-4,
-6,
-5,
-6,
-4,
-5,
-5,
-6,
-5,
-5,
-6,
-6,
-6,
-4,
-5,
-5,
-5,
-4,
-4,
-5,
-6,
-6,
-6,
-4,
-6,
-5,
-6,
-5,
-7,
-4,
-5,
-6,
-5,
-5,
-5,
-5,
-6,
-5,
-6,
-5,
-5,
-5,
-5,
-6,
-5,
-5,
-5,
-6,
-6,
-4,
-5,
-6,
-5,
-6,
-5,
-5,
-5,
-5,
-5,
-5,
-5,
-5,
-4,
-5,
-6,
-6,
-5,
-5,
-5,
-6,
-5,
-5,
-5,
-6,
-6,
-6,
-5,
-5,
-7,
-6,
-6,
-6,
-5,
-3,
-5,
-5,
-5,
-5,
-4,
-5,
-5,
-7,
-6,
-6,
-5,
-6,
-5,
-6,
-6,
-5,
-5,
-6,
-6,
-5,
-6,
-5,
-6,
-5,
-5,
-6,
-5,
-6,
-6,
-5,
-5,
-5,
-6,
-5,
-5,
-5,
-5,
-6,
-5,
-4,
-5,
-6,
-4,
-6,
-6,
-6,
-7,
-4,
-5,
-6,
-5,
-6,
-6,
-6,
-4,
-4,
-4,
-5,
-5,
-7,
-6,
-5,
-5,
-5,
-5,
-5,
-5,
-5,
-6,
-6,
-5,
-5,
-5,
-6,
-5,
-5,
-5,
-5,
-5,
-6,
-4,
-6,
-5,
-6,
-5,
-5,
-6,
-5,
-5,
-5,
-5,
-6,
-4,
-6,
-7,
-5,
-6,
-5,
-5,
-5,
-5,
-5,
-6,
-5,
-4,
-5,
-3,
-5,
-7,
-4,
-5,
-6,
-6,
-6,
-5,
-6,
-5,
-6,
-5,
-5,
-5,
-6,
-6,
-6,
-5,
-5,
-6,
-5,
-5,
-5,
-5,
-5,
-5,
-6,
-5,
-4,
-4,
-5,
-7,
-6,
-6,
-6,
-5,
-5,
-6,
-5,
-5,
-6,
-6,
-6,
-6,
-5,
-5,
-6,
-5,
-6,
-7,
-5,
-5,
-5,
-5,
-6,
-6,
-6,
-4,
-5,
-6,
-6,
-5,
-6,
-5,
-6,
-5,
-6,
-6,
-5,
-5,
-5,
-6,
-6,
-5,
-5,
-5,
-6,
-5,
-4,
-5,
-5,
-6,
-3,
-5,
-6,
-3,
-4,
-5,
-6,
-6,
-5,
-5,
-5,
-6,
-6,
-6,
-5,
-5,
-5,
-7,
-5,
-5,
-5,
-4,
-5,
-6,
-6,
-6,
-5,
-6,
-5,
-5,
-6,
-5,
-5,
-5,
-5,
-6,
-6,
-5,
-5,
-4,
-5,
-6,
-5,
-6,
-5,
-4,
-5,
-5,
-6,
-5,
-5,
-7,
-5,
-5,
-4,
-5,
-5,
-5,
-5,
-5,
-5,
-5,
-6,
-3,
-5,
-4,
-5,
-4,
-6,
-5,
-5,
-5,
-6,
-5,
-6,
-5,
-5,
-5,
-5,
-5,
-5,
-5,
-6,
-5,
-6,
-5,
-5,
-4,
-5,
-6,
-5,
-4,
-5,
-5,
-5,
-7,
-6,
-5,
-5,
-5,
-4,
-5,
-5,
-5,
-6,
-6,
-5,
-6,
-3,
-5,
-5,
-5,
-6,
-6,
-5,
-4,
-5,
-7,
-3,
-5,
-5,
-4,
-5,
-6,
-6,
-5,
-5,
-6,
-6,
-6,
-6,
-5,
-6,
-5,
-6,
-5,
-5,
-5,
-5,
-6,
-5,
-6,
-6,
-5,
-6,
-3,
-6,
-5,
-5,
-5,
-5,
-5,
-6,
-5,
-6,
-6,
-5,
-5,
-5,
-5,
-5,
-6,
-4,
-6,
-5,
-6,
-5,
-5,
-4,
-6,
-5,
-5,
-5,
-6,
-6,
-6,
-5,
-6,
-6,
-5,
-5,
-6,
-5,
-6,
-6,
-6,
-5,
-5,
-5,
-5,
-6,
-6,
-6,
-5,
-6,
-6,
-5,
-5,
-5,
-5,
-5,
-5,
-5,
-5,
-4,
-4,
-7,
-5,
-4,
-5,
-5,
-5,
-5,
-5,
-6,
-5,
-5,
-5,
-6,
-6,
-6,
-5,
-5,
-6,
-6,
-4,
-6,
-5,
-5,
-5,
-6,
-5,
-6,
-5,
-6,
-5,
-6,
-6,
-5,
-6,
-5,
-5,
-4,
-5,
-4,
-5,
-6,
-6,
-6,
-5,
-7,
-5,
-7,
-6,
-6,
-6,
-5,
-7,
-5,
-4,
-6,
-4,
-6,
-5,
-5,
-4,
-6,
-4,
-6,
-5,
-5,
-5,
-6,
-5,
-5,
-6,
-6,
-5,
-6,
-5,
-6,
-6,
-5,
-6,
-5,
-6,
-6,
-5,
-6,
-5,
-5,
-5,
-6,
-5,
-6,
-4,
-5,
-5,
-5,
-4,
-4,
-6,
-5,
-5,
-5,
-5,
-5,
-5,
-6,
-6,
-5,
-5,
-5,
-5,
-5,
-5,
-5,
-6,
-7,
-6,
-6,
-4,
-5,
-6,
-6,
-5,
-5,
-6,
-5,
-6,
-5,
-5,
-5,
-6,
-6,
-5,
-5,
-4,
-5,
-6,
-5,
-6,
-6,
-5,
-5,
-6,
-5,
-5,
-5,
-5,
-5,
-6,
-5,
-5,
-6,
-6,
-5,
-6,
-5,
-5,
-6,
-4,
-7,
-5,
-4,
-3,
-5,
-6,
-5,
-6,
-4,
-4,
-6,
-6,
-5,
-5,
-5,
-5,
-5,
-5,
-5,
-6,
-5,
-5,
-5,
-5,
-5,
-6,
-5,
-4,
-6,
-6,
-5,
-5,
-5,
-6,
-4,
-6,
-4,
-6,
-5,
-5,
-6,
-5,
-5,
-6,
-6,
-7,
-4,
-3,
-5,
-7,
-5,
-5,
-6,
-6,
-4,
-5,
-5,
-6,
-5,
-5,
-5,
-5,
-5,
-5,
-5,
-6,
-5,
-5,
-6,
-5,
-5,
-5,
-6,
-4,
-4,
-5,
-5,
-5,
-4,
-7,
-7,
-5,
-5,
-4,
-6,
-3,
-6,
-6,
-5,
-6,
-4,
-5,
-5,
-7,
-6,
-5,
-6,
-6,
-7,
-5,
-6,
-6,
-5,
-5,
-4,
-5,
-6,
-5,
-5,
-5,
-5,
-6,
-5,
-4,
-5,
-5,
-6,
-5,
-6,
-5,
-5,
-6,
-5,
-6,
-4,
-5,
-5,
-6,
-5,
-6,
-5,
-6,
-6,
-6,
-6,
-5,
-6,
-3,
-6,
-5,
-6,
-6,
-4,
-5,
-5,
-6,
-5,
-4,
-6,
-5,
-7,
-7,
-6,
-6,
-5,
-5,
-4,
-6,
-6,
-5,
-6,
-6,
-5,
-6,
-5,
-5,
-5,
-5,
-5,
-5,
-5,
-5,
-5,
-6,
-5,
-6,
-6,
-7,
-6,
-6,
-5,
-6,
-6,
-6,
-4,
-6,
-4,
-5,
-6,
-6,
-5,
-6,
-5,
-5,
-5,
-7,
-5,
-6,
-5,
-6,
-6,
-5,
-6,
-5,
-5,
-6,
-6,
-6,
-5,
-6,
-5,
-5,
-6,
-6,
-5,
-5,
-5,
-5,
-5,
-5,
-5,
-6,
-5,
-5,
-6,
-5,
-6,
-5,
-5,
-5,
-6,
-6,
-6,
-7,
-5,
-7,
-7,
-6,
-6,
-6,
-5,
-6,
-4,
-5,
-3,
-7,
-7,
-5,
-4,
-5,
-5,
-5,
-5,
-5,
-5,
-5,
-6,
-5,
-6,
-5,
-6,
-6,
-6,
-6,
-6,
-5,
-6,
-5,
-5,
-6,
-5,
-5,
-6,
-5,
-5,
-5,
-5,
-6,
-5,
-5,
-5,
-6,
-6,
-6,
-3,
-5,
-6,
-5,
-6,
-6,
-5,
-6,
-6,
-4,
-6,
-5,
-5,
-5,
-6,
-6,
-5,
-5,
-5,
-5,
-5,
-5,
-5,
-6,
-7,
-6,
-4,
-5,
-5,
-6,
-5,
-5,
-5,
-6,
-5,
-5,
-6,
-5,
-5,
-5,
-5,
-6,
-6,
-6,
-4,
-6,
-5,
-6,
-5,
-6,
-7,
-5,
-5,
-6,
-4,
-4,
-5,
-5,
-6,
-5,
-5,
-6,
-4,
-5,
-5,
-6,
-7,
-5,
-5,
-4,
-5,
-5,
-5,
-6,
-6,
-5,
-6,
-5,
-6,
-6,
-5,
-5,
-6,
-6,
-6,
-5,
-5,
-6,
-6,
-5,
-5,
-5,
-5,
-6,
-6,
-6,
-4,
-6,
-5,
-6,
-5,
-5,
-5,
-5,
-6,
-6,
-5,
-5,
-5,
-4,
-6,
-4,
-6,
-6,
-5,
-5,
-5,
-5,
-6,
-6,
-6,
-6,
-5,
-6,
-4,
-6,
-6,
-6,
-6,
-5,
-5,
-6,
-5,
-6,
-6,
-6,
-5,
-5,
-5,
-5,
-6,
-6,
-4,
-5,
-6,
-5,
-6,
-5,
-5,
-6,
-5,
-5,
-5,
-4,
-5,
-5,
-5,
-6,
-5,
-5,
-5,
-5,
-5,
-4,
-6,
-5,
-3,
-6,
-5,
-6,
-6,
-5,
-5,
-7,
-6,
-5,
-6,
-6,
-5,
-7,
-5,
-6,
-5,
-6,
-5,
-5,
-5,
-5,
-5,
-6,
-6,
-5,
-4,
-6,
-6,
-5,
-6,
-5,
-5,
-6,
-6,
-5,
-6,
-5,
-5,
-6,
-7,
-6,
-5,
-5,
-7,
-6,
-6,
-6,
-5,
-5,
-5,
-6,
-5,
-5,
-6,
-6,
-5,
-5,
-6,
-5,
-6,
-6,
-6,
-5,
-4,
-5,
-6,
-5,
-5,
-5,
-6,
-6,
-6,
-5,
-5,
-5,
-6,
-6,
-5,
-5,
-5,
-5,
-4,
-6,
-6,
-7,
-5,
-6,
-5,
-4,
-6,
-4,
-6,
-5,
-5,
-6,
-5,
-6,
-5,
-5,
-5,
-6,
-6,
-4,
-5,
-4,
-5,
-5,
-6,
-6,
-8,
-6,
-5,
-5,
-5,
-5,
-5,
-6,
-5,
-5,
-6,
-5,
-6,
-5,
-5,
-6,
-6,
-5,
-5,
-6,
-5,
-5,
-5,
-7,
-6,
-5,
-5,
-4,
-7,
-5,
-6,
-5,
-6,
-6,
-5,
-6,
-6,
-4,
-5,
-5,
-4,
-5,
-4,
-5,
-5,
-4,
-5,
-5,
-6,
-4,
-5,
-5,
-5,
-5,
-5,
-6,
-6,
-5,
-6,
-5,
-7,
-5,
-6,
-5,
-5,
-6,
-5,
-5,
-6,
-6,
-5,
-5,
-6,
-5,
-6,
-5,
-6,
-4,
-6,
-5,
-4,
-6,
-6,
-7,
-4,
-5,
-5,
-7,
-5,
-5,
-4,
-6,
-5,
-6,
-5,
-6,
-5,
-5,
-5,
-5,
-5,
-5,
-5,
-5,
-6,
-5,
-5,
-5,
-5,
-5,
-5,
-5,
-6,
-6,
-6,
-5,
-5,
-6,
-5,
-6,
-6,
-6,
-4,
-5,
-6,
-5,
-5,
-7,
-6,
-6,
-6,
-3,
-5,
-5,
-7,
-5,
-5,
-5,
-5,
-4,
-7,
-5,
-4,
-6,
-6,
-6,
-7,
-5,
-3,
-4,
-6,
-6,
-5,
-5,
-6,
-5,
-5,
-6,
-5,
-5,
-5,
-6,
-5,
-6,
-6,
-5,
-6,
-6,
-5,
-5,
-6,
-6,
-5,
-6,
-6,
-5,
-5,
-5,
-4,
-5,
-6,
-5,
-6,
-5,
-6,
-5,
-6,
-6,
-6,
-6,
-6,
-6,
-6,
-6,
-4,
-6,
-5,
-5,
-6,
-6,
-5,
-6,
-4,
-5,
-6,
-5,
-5,
-5,
-6,
-5,
-5,
-5,
-5,
-5,
-5,
-6,
-5,
-6,
-6,
-6,
-6,
-4,
-5,
-4,
-6,
-5,
-5,
-4,
-5,
-5,
-6,
-5,
-6,
-6,
-3,
-5,
-5,
-5,
-6,
-5,
-6,
-5,
-5,
-7,
-5,
-5,
-6,
-7,
-4,
-5,
-3,
-6,
-4,
-5,
-5,
-5,
-6,
-6,
-6,
-5,
-5,
-5,
-5,
-5,
-4,
-6,
-5,
-5,
-6,
-5,
-6,
-4,
-6,
-6,
-5,
-5,
-5,
-7,
-5,
-5,
-6,
-5,
-5,
-7,
-6,
-6,
-6,
-5,
-5,
-5,
-3,
-5,
-5,
-5,
-3,
-2,
2,
6,
9,
12,
17,
18,
23,
26,
29,
33,
35,
38,
42,
45,
48,
52,
54,
57,
61,
64,
66,
70,
72,
75,
78,
81,
85,
87,
89,
93,
96,
97,
101,
104,
107,
109,
112,
115,
117,
120,
123,
125,
128,
128,
128,
128,
128,
128,
128,
128,
128,
128,
128,
128,
128,
128,
128,
128,
128,
128,
128,
128,
128,
128,
128,
128,
128,
127,
126,
126,
125,
125,
124,
124,
122,
121,
121,
121,
119,
119,
120,
117,
117,
117,
116,
114,
114,
113,
113,
113,
110,
110,
112,
111,
109,
109,
108,
106,
106,
106,
104,
105,
104,
105,
102,
103,
101,
101,
100,
100,
99,
99,
98,
97,
97,
97,
96,
96,
95,
95,
94,
93,
93,
92,
91,
90,
91,
90,
90,
89,
88,
88,
87,
89,
87,
86,
85,
85,
84,
85,
83,
82,
82,
82,
81,
81,
80,
79,
79,
79,
79,
79,
78,
77,
77,
76,
76,
75,
76,
75,
74,
74,
73,
73,
72,
71,
71,
71,
70,
70,
69,
69,
69,
69,
68,
68,
67,
67,
66,
66,
66,
65,
65,
65,
65,
64,
64,
63,
62,
63,
62,
62,
61,
61,
61,
59,
60,
59,
59,
59,
58,
58,
57,
57,
57,
56,
56,
56,
55,
55,
55,
55,
54,
54,
54,
53,
53,
53,
52,
52,
51,
52,
51,
50,
50,
50,
50,
49,
49,
48,
49,
48,
49,
48,
47,
48,
47,
47,
47,
46,
46,
45,
44,
45,
45,
44,
44,
45,
44,
44,
43,
42,
43,
42,
43,
42,
42,
41,
41,
41,
41,
41,
40,
40,
40,
39,
40,
39,
38,
38,
37,
38,
37,
36,
37,
37,
37,
36,
37,
36,
35,
37,
35,
33,
34,
35,
34,
34,
34,
34,
34,
33,
34,
34,
32,
32,
32,
32,
32,
32,
32,
31,
31,
31,
31,
30,
30,
31,
29,
30,
29,
29,
29,
29,
29,
28,
28,
28,
29,
28,
29,
27,
28,
27,
27,
27,
25,
27,
26,
26,
26,
25,
25,
25,
28,
26,
25,
25,
24,
24,
24,
22,
24,
24,
24,
23,
22,
23,
23,
22,
23,
23,
22,
21,
22,
21,
22,
22,
22,
21,
21,
21,
21,
21,
21,
20,
21,
21,
20,
20,
20,
19,
19,
19,
18,
19,
18,
18,
21,
18,
18,
19,
18,
19,
18,
18,
18,
17,
17,
17,
17,
17,
17,
17,
17,
16,
17,
17,
16,
16,
16,
15,
15,
16,
15,
15,
15,
15,
15,
15,
14,
15,
15,
14,
15,
14,
13,
13,
14,
14,
14,
14,
14,
14,
13,
13,
12,
13,
13,
13,
13,
13,
13,
13,
13,
13,
12,
12,
11,
12,
11,
11,
11,
12,
11,
11,
10,
12,
11,
12,
11,
10,
11,
11,
12,
10,
10,
10,
11,
10,
10,
10,
9,
10,
10,
10,
9,
10,
9,
9,
9,
9,
9,
9,
9,
9,
9,
9,
9,
8,
8,
8,
7,
9,
9,
8,
8,
8,
8,
6,
7,
7,
8,
8,
7,
7,
6,
8,
7,
5,
7,
7,
7,
6,
6,
7,
7,
6,
6,
6,
7,
6,
6,
6,
6,
6,
6,
6,
6,
5,
5,
5,
5,
5,
5,
5,
5,
5,
6,
6,
5,
4,
7,
5,
4,
5,
5,
5,
5,
5,
5,
4,
5,
5,
5,
4,
4,
4,
6,
4,
4,
4,
3,
3,
3,
3,
4,
3,
3,
3,
4,
3,
4,
3,
3,
4,
3,
3,
3,
3,
3,
4,
3,
3,
2,
3,
3,
3,
2,
4,
2,
2,
2,
2,
1,
2,
4,
2,
2,
0,
4,
2,
1,
2,
2,
2,
1,
2,
2,
2,
1,
1,
2,
1,
2,
1,
2,
1,
1,
1,
1,
1,
1,
1,
1,
1,
1,
1,
1,
1,
1,
1,
1,
1,
1,
1,
1,
1,
1,
0,
1,
1,
1,
0,
1,
1,
0,
1,
1,
1,
1,
2,
1,
0,
1,
0,
0,
1,
0,
0,
0,
0,
0,
0,
0,
0,
0,
0,
0,
0,
0,
0,
0,
0,
0,
0,
0,
0,
0,
0,
0,
0,
1,
0,
1,
-1,
-1,
0,
0,
-1,
0,
-1,
0,
0,
-1,
0,
-1,
0,
0,
-1,
-1,
-1,
-1,
-2,
0,
0,
-1,
-1,
-1,
-1,
-1,
-1,
-1,
-1,
-1,
-1,
-1,
0,
-1,
-1,
-1,
-1,
-1,
-1,
-2,
-1,
-1,
-2,
-2,
-1,
-1,
-1,
0,
-2,
-1,
-1,
-1,
-2,
-1,
-2,
-2,
-2,
-2,
-2,
-1,
-1,
0,
-2,
-2,
-2,
-2,
-1,
-4,
-3,
-2,
-2,
0,
0,
-2,
-2,
-2,
-2,
0,
-3,
-3,
-2,
-2,
-1,
-1,
-2,
-2,
-2,
-2,
-2,
-2,
-2,
-2,
-2,
-2,
-2,
-1,
-2,
-1,
-3,
-2,
-2,
-2,
-2,
-3,
-1,
-2,
-4,
-2,
-3,
-2,
-2,
-3,
-3,
-2,
-3,
-3,
-2,
-3,
-3,
-2,
-3,
-3,
-3,
-3,
-3,
-3,
-2,
-3,
-2,
-3,
-3,
-3,
-3,
-3,
-3,
-3,
-3,
-3,
-3,
-3,
-3,
-2,
-3,
-3,
-3,
-3,
-2,
-3,
-3,
-4,
-3,
-3,
-3,
-3,
-3,
-3,
-3,
-3,
-4,
-2,
-3,
-1,
-2,
-4,
-2,
-3,
-3,
-3,
-3,
-3,
-3,
-3,
-3,
-3,
-3,
-3,
-3,
-5,
-4,
-3,
-3,
-3,
-3,
-3,
-3,
-3,
-3,
-3,
-3,
-3,
-3,
-4,
-3,
-3,
-3,
-3,
-5,
-4,
-4,
-3,
-4,
-3,
-2,
-3,
-4,
-4,
-3,
-3,
-4,
-3,
-4,
-3,
-4,
-2,
-1,
-3,
-4,
-3,
-3,
-3,
-5,
-6,
-4,
-3,
-3,
-4,
-4,
-3,
-4,
-3,
-3,
-4,
-4,
-4,
-4,
-4,
-4,
-4,
-4,
-3,
-4,
-3,
-3,
-3,
-3,
-4,
-3,
-4,
-4,
-3,
-4,
-4,
-3,
-2,
-2,
-4,
-4,
-4,
-3,
-4,
-6,
-4,
-4,
-4,
-4,
-4,
-4,
-6,
-4,
-4,
-4,
-4,
-3,
-4,
-5,
-5,
-3,
-3,
-4,
-5,
-4,
-4,
-4,
-4,
-4,
-4,
-4,
-4,
-4,
-4,
-5,
-4,
-4,
-4,
-4,
-4,
-4,
-3,
-5,
-4,
-4,
-4,
-4,
-6,
-3,
-4,
-4,
-5,
-4,
-4,
-5,
-4,
-4,
-6,
-4,
-3,
-4,
-5,
-4,
-4,
-4,
-5,
-4,
-4,
-4,
-4,
-4,
-4,
-4,
-4,
-5,
-3,
-4,
-4,
-5,
-5,
-4,
-4,
-5,
-5,
-4,
-4,
-5,
-4,
-4,
-4,
-4,
-4,
-5,
-4,
-3,
-3,
-4,
-3,
-6,
-5,
-4,
-4,
-4,
-4,
-3,
-5,
-6,
-5,
-5,
-5,
-4,
-6,
-5,
-3,
-4,
-4,
-3,
-5,
-5,
-5,
-4,
-4,
-4,
-5,
-5,
-5,
-5,
-5,
-5,
-5,
-5,
-5,
-5,
-4,
-5,
-4,
-4,
-6,
-4,
-4,
-4,
-4,
-4,
-5,
-5,
-5,
-5,
-4,
-6,
-6,
-7,
-4,
-5,
-4,
-3,
-4,
-4,
-7,
-5,
-5,
-4,
-5,
-6,
-5,
-5,
-5,
-5,
-3,
-5,
-4,
-5,
-3,
-6,
-4,
-5,
-4,
-4,
-5,
-5,
-5,
-4,
-5,
-5,
-4,
-5,
-5,
-4,
-5,
-4,
-4,
-5,
-5,
-5,
-4,
-5,
-4,
-4,
-5,
-6,
-6,
-5,
-4,
-5,
-5,
-7,
-6,
-3,
-6,
-6,
-5,
-7,
-6,
-5,
-5,
-4,
-6,
-5,
-6,
-6,
-6,
-5,
-5,
-5,
-6,
-5,
-5,
-4,
-4,
-5,
-5,
-5,
-5,
-5,
-5,
-5,
-4,
-5,
-4,
-6,
-5,
-5,
-6,
-5,
-6,
-7,
-6,
-4,
-4,
-5,
-5,
-5,
-5,
-6,
-4,
-6,
-3,
-5,
-5,
-5,
-5,
-4,
-4,
-6,
-7,
-5,
-5,
-5,
-6,
-5,
-5,
-5,
-5,
-4,
-5,
-5,
-4,
-5,
-5,
-6,
-5,
-5,
-5,
-5,
-5,
-5,
-5,
-5,
-5,
-6,
-6,
-4,
-4,
-6,
-5,
-5,
-3,
-5,
-5,
-5,
-5,
-5,
-4,
-5,
-6,
-4,
-5,
-5,
-4,
-5,
-7,
-5,
-5,
-5,
-5,
-4,
-5,
-5,
-6,
-5,
-5,
-4,
-5,
-5,
-5,
-5,
-5,
-6,
-5,
-5,
-6,
-5,
-4,
-5,
-5,
-6,
-5,
-5,
-5,
-5,
-5,
-5,
-5,
-5,
-5,
-6,
-5,
-6,
-5,
-5,
-4,
-6,
-4,
-5,
-5,
-5,
-5,
-5,
-4,
-5,
-7,
-5,
-4,
-4,
-6,
-6,
-4,
-5,
-5,
-5,
-5,
-5,
-5,
-5,
-5,
-5,
-5,
-5,
-5,
-6,
-5,
-5,
-5,
-5,
-5,
-5,
-4,
-6,
-6,
-6,
-5,
-6,
-5,
-5,
-4,
-6,
-5,
-5,
-6,
-3,
-5,
-6,
-5,
-5,
-5,
-5,
-5,
-4,
-5,
-5,
-5,
-6,
-6,
-5,
-5,
-5,
-6,
-5,
-5,
-6,
-7,
-6,
-5,
-4,
-5,
-6,
-6,
-6,
-5,
-5,
-5,
-5,
-5,
-5,
-6,
-5,
-5,
-5,
-4,
-5,
-5,
-5,
-5,
-5,
-6,
-4,
-5,
-5,
-5,
-5,
-6,
-5,
-5,
-5,
-4,
-4,
-5,
-5,
-7,
-5,
-4,
-6,
-4,
-6,
-6,
-5,
-5,
-6,
-6,
-6,
-5,
-5,
-5,
-5,
-5,
-4,
-5,
-6,
-6,
-6,
-5,
-5,
-5,
-5,
-5,
-5,
-5,
-6,
-5,
-6,
-5,
-5,
-5,
-4,
-5,
-5,
-5,
-6,
-5,
-5,
-6,
-5,
-5,
-5,
-4,
-4,
-5,
-5,
-6,
-6,
-5,
-5,
-4,
-6,
-5,
-4,
-7,
-5,
-6,
-4,
-6,
-5,
-5,
-5,
-5,
-5,
-5,
-5,
-5,
-5,
-5,
-5,
-5,
-5,
-6,
-5,
-6,
-4,
-5,
-5,
-6,
-5,
-5,
-5,
-5,
-6,
-5,
-7,
-4,
-5,
-5,
-6,
-3,
-6,
-9,
-6,
-6,
-4,
-5,
-4,
-5,
-3,
-5,
-5,
-3,
-6,
-5,
-6,
-5,
-6,
-3,
-5,
-5,
-6,
-5,
-5,
-6,
-5,
-5,
-5,
-5,
-5,
-5,
-5,
-5,
-6,
-6,
-5,
-5,
-5,
-5,
-5,
-5,
-3,
-5,
-5,
-6,
-6,
-6,
-5,
-5,
-5,
-6,
-5,
-5,
-6,
-6,
-5,
-5,
-5,
-5,
-5,
-6,
-5,
-5,
-5,
-6,
-5,
-6,
-6,
-4,
-6,
-5,
-5,
-6,
-5,
-5,
-5,
-6,
-5,
-5,
-5,
-5,
-5,
-5,
-5,
-5,
-6,
-6,
-5,
-5,
-5,
-7,
-5,
-6,
-5,
-6,
-5,
-6,
-6,
-5,
-6,
-6,
-5,
-5,
-5,
-5,
-6,
-4,
-5,
-5,
-5,
-5,
-5,
-5,
-4,
-6,
-5,
-4,
-6,
-5,
-5,
-6,
-4,
-5,
-5,
-5,
-6,
-4,
-5,
-5,
-5,
-5,
-5,
-6,
-5,
-6,
-5,
-6,
-6,
-4,
-4,
-4,
-5,
-6,
-6,
-5,
-5,
-6,
-6,
-6,
-6,
-4,
-5,
-6,
-5,
-5,
-6,
-5,
-4,
-5,
-7,
-5,
-5,
-3,
-5,
-6,
-5,
-6,
-5,
-5,
-5,
-6,
-5,
-5,
-4,
-6,
-5,
-5,
-5,
-6,
-5,
-6,
-5,
-5,
-6,
-6,
-4,
-6,
-5,
-4,
-5,
-5,
-7,
-5,
-6,
-7,
-6,
-5,
-6,
-4,
-5,
-6,
-5,
-4,
-6,
-5,
-5,
-7,
-5,
-6,
-5,
-6,
-6,
-6,
-4,
-6,
-5,
-4,
-5,
-5,
-7,
-5,
-6,
-5,
-6,
-5,
-5,
-6,
-6,
-5,
-6,
-5,
-5,
-5,
-5,
-5,
-5,
-5,
-5,
-5,
-5,
-6,
-6,
-6,
-6,
-5,
-5,
-6,
-5,
-4,
-6,
-5,
-6,
-5,
-5,
-6,
-6,
-5,
-5,
-6,
-5,
-3,
-5,
-4,
-4,
-6,
-4,
-6,
-5,
-6,
-6,
-6,
-5,
-5,
-6,
-5,
-5,
-6,
-5,
-6,
-5,
-6,
-5,
-5,
-5,
-5,
-6,
-6,
-6,
-5,
-5,
-6,
-5,
-5,
-4,
-5,
-5,
-5,
-6,
-5,
-5,
-5,
-4,
-6,
-6,
-5,
-6,
-4,
-6,
-5,
-5,
-5,
-5,
-6,
-6,
-7,
-5,
-5,
-5,
-6,
-5,
-6,
-6,
-5,
-4,
-5,
-5,
-6,
-5,
-6,
-6,
-5,
-6,
-5,
-7,
-5,
-5,
-6,
-6,
-5,
-6,
-5,
-6,
-5,
-5,
-5,
-6,
-7,
-5,
-4,
-5,
-6,
-5,
-6,
-5,
-5,
-4,
-6,
-5,
-5,
-5,
-6,
-6,
-8,
-5,
-5,
-5,
-5,
-6,
-5,
-6,
-6,
-5,
-4,
-5,
-6,
-5,
-5,
-6,
-5,
-6,
-6,
-5,
-6,
-6,
-6,
-6,
-5,
-4,
-6,
-4,
-5,
-6,
-5,
-6,
-5,
-5,
-5,
-6,
-6,
-6,
-5,
-5,
-2,
-5,
-5,
-5,
-8,
-5,
-5,
-5,
-4,
-4,
-5,
-4,
-4,
-5,
-5,
-5,
-5,
-5,
-6,
-5,
-6,
-5,
-5,
-6,
-4,
-5,
-6,
-6,
-5,
-5,
-5,
-6,
-6,
-5,
-6,
-6,
-6,
-5,
-5,
-5,
-6,
-5,
-5,
-5,
-5,
-5,
-6,
-5,
-5,
-6,
-5,
-4,
-7,
-4,
-6,
-3,
-5,
-6,
-4,
-5,
-3,
-4,
-5,
-5,
-5,
-6,
-6,
-5,
-5,
-5,
-6,
-5,
-4,
-6,
-5,
-6,
-5,
-5,
-6,
-5,
-6,
-4,
-6,
-5,
-6,
-5,
-4,
-5,
-6,
-5,
-5,
-7,
-6,
-5,
-6,
-4,
-6,
-6,
-5,
-5,
-2,
-5,
-6,
-6,
-5,
-5,
-7,
-5,
-5,
-6,
-5,
-6,
-5,
-6,
-4,
-5,
-5,
-5,
-4,
-5,
-5,
-5,
