Pruebas/Fail/ALL0005/A0005CH2.CSV

Memory Length,4000,
Trigger Level,8.400E-01,
Source,CH2,
Probe,1X,
Vertical Units,V,
Vertical Scale,2.000E-01,
Vertical Position,-4.000E-01,
Horizontal Units,s,
Horizontal Scale,2.500E-02,
Horizontal Position,0.000E+00,
Horizontal Mode,Main,
Sampling Period,1.000E-04,
Firmware,V1.12,
Time, ,
Mode,Fast,
Waveform Data,
55,
55,
57,
58,
60,
61,
63,
65,
66,
68,
69,
70,
71,
73,
74,
74,
75,
74,
74,
74,
74,
73,
72,
71,
70,
69,
68,
66,
64,
63,
61,
59,
58,
57,
56,
54,
52,
52,
50,
50,
49,
49,
49,
49,
50,
50,
50,
51,
52,
53,
54,
56,
57,
59,
60,
62,
64,
66,
66,
68,
69,
71,
72,
73,
74,
74,
74,
74,
74,
74,
74,
73,
72,
71,
70,
69,
67,
66,
64,
64,
61,
60,
58,
58,
55,
54,
52,
52,
50,
50,
49,
49,
49,
49,
49,
49,
50,
51,
52,
53,
54,
55,
57,
59,
60,
62,
64,
66,
66,
68,
69,
70,
72,
72,
74,
74,
74,
74,
75,
74,
74,
73,
72,
71,
70,
69,
68,
66,
65,
63,
62,
59,
58,
56,
54,
53,
52,
51,
51,
50,
49,
49,
49,
49,
48,
50,
50,
51,
51,
53,
54,
56,
57,
58,
60,
62,
64,
65,
66,
68,
69,
70,
72,
73,
73,
74,
74,
74,
74,
74,
74,
73,
73,
71,
70,
69,
67,
66,
65,
63,
61,
60,
58,
56,
54,
53,
52,
52,
50,
50,
49,
49,
49,
50,
50,
50,
50,
52,
52,
53,
54,
57,
58,
58,
60,
62,
63,
65,
66,
68,
69,
70,
71,
72,
73,
74,
75,
75,
74,
74,
74,
73,
72,
71,
70,
68,
67,
66,
65,
64,
62,
59,
58,
57,
56,
54,
52,
51,
50,
49,
50,
49,
49,
49,
49,
50,
50,
51,
52,
53,
54,
55,
57,
58,
60,
62,
63,
65,
66,
68,
69,
71,
72,
73,
73,
74,
74,
74,
74,
74,
74,
74,
73,
71,
70,
69,
68,
66,
64,
63,
62,
60,
58,
57,
55,
54,
52,
52,
50,
49,
49,
49,
49,
49,
50,
50,
50,
50,
52,
53,
54,
55,
57,
59,
60,
62,
64,
66,
67,
67,
70,
70,
72,
73,
74,
74,
75,
74,
74,
74,
74,
74,
72,
71,
71,
69,
68,
66,
65,
63,
61,
60,
58,
56,
55,
54,
52,
51,
50,
50,
49,
49,
49,
50,
49,
49,
50,
51,
51,
53,
54,
56,
57,
58,
60,
62,
64,
65,
67,
68,
70,
70,
72,
73,
73,
74,
74,
74,
74,
74,
74,
73,
72,
71,
70,
68,
68,
66,
65,
63,
61,
60,
58,
57,
56,
53,
52,
51,
50,
50,
50,
49,
49,
49,
50,
49,
50,
50,
52,
53,
54,
55,
57,
58,
61,
62,
64,
65,
66,
69,
69,
70,
72,
73,
74,
74,
74,
75,
74,
74,
73,
73,
72,
72,
69,
69,
68,
66,
64,
62,
61,
59,
58,
57,
55,
54,
53,
52,
50,
50,
49,
49,
49,
49,
49,
49,
50,
51,
52,
53,
54,
55,
57,
59,
60,
62,
64,
66,
66,
68,
70,
70,
72,
73,
73,
74,
74,
74,
74,
74,
74,
73,
72,
71,
70,
69,
67,
65,
65,
63,
61,
59,
58,
56,
55,
53,
52,
51,
50,
50,
49,
49,
49,
49,
50,
50,
50,
51,
52,
53,
54,
56,
57,
58,
61,
61,
64,
65,
67,
68,
69,
70,
71,
73,
74,
74,
74,
74,
74,
74,
74,
73,
72,
72,
70,
69,
68,
66,
65,
62,
62,
60,
58,
57,
55,
53,
53,
52,
50,
50,
50,
49,
49,
49,
49,
50,
50,
50,
52,
53,
55,
56,
57,
58,
60,
62,
64,
65,
67,
68,
69,
70,
72,
72,
74,
74,
74,
74,
75,
74,
74,
73,
72,
72,
70,
69,
67,
66,
65,
62,
62,
60,
58,
56,
55,
53,
52,
51,
51,
50,
50,
49,
49,
48,
49,
50,
50,
50,
52,
53,
54,
56,
57,
58,
60,
62,
64,
66,
67,
69,
69,
70,
71,
72,
73,
74,
74,
75,
74,
74,
74,
74,
72,
71,
70,
69,
68,
66,
65,
62,
61,
60,
58,
56,
55,
54,
53,
51,
50,
49,
49,
50,
50,
49,
49,
49,
49,
51,
51,
53,
54,
55,
57,
59,
60,
62,
64,
65,
67,
68,
70,
70,
72,
73,
74,
74,
74,
74,
74,
74,
74,
73,
73,
71,
70,
68,
68,
66,
65,
62,
61,
60,
58,
56,
55,
53,
52,
52,
50,
50,
49,
49,
49,
49,
49,
49,
50,
51,
50,
53,
54,
55,
57,
59,
60,
62,
63,
66,
66,
68,
70,
70,
71,
73,
74,
74,
74,
74,
74,
74,
73,
73,
72,
71,
70,
68,
67,
66,
65,
63,
61,
59,
58,
57,
55,
54,
52,
51,
50,
50,
50,
49,
49,
50,
49,
50,
50,
50,
52,
53,
54,
56,
57,
58,
60,
62,
64,
65,
66,
68,
69,
70,
72,
73,
73,
74,
74,
74,
75,
74,
73,
73,
72,
71,
70,
69,
67,
66,
65,
63,
61,
60,
58,
56,
54,
53,
53,
52,
50,
49,
50,
49,
49,
49,
49,
50,
50,
51,
52,
54,
54,
56,
57,
59,
60,
62,
64,
65,
66,
68,
70,
71,
72,
73,
74,
74,
74,
74,
76,
74,
73,
72,
73,
70,
70,
68,
67,
66,
65,
63,
61,
59,
58,
57,
55,
54,
52,
51,
51,
50,
50,
50,
49,
50,
49,
50,
50,
51,
52,
53,
54,
56,
57,
58,
60,
62,
63,
65,
67,
68,
70,
70,
72,
72,
74,
74,
74,
74,
74,
74,
74,
74,
72,
72,
70,
69,
67,
66,
65,
63,
61,
60,
58,
56,
55,
54,
53,
52,
50,
50,
49,
49,
49,
49,
49,
49,
50,
51,
51,
53,
54,
56,
58,
59,
60,
62,
64,
66,
67,
68,
69,
70,
72,
73,
73,
74,
74,
74,
74,
74,
73,
73,
72,
71,
70,
69,
68,
66,
64,
63,
61,
59,
58,
56,
55,
54,
53,
52,
50,
50,
50,
49,
49,
49,
50,
49,
50,
51,
52,
53,
54,
56,
57,
59,
60,
62,
64,
65,
67,
68,
70,
72,
71,
72,
74,
74,
74,
74,
74,
74,
74,
74,
72,
71,
69,
68,
66,
66,
65,
62,
61,
60,
58,
56,
55,
54,
52,
52,
51,
50,
49,
49,
48,
49,
49,
50,
50,
50,
52,
53,
54,
56,
58,
58,
60,
62,
64,
65,
67,
68,
70,
71,
72,
73,
74,
74,
74,
74,
74,
74,
74,
73,
72,
71,
70,
69,
67,
66,
64,
63,
61,
59,
58,
56,
55,
54,
52,
52,
50,
50,
50,
50,
49,
49,
49,
49,
50,
50,
52,
53,
54,
56,
58,
59,
60,
62,
64,
66,
67,
68,
70,
71,
72,
72,
73,
74,
74,
74,
74,
74,
74,
73,
72,
71,
70,
69,
67,
66,
64,
63,
61,
60,
58,
57,
54,
54,
52,
52,
51,
50,
50,
49,
49,
49,
49,
50,
50,
51,
52,
52,
54,
56,
58,
58,
61,
62,
64,
65,
67,
68,
69,
70,
72,
72,
74,
74,
74,
75,
75,
74,
73,
73,
73,
71,
71,
69,
67,
66,
65,
63,
61,
60,
58,
56,
55,
53,
52,
52,
50,
50,
49,
50,
49,
49,
50,
50,
50,
51,
52,
52,
54,
55,
57,
59,
61,
61,
64,
65,
67,
68,
70,
70,
72,
73,
74,
74,
74,
74,
74,
74,
74,
73,
72,
72,
70,
69,
67,
66,
64,
63,
62,
59,
58,
57,
55,
54,
52,
51,
51,
50,
49,
49,
50,
49,
50,
50,
50,
51,
52,
53,
54,
56,
58,
58,
60,
62,
63,
65,
66,
68,
70,
70,
72,
73,
73,
73,
74,
75,
74,
74,
73,
73,
72,
72,
70,
68,
67,
65,
64,
63,
61,
60,
58,
57,
55,
54,
52,
51,
50,
50,
49,
49,
49,
49,
49,
49,
50,
50,
51,
53,
54,
55,
58,
59,
60,
62,
64,
65,
67,
68,
69,
70,
72,
72,
73,
74,
74,
74,
75,
74,
74,
73,
73,
71,
70,
68,
68,
65,
65,
63,
61,
59,
58,
56,
55,
53,
53,
51,
50,
50,
49,
49,
49,
49,
49,
50,
50,
51,
52,
53,
54,
56,
58,
59,
60,
62,
64,
65,
66,
68,
69,
70,
71,
73,
73,
74,
74,
74,
74,
74,
74,
73,
72,
72,
70,
69,
67,
66,
64,
63,
61,
60,
58,
57,
55,
54,
52,
52,
51,
50,
50,
49,
49,
49,
49,
49,
50,
51,
52,
53,
54,
56,
58,
59,
60,
62,
64,
65,
66,
68,
69,
70,
72,
73,
73,
74,
74,
74,
74,
74,
74,
73,
72,
72,
70,
68,
68,
66,
65,
63,
61,
59,
58,
57,
54,
54,
52,
52,
51,
50,
49,
50,
50,
49,
49,
50,
50,
51,
52,
53,
54,
55,
57,
58,
60,
62,
63,
65,
66,
68,
69,
70,
71,
73,
73,
74,
75,
74,
74,
74,
74,
73,
72,
71,
70,
69,
67,
66,
64,
63,
61,
60,
58,
57,
55,
53,
52,
51,
50,
50,
50,
50,
48,
50,
50,
50,
50,
51,
52,
53,
54,
55,
57,
58,
60,
62,
64,
65,
67,
68,
69,
71,
71,
73,
74,
74,
74,
74,
75,
74,
74,
74,
72,
71,
70,
69,
68,
66,
64,
63,
61,
59,
58,
57,
55,
54,
53,
51,
50,
49,
50,
49,
48,
50,
50,
49,
50,
51,
52,
53,
54,
56,
57,
59,
60,
62,
64,
65,
66,
68,
69,
70,
71,
72,
73,
74,
74,
75,
74,
74,
73,
74,
72,
72,
70,
69,
68,
66,
65,
63,
61,
60,
58,
56,
55,
53,
52,
52,
50,
50,
50,
49,
49,
49,
49,
50,
50,
51,
51,
53,
54,
56,
58,
59,
60,
62,
63,
65,
67,
68,
69,
70,
72,
72,
74,
74,
74,
75,
74,
74,
74,
73,
73,
72,
70,
69,
67,
66,
64,
63,
61,
60,
58,
56,
54,
53,
52,
51,
50,
50,
49,
49,
49,
49,
50,
50,
50,
50,
52,
53,
54,
55,
57,
59,
60,
62,
64,
66,
66,
68,
70,
70,
72,
73,
74,
74,
74,
74,
74,
74,
74,
73,
72,
71,
70,
69,
67,
66,
65,
63,
61,
60,
58,
57,
55,
53,
53,
52,
51,
50,
50,
49,
49,
49,
48,
50,
50,
51,
52,
53,
54,
55,
58,
59,
60,
62,
63,
65,
67,
68,
69,
70,
72,
73,
73,
74,
74,
75,
74,
74,
74,
74,
72,
70,
70,
69,
67,
66,
64,
63,
61,
59,
57,
57,
55,
53,
52,
51,
50,
49,
50,
50,
49,
49,
49,
50,
50,
50,
52,
54,
54,
56,
57,
59,
60,
62,
64,
65,
66,
68,
70,
72,
72,
73,
73,
74,
74,
74,
74,
74,
74,
73,
73,
72,
70,
69,
67,
66,
64,
63,
61,
59,
58,
56,
55,
54,
52,
51,
51,
50,
49,
50,
49,
49,
49,
50,
50,
51,
52,
53,
54,
56,
57,
58,
60,
62,
64,
66,
67,
68,
69,
71,
72,
72,
73,
74,
75,
74,
74,
74,
74,
73,
72,
71,
70,
69,
68,
66,
64,
63,
61,
59,
58,
56,
55,
53,
53,
51,
51,
50,
50,
50,
48,
50,
49,
50,
50,
51,
52,
53,
54,
56,
57,
58,
60,
62,
63,
65,
66,
69,
69,
71,
72,
72,
74,
74,
74,
74,
74,
73,
74,
73,
72,
71,
70,
68,
68,
66,
64,
62,
62,
59,
58,
56,
55,
53,
52,
51,
51,
50,
50,
49,
50,
49,
49,
50,
50,
51,
52,
53,
54,
55,
57,
59,
60,
62,
64,
66,
66,
68,
69,
71,
72,
73,
74,
74,
74,
75,
74,
74,
74,
74,
72,
72,
70,
68,
67,
66,
64,
63,
61,
59,
58,
57,
55,
53,
52,
51,
51,
50,
49,
50,
49,
49,
49,
50,
50,
50,
52,
53,
54,
56,
57,
59,
60,
62,
64,
65,
67,
68,
70,
70,
72,
73,
73,
74,
74,
74,
74,
74,
74,
73,
72,
71,
70,
68,
67,
66,
65,
62,
61,
60,
58,
56,
55,
54,
53,
50,
50,
50,
49,
49,
49,
49,
50,
50,
50,
50,
52,
53,
54,
56,
57,
59,
60,
62,
63,
65,
66,
68,
69,
71,
72,
73,
74,
74,
74,
74,
74,
74,
73,
73,
72,
71,
70,
68,
67,
66,
64,
62,
60,
60,
58,
57,
55,
53,
52,
51,
51,
50,
50,
50,
49,
48,
50,
50,
50,
50,
52,
53,
54,
55,
57,
59,
60,
62,
63,
65,
66,
68,
69,
70,
72,
72,
74,
74,
74,
74,
74,
74,
74,
73,
73,
71,
70,
69,
68,
66,
64,
63,
61,
60,
58,
57,
55,
53,
52,
51,
50,
50,
50,
50,
49,
50,
49,
50,
50,
50,
51,
53,
54,
56,
57,
59,
60,
62,
64,
65,
67,
68,
69,
70,
72,
72,
74,
74,
74,
74,
74,
74,
74,
73,
72,
71,
70,
68,
68,
66,
64,
63,
61,
60,
58,
55,
54,
54,
52,
52,
50,
49,
50,
49,
48,
49,
49,
50,
50,
51,
52,
52,
54,
55,
57,
58,
60,
62,
64,
66,
67,
68,
69,
70,
72,
73,
74,
74,
73,
74,
74,
74,
74,
73,
72,
71,
70,
69,
68,
66,
65,
62,
61,
60,
58,
57,
55,
54,
53,
51,
50,
50,
49,
49,
49,
50,
49,
50,
50,
50,
52,
53,
54,
56,
57,
59,
61,
62,
63,
65,
67,
68,
70,
70,
71,
73,
74,
74,
74,
75,
74,
74,
73,
73,
72,
72,
70,
68,
67,
66,
65,
63,
61,
60,
58,
57,
54,
54,
52,
51,
51,
50,
50,
49,
49,
49,
49,
50,
50,
51,
51,
53,
54,
55,
57,
59,
61,
61,
65,
65,
66,
68,
69,
72,
72,
73,
73,
74,
74,
74,
74,
74,
74,
73,
72,
71,
70,
69,
67,
66,
64,
62,
61,
59,
58,
56,
55,
54,
52,
52,
50,
49,
49,
49,
49,
49,
49,
50,
50,
50,
51,
52,
55,
56,
58,
58,
60,
62,
63,
65,
67,
68,
69,
70,
72,
73,
73,
74,
74,
74,
74,
74,
74,
73,
73,
72,
70,
68,
67,
66,
65,
63,
61,
60,
58,
56,
55,
54,
53,
51,
51,
50,
49,
49,
49,
49,
49,
50,
50,
51,
52,
53,
54,
56,
57,
59,
60,
62,
64,
65,
67,
68,
68,
70,
72,
73,
73,
74,
74,
76,
74,
74,
73,
73,
72,
72,
70,
69,
67,
66,
64,
63,
61,
60,
58,
57,
54,
53,
52,
51,
50,
50,
49,
49,
49,
49,
49,
50,
50,
51,
52,
53,
54,
56,
57,
59,
61,
62,
64,
65,
66,
68,
70,
70,
72,
73,
73,
74,
74,
74,
74,
74,
73,
73,
72,
71,
70,
69,
67,
66,
64,
62,
61,
59,
58,
57,
54,
53,
52,
52,
50,
50,
50,
49,
49,
49,
49,
50,
50,
51,
53,
53,
54,
57,
57,
59,
61,
62,
63,
66,
66,
68,
69,
71,
71,
73,
73,
74,
74,
74,
74,
74,
73,
72,
72,
71,
70,
68,
67,
66,
64,
63,
61,
59,
58,
56,
54,
54,
52,
51,
50,
50,
49,
49,
49,
49,
49,
50,
50,
50,
52,
53,
54,
56,
57,
58,
61,
62,
63,
66,
67,
68,
70,
70,
72,
73,
73,
73,
74,
74,
74,
74,
74,
73,
72,
70,
70,
69,
67,
66,
64,
63,
60,
59,
58,
57,
55,
54,
52,
52,
50,
50,
50,
50,
49,
49,
49,
49,
51,
51,
52,
53,
54,
55,
58,
58,
60,
62,
64,
65,
67,
68,
68,
71,
72,
73,
74,
74,
74,
74,
74,
74,
74,
73,
72,
71,
70,
69,
67,
66,
65,
62,
61,
60,
58,
56,
54,
53,
52,
52,
50,
50,
49,
50,
49,
49,
50,
50,
50,
50,
52,
53,
54,
55,
57,
59,
60,
62,
64,
65,
67,
69,
70,
70,
72,
72,
73,
74,
74,
74,
74,
74,
73,
73,
72,
72,
69,
68,
67,
66,
65,
63,
61,
59,
58,
56,
55,
53,
52,
52,
51,
50,
49,
50,
49,
49,
49,
49,
50,
50,
51,
53,
55,
56,
58,
58,
61,
62,
63,
66,
67,
68,
70,
71,
73,
73,
74,
74,
74,
76,
74,
74,
73,
73,
72,
71,
70,
68,
68,
66,
65,
62,
61,
60,
58,
56,
55,
53,
52,
51,
50,
49,
49,
50,
49,
50,
49,
49,
50,
50,
52,
53,
54,
56,
57,
59,
60,
62,
64,
65,
66,
68,
69,
70,
72,
73,
74,
74,
74,
74,
74,
74,
74,
73,
72,
71,
70,
69,
68,
66,
65,
63,
61,
60,
58,
57,
54,
54,
52,
52,
50,
50,
50,
49,
49,
49,
49,
49,
50,
51,
52,
53,
54,
56,
58,
58,
60,
62,
64,
66,
67,
68,
70,
70,
72,
73,
74,
74,
74,
75,
74,
74,
74,
74,
72,
71,
70,
69,
67,
66,
64,
62,
61,
60,
58,
57,
55,
54,
53,
51,
50,
50,
50,
49,
49,
49,
49,
49,
50,
50,
52,
53,
55,
56,
58,
58,
61,
62,
63,
65,
66,
68,
70,
70,
72,
73,
74,
74,
74,
74,
74,
74,
74,
73,
72,
70,
70,
69,
68,
66,
64,
62,
61,
59,
58,
56,
55,
53,
52,
50,
50,
50,
49,
49,
49,
50,
50,
49,
50,
50,
52,
53,
55,
56,
57,
58,
60,
62,
63,
65,
67,
69,
69,
70,
72,
73,
74,
74,
74,
74,
74,
74,
74,
73,
72,
72,
69,
69,
67,
66,
64,
63,
61,
60,
58,
57,
55,
54,
52,
51,
50,
50,
50,
49,
49,
49,
49,
50,
50,
51,
52,
53,
54,
55,
57,
58,
60,
62,
64,
66,
67,
68,
70,
70,
72,
73,
73,
74,
74,
74,
74,
74,
73,
73,
72,
71,
69,
68,
67,
66,
64,
63,
61,
59,
58,
57,
55,
54,
52,
51,
51,
50,
50,
49,
49,
50,
49,
50,
50,
51,
52,
53,
55,
56,
57,
59,
60,
62,
64,
65,
66,
68,
69,
71,
72,
72,
74,
74,
73,
75,
74,
74,
74,
73,
72,
70,
70,
69,
67,
66,
65,
63,
61,
59,
58,
57,
54,
54,
52,
51,
50,
50,
49,
49,
49,
49,
49,
50,
50,
50,
52,
53,
54,
56,
58,
59,
61,
62,
63,
65,
67,
68,
70,
70,
72,
73,
73,
74,
74,
74,
74,
74,
73,
73,
72,
72,
69,
68,
67,
66,
65,
62,
61,
60,
58,
56,
55,
54,
52,
51,
50,
50,
50,
49,
49,
49,
50,
49,
50,
50,
52,
53,
54,
56,
57,
58,
60,
62,
63,
65,
67,
68,
70,
70,
72,
73,
74,
74,
74,
74,
74,
74,
74,
73,
72,
71,
70,
68,
68,
66,
65,
63,
61,
59,
58,
56,
54,
54,
52,
52,
51,
50,
49,
49,
49,
49,
49,
50,
50,
51,
52,
53,
54,
56,
58,
59,
60,
62,
64,
65,
67,
68,
69,
70,
72,
73,
74,
74,
74,
74,
74,
74,
74,
74,
72,
71,
70,
68,
67,
66,
64,
62,
61,
59,
58,
57,
55,
53,
52,
51,
50,
50,
50,
49,
49,
48,
49,
50,
50,
50,
52,
53,
54,
56,
58,
59,
60,
62,
64,
65,
66,
68,
69,
70,
72,
73,
74,
74,
74,
74,
74,
75,
74,
73,
72,
71,
70,
69,
67,
66,
64,
63,
61,
59,
58,
57,
54,
53,
52,
51,
50,
50,
49,
49,
49,
49,
49,
50,
50,
50,
52,
53,
54,
55,
57,
58,
60,
62,
64,
66,
66,
68,
70,
71,
72,
72,
74,
74,
74,
74,
74,
74,
74,
73,
72,
71,
70,
69,
67,
66,
65,
63,
61,
59,
58,
56,
55,
54,
52,
52,
51,
50,
50,
49,
49,
49,
49,
50,
50,
50,
52,
52,
54,
56,
57,
59,
60,
62,
64,
65,
66,
68,
69,
71,
72,
72,
74,
74,
74,
74,
74,
74,
74,
73,
72,
71,
70,
69,
67,
66,
64,
63,
61,
59,
58,
56,
55,
53,
53,
51,
51,
50,
49,
49,
50,
49,
50,
50,
50,
51,
52,
53,
54,
56,
58,
59,
60,
62,
64,
65,
66,
68,
69,
70,
72,
73,
73,
74,
74,
74,
74,
74,
74,
73,
72,
71,
70,
69,
67,
66,
64,
62,
61,
60,
58,
56,
54,
53,
53,
52,
50,
50,
49,
49,
49,
49,
49,
49,
50,
51,
51,
53,
54,
55,
58,
59,
60,
62,
64,
66,
66,
68,
69,
71,
72,
72,
73,
74,
75,
74,
74,
74,
74,
74,
71,
70,
70,
69,
67,
66,
64,
62,
61,
60,
58,
56,
55,
54,
52,
52,
50,
50,
49,
49,
48,
49,
49,
50,
49,
50,
52,
53,
54,
55,
58,
58,
60,
62,
64,
65,
67,
68,
70,
71,
72,
72,
74,
74,
74,
74,
74,
74,
74,
73,
72,
71,
70,
69,
67,
66,
64,
62,
62,
60,
58,
56,
55,
54,
52,
52,
50,
50,
50,
49,
49,
50,
50,
49,
50,
51,
52,
54,
54,
55,
58,
59,
60,
62,
64,
65,
67,
68,
69,
71,
72,
73,
74,
74,
74,
74,
74,
74,
74,
73,
73,
72,
70,
68,
67,
66,
64,
63,
61,
60,
58,
56,
54,
54,
52,
51,
51,
50,
50,
48,
49,
49,
49,
50,
50,
51,
52,
53,
54,
56,
57,
59,
60,
62,
64,
65,
67,
68,
69,
71,
72,
73,
73,
74,
74,
75,
74,
74,
74,
73,
72,
71,
70,
68,
67,
66,
65,
62,
61,
59,
58,
57,
55,
54,
53,
52,
50,
49,
50,
49,
49,
49,
49,
50,
50,
51,
52,
53,
55,
55,
57,
59,
60,
62,
63,
66,
66,
68,
69,
70,
72,
73,
74,
74,
74,
74,
74,
74,
74,
73,
72,
71,
70,
69,
67,
66,
64,
63,
61,
59,
58,
57,
55,
53,
52,
51,
50,
50,
50,
49,
48,
49,
50,
49,
50,
50,
52,
53,
54,
55,
58,
58,
60,
62,
64,
65,
66,
68,
69,
70,
72,
72,
74,
74,
74,
74,
75,
74,
74,
73,
72,
71,
71,
68,
67,
66,
65,
63,
60,
59,
58,
57,
55,
53,
52,
51,
50,
50,
50,
49,
49,
49,
49,
50,
50,
50,
52,
53,
54,
55,
58,
59,
60,
63,
64,
65,
67,
68,
69,
71,
72,
73,
73,
74,
75,
74,
74,
74,
74,
73,
72,
71,
70,
69,
67,
66,
64,
63,
61,
59,
58,
56,
55,
53,
52,
52,
50,
50,
49,
49,
49,
49,
50,
49,
50,
52,
52,
53,
55,
56,
57,
58,
61,
62,
64,
65,
66,
68,
70,
71,
72,
73,
74,
74,
74,
74,
74,
74,
74,
74,
72,
72,
70,
69,
67,
66,
64,
62,
61,
60,
58,
57,
54,
53,
52,
51,
50,
50,
50,
49,
49,
49,
49,
50,
50,
51,
52,
53,
54,
56,
58,
59,
60,
62,
64,
65,
67,
68,
70,
70,
72,
73,
73,
74,
74,
75,
74,
74,
74,
73,
72,
71,
70,
68,
67,
66,
64,
62,
61,
60,
58,
57,
55,
54,
53,
51,
50,
50,
49,
49,
49,
50,
49,
50,
50,
50,
52,
53,
54,
56,
57,
59,
60,
62,
64,
66,
66,
68,
70,
70,
72,
73,
73,
74,
74,
74,
74,
74,
74,
73,
72,
71,
70,
69,
67,
66,
64,
63,
61,
60,
58,
56,
55,
54,
52,
50,
50,
50,
49,
49,
49,
49,
49,
50,
50,
51,
52,
53,
54,
56,
58,
59,
60,
62,
63,
66,
67,
69,
69,
70,
72,
73,
74,
74,
76,
74,
74,
74,
74,
73,
72,
71,
70,
68,
67,
66,
65,
63,
61,
59,
58,
57,
54,
53,
52,
52,
50,
50,
49,
49,
48,
49,
49,
50,
50,
51,
51,
53,
54,
55,
58,
58,
61,
62,
64,
65,
67,
68,
70,
71,
72,
73,
74,
74,
74,
75,
74,
74,
73,
73,
72,
71,
70,
68,
67,
66,
65,
63,
61,
59,
58,
57,
55,
54,
52,
51,
50,
50,
50,
49,
49,
49,
50,
50,
50,
51,
52,
53,
54,
54,
57,
58,
60,
62,
63,
65,
66,
67,
70,
70,
72,
72,
73,
74,
75,
74,
74,
74,
74,
73,
72,
71,
70,
68,
68,
66,
64,
62,
61,
59,
58,
57,
55,
54,
52,
52,
50,
49,
50,
49,
49,
49,
49,
50,
50,
51,
52,
53,
54,
56,
57,
59,
61,
62,
64,
65,
66,
68,
69,
70,
73,
72,
74,
74,
74,
74,
74,
74,
74,
74,
72,
71,
70,
68,
67,
66,
64,
62,
62,
59,
58,
57,
54,
53,
53,
52,
50,
50,
49,
49,
49,
49,
49,
50,
51,
51,
52,
53,
