Pruebas/Fail/ALL0004/A0004CH2.CSV

Memory Length,4000,
Trigger Level,1.320E+00,
Source,CH2,
Probe,1X,
Vertical Units,V,
Vertical Scale,2.000E-01,
Vertical Position,-2.720E-01,
Horizontal Units,s,
Horizontal Scale,5.000E-02,
Horizontal Position,0.000E+00,
Horizontal Mode,Main,
Sampling Period,2.000E-04,
Firmware,V1.12,
Time, ,
Mode,Fast,
Waveform Data,
-5,
-5,
-6,
-5,
-5,
-4,
-5,
-5,
-5,
-5,
-5,
-5,
-6,
-5,
-5,
-5,
-5,
-6,
-5,
-6,
-5,
-6,
-6,
-6,
-5,
-5,
-6,
-5,
-6,
-6,
-5,
-5,
-6,
-6,
-6,
-6,
-6,
-6,
-5,
-6,
-5,
-6,
-5,
-5,
-4,
-6,
-5,
-6,
-5,
-6,
-6,
-6,
-6,
-6,
-6,
-5,
-5,
-5,
-6,
-6,
-6,
-5,
-6,
-5,
-5,
-5,
-6,
-5,
-5,
-6,
-5,
-6,
-6,
-6,
-6,
-6,
-5,
-6,
-5,
-5,
-6,
-6,
-6,
-6,
-6,
-5,
-6,
-5,
-6,
-5,
-6,
-5,
-5,
-5,
-6,
-6,
-6,
-5,
-6,
-6,
-5,
-5,
-6,
-5,
-5,
-6,
-5,
-6,
-6,
-6,
-6,
-6,
-6,
-5,
-5,
-5,
-6,
-6,
-6,
-5,
-6,
-5,
-5,
-6,
-5,
-6,
-6,
-5,
-5,
-5,
-6,
-5,
-5,
-5,
-4,
-6,
-6,
-6,
-5,
-5,
-6,
-6,
-5,
-5,
-6,
-6,
-6,
-5,
-5,
-6,
-5,
-6,
-5,
-6,
-5,
-6,
-5,
-6,
-6,
-5,
-5,
-6,
-5,
-5,
-6,
-5,
-5,
-6,
-6,
-6,
-5,
-6,
-6,
-4,
-6,
-4,
-5,
-5,
-6,
-6,
-5,
-5,
-5,
-6,
-4,
-5,
-5,
-6,
-6,
-5,
-6,
-5,
-6,
-5,
-6,
-6,
-5,
-5,
-5,
-5,
-6,
-6,
-5,
-6,
-6,
-6,
-6,
-6,
-6,
-6,
-5,
-4,
-6,
-6,
-6,
-6,
-4,
-5,
-6,
-6,
-5,
-6,
-6,
-6,
-5,
-6,
-5,
-4,
-6,
-6,
-5,
-5,
-4,
-6,
-5,
-5,
-5,
-5,
-6,
-5,
-5,
-6,
-6,
-5,
-6,
-6,
-5,
-5,
-5,
-5,
-5,
-5,
-6,
-6,
-6,
-5,
-6,
-6,
-5,
-5,
-5,
-6,
-5,
-6,
-5,
-6,
-6,
-5,
-6,
-5,
-6,
-6,
-5,
-6,
-6,
-5,
-5,
-5,
-5,
-5,
-6,
-6,
-5,
-6,
-6,
-5,
-6,
-6,
-6,
-5,
-6,
-5,
-5,
-6,
-5,
-5,
-6,
-6,
-5,
-5,
-6,
-6,
-5,
-6,
-6,
-6,
-6,
-5,
-5,
-5,
-6,
-5,
-5,
-4,
-4,
-6,
-6,
-5,
-6,
-6,
-6,
-5,
-6,
-5,
-5,
-6,
-6,
-5,
-6,
-6,
-6,
-5,
-6,
-5,
-5,
-6,
-4,
-5,
-5,
-5,
-6,
-6,
-5,
-5,
-6,
-6,
-6,
-6,
-5,
-6,
-6,
-6,
-4,
-5,
-6,
-6,
-5,
-6,
-5,
-5,
-6,
-5,
-6,
-5,
-5,
-6,
-6,
-6,
-6,
-5,
-5,
-6,
-6,
-5,
-5,
-6,
-6,
-5,
-5,
-6,
-6,
-5,
-6,
-6,
-6,
-5,
-5,
-4,
-6,
-6,
-6,
-5,
-6,
-6,
-6,
-6,
-6,
-6,
-6,
-6,
-6,
-6,
-6,
-5,
-5,
-5,
-6,
-5,
-5,
-5,
-6,
-6,
-5,
-6,
-6,
-6,
-6,
-6,
-6,
-6,
-6,
-6,
-4,
-5,
-6,
-5,
-6,
-6,
-4,
-5,
-6,
-6,
-6,
-5,
-5,
-5,
-6,
-6,
-5,
-6,
-6,
-6,
-6,
-6,
-6,
-5,
-6,
-5,
-5,
-6,
-5,
-5,
-5,
-6,
-6,
-5,
-5,
-5,
-6,
-6,
-6,
-6,
-5,
-5,
-6,
-6,
-6,
-6,
-6,
-6,
-6,
-6,
-5,
-5,
-5,
-6,
-5,
-6,
-5,
-6,
-5,
-6,
-5,
-5,
-6,
-6,
-5,
-6,
-6,
-6,
-5,
-6,
-6,
-6,
-6,
-5,
-6,
-6,
-5,
-5,
-5,
-6,
-6,
-5,
-6,
-6,
-6,
-6,
-6,
-6,
-5,
-6,
-5,
-6,
-6,
-5,
-6,
-5,
-6,
-6,
-6,
-5,
-5,
-6,
-5,
-5,
-6,
-4,
-6,
-5,
-6,
-4,
-6,
-6,
-5,
-6,
-5,
-6,
-6,
-6,
-5,
-6,
-5,
-6,
-5,
-6,
-6,
-6,
-4,
-6,
-6,
-5,
-5,
-5,
-6,
-5,
-5,
-6,
-6,
-6,
-5,
-6,
-6,
-6,
-6,
-6,
-5,
-5,
-6,
-6,
-6,
-6,
-6,
-6,
-5,
-5,
-4,
-6,
-5,
-5,
-6,
-6,
-6,
-6,
-6,
-5,
-6,
-6,
-5,
-5,
-6,
-5,
-6,
-6,
-6,
-5,
-5,
-5,
-5,
-5,
-5,
-6,
-5,
-5,
-6,
-6,
-6,
-5,
-5,
-6,
-5,
-5,
-6,
-5,
-6,
-5,
-6,
-6,
-6,
-5,
-5,
-5,
-5,
-5,
-5,
-6,
-5,
-6,
-5,
-6,
-4,
-5,
-6,
-5,
-5,
-5,
-5,
-5,
-6,
-5,
-5,
-5,
-6,
-6,
-6,
-6,
-5,
-6,
-5,
-5,
-5,
-5,
-6,
-5,
-4,
-6,
-5,
-5,
-6,
-5,
-5,
-6,
-6,
-5,
-6,
-5,
-4,
-5,
-5,
-6,
-6,
-5,
-6,
-6,
-4,
-6,
-6,
-5,
-6,
-6,
-6,
-5,
-6,
-6,
-6,
-5,
-5,
-5,
-6,
-5,
-6,
-6,
-5,
-5,
-6,
-5,
-4,
-5,
-6,
-6,
-6,
-5,
-5,
-6,
-6,
-5,
-6,
-6,
-6,
-5,
-4,
-6,
-5,
-5,
-5,
-5,
-6,
-6,
-6,
-6,
-6,
-6,
-6,
-4,
-5,
-6,
-5,
-5,
-5,
-6,
-6,
-6,
-5,
-5,
-5,
-5,
-6,
-6,
-6,
-5,
-5,
-6,
-6,
-6,
-5,
-6,
-6,
-5,
-5,
-6,
-6,
-6,
-5,
-6,
-6,
-6,
-6,
-5,
-5,
-5,
-6,
-5,
-5,
-5,
-6,
-6,
-5,
-5,
-6,
-6,
-5,
-5,
-5,
-5,
-6,
-5,
-6,
-6,
-5,
-5,
-5,
-6,
-5,
-5,
-6,
-5,
-5,
-5,
-5,
-6,
-6,
-5,
-5,
-6,
-5,
-5,
-5,
-6,
-6,
-6,
-6,
-5,
-6,
-5,
-5,
-5,
-5,
-6,
-6,
-6,
-6,
-6,
-4,
-5,
-5,
-5,
-5,
-6,
-5,
-6,
-5,
-6,
-5,
-6,
-6,
-5,
-6,
-6,
-6,
-6,
-6,
-5,
-6,
-6,
-5,
-4,
-5,
-5,
-6,
-4,
-5,
-5,
-5,
-5,
-6,
-6,
-5,
-6,
-6,
-6,
-5,
-5,
-5,
-6,
-5,
-6,
-4,
-6,
-5,
-5,
-6,
-6,
-6,
-5,
-6,
-6,
-6,
-5,
-5,
-5,
-6,
-6,
-5,
-5,
-6,
-6,
-5,
-6,
-6,
-5,
-6,
-5,
-6,
-6,
-5,
-6,
-6,
-6,
-5,
-5,
-6,
-5,
-6,
-6,
-6,
-4,
-6,
-4,
-5,
-6,
-5,
-6,
-6,
-5,
-6,
-5,
-5,
-5,
-5,
-6,
-5,
-5,
-6,
-6,
-5,
-6,
-5,
-6,
-6,
-5,
-6,
-5,
-5,
-4,
-5,
-6,
-6,
-5,
-6,
-5,
-6,
-6,
-6,
-6,
-6,
-6,
-6,
-5,
-6,
-6,
-5,
-5,
-6,
-6,
-6,
-5,
-6,
-6,
-6,
-6,
-6,
-6,
-5,
-5,
-5,
-5,
-6,
-6,
-6,
-5,
-6,
-6,
-5,
-5,
-5,
-6,
-5,
-6,
-6,
-5,
-5,
-6,
-6,
-6,
-6,
-6,
-5,
-6,
-6,
-6,
-5,
-5,
-6,
-5,
-6,
-6,
-5,
-5,
-6,
-5,
-6,
-6,
-6,
-6,
-6,
-6,
-5,
-5,
-6,
-6,
-5,
-5,
-5,
-6,
-6,
-6,
-5,
-6,
-6,
-5,
-6,
-6,
-6,
-6,
-5,
-5,
-6,
-5,
-5,
-5,
-6,
-6,
-5,
-6,
-5,
-5,
-5,
-5,
-5,
-6,
-6,
-5,
-6,
-5,
-5,
-5,
-5,
-6,
-5,
-6,
-6,
-6,
-6,
-5,
-6,
-6,
-5,
-6,
-6,
-6,
-5,
-5,
-6,
-6,
-5,
-6,
-6,
-5,
-6,
-5,
-5,
-6,
-5,
-5,
-5,
-5,
-6,
-6,
-6,
-6,
-5,
-5,
-6,
-5,
-6,
-6,
-5,
-6,
-6,
-5,
-4,
-6,
-5,
-5,
-5,
-6,
-6,
-6,
-6,
-6,
-6,
-6,
-6,
-6,
-5,
-6,
-5,
-6,
-5,
-6,
-6,
-6,
-6,
-5,
-6,
-6,
-5,
-5,
-5,
-6,
-6,
-6,
-6,
-6,
-6,
-6,
-5,
-5,
-5,
-6,
-6,
-6,
-6,
-5,
-6,
-6,
-5,
-4,
-5,
-6,
-5,
-6,
-5,
-6,
-6,
-6,
-6,
-6,
-6,
-6,
-6,
-6,
-6,
-6,
-6,
-6,
-6,
-6,
-6,
-6,
-6,
-6,
-6,
-5,
-6,
-6,
-5,
-5,
-5,
-5,
-6,
-6,
-6,
-6,
-6,
-5,
-5,
-6,
-5,
-6,
-5,
-6,
-6,
-5,
-5,
-5,
-6,
-5,
-6,
-6,
-5,
-5,
-6,
-6,
-5,
-6,
-6,
-5,
-5,
-6,
-6,
-5,
-5,
-5,
-6,
-6,
-6,
-5,
-5,
-6,
-6,
-6,
-5,
-6,
-6,
-4,
-6,
-6,
-5,
-5,
-6,
-6,
-5,
-6,
-5,
-6,
-6,
-5,
-5,
-6,
-6,
-5,
-6,
-5,
-6,
-4,
-5,
-5,
-6,
-6,
-6,
-5,
-6,
-6,
-5,
-5,
-6,
-6,
-5,
-5,
-6,
-5,
-6,
-5,
-5,
-5,
-5,
-5,
-6,
-5,
-6,
-6,
-6,
-6,
-5,
-5,
-6,
-6,
-6,
-6,
-6,
-6,
-5,
-6,
-6,
-6,
-5,
-6,
-5,
-6,
-6,
-6,
-5,
-5,
-6,
-6,
-6,
-5,
-5,
-6,
-5,
-5,
-6,
-6,
-4,
-5,
-6,
-6,
-5,
-6,
-5,
-5,
-6,
-6,
-6,
-6,
-5,
-5,
-5,
-6,
-4,
-5,
-5,
-6,
-5,
-6,
-5,
-6,
-6,
-5,
-6,
-5,
-6,
-6,
-5,
-5,
-6,
-5,
-5,
-5,
-5,
-6,
-6,
-5,
-5,
-6,
-6,
-6,
-5,
-5,
-6,
-6,
-5,
-5,
-5,
-6,
-5,
-6,
-5,
-5,
-5,
-6,
-5,
-6,
-5,
-6,
-6,
-6,
-6,
-5,
-5,
-6,
-5,
-6,
-6,
-5,
-6,
-6,
-6,
-5,
-6,
-6,
-5,
-6,
-5,
-6,
-5,
-6,
-5,
-6,
-5,
-6,
-5,
-5,
-5,
-6,
-6,
-5,
-6,
-6,
-6,
-6,
-5,
-6,
-6,
-6,
-5,
-6,
-6,
-5,
-5,
-5,
-6,
-6,
-5,
-5,
-6,
-5,
-5,
-5,
-6,
-5,
-6,
-5,
-6,
-6,
-6,
-6,
-5,
-5,
-5,
-5,
-6,
-5,
-6,
-5,
-5,
-5,
-5,
-6,
-5,
-6,
-6,
-6,
-6,
-6,
-5,
-5,
-6,
-5,
-5,
-6,
-5,
-5,
-5,
-5,
-6,
-6,
-4,
-6,
-6,
-6,
-6,
-6,
-6,
-5,
-6,
-5,
-6,
-6,
-5,
-6,
-5,
-5,
-6,
-6,
-6,
-6,
-5,
-5,
-5,
-5,
-6,
-5,
-5,
-6,
-6,
-6,
-5,
-6,
-6,
-5,
-6,
-6,
-6,
-5,
-5,
-5,
-5,
-5,
-5,
-6,
-6,
-4,
-5,
-5,
-6,
-6,
-5,
-5,
-6,
-5,
-6,
-6,
-6,
-5,
-6,
-5,
-6,
-5,
-5,
-5,
-6,
-5,
-5,
-6,
-6,
-5,
-6,
-5,
-6,
-5,
-5,
-5,
-5,
-6,
-5,
-6,
-6,
-6,
-6,
-6,
-5,
-6,
-5,
-5,
-4,
-5,
-5,
-5,
-6,
-5,
-5,
-5,
-6,
-5,
-6,
-5,
-6,
-6,
-5,
-6,
-6,
-5,
-4,
-6,
-5,
-6,
-6,
-5,
-6,
-5,
-6,
-5,
-5,
-5,
-5,
-6,
-5,
-5,
-6,
-5,
-6,
-5,
-5,
-5,
-5,
-5,
-5,
-4,
-6,
-4,
-6,
-5,
-6,
-5,
-6,
-6,
-5,
-6,
-6,
-5,
-6,
-5,
-5,
-5,
-5,
-6,
-5,
-5,
-6,
-6,
-6,
-5,
-6,
-6,
-6,
-6,
-5,
-6,
-6,
-6,
-6,
-6,
-5,
-6,
-5,
-5,
-6,
-6,
-6,
-6,
-6,
-6,
-5,
-6,
-6,
-6,
-6,
-5,
-5,
-5,
-6,
-6,
-5,
-6,
-5,
-5,
-5,
-5,
-6,
-6,
-6,
-5,
-6,
-5,
-4,
-6,
-6,
-6,
-5,
-6,
-5,
-5,
-4,
-6,
-6,
-5,
-5,
-6,
-4,
-5,
-5,
-6,
-6,
-6,
-5,
-5,
-6,
-5,
-5,
-5,
-5,
-6,
-6,
-5,
-5,
-5,
-6,
-6,
-5,
-5,
-6,
-6,
-6,
-5,
-5,
-5,
-6,
-6,
-6,
-5,
-6,
-6,
-6,
-6,
-5,
-6,
-6,
-5,
-5,
-6,
-5,
-6,
-6,
-5,
-6,
-5,
-6,
-6,
-6,
-5,
-6,
-5,
-5,
-5,
-5,
-6,
-6,
-6,
-6,
-5,
-6,
-4,
-6,
-6,
-6,
-6,
-6,
-6,
-6,
-5,
-6,
-6,
-6,
-6,
-6,
-5,
-6,
-5,
-5,
-5,
-6,
-5,
-6,
-5,
-5,
-6,
-5,
-6,
-6,
-5,
-6,
-5,
-5,
-5,
-5,
-6,
-5,
-5,
-5,
-5,
-6,
-6,
-6,
-6,
-6,
-6,
-6,
-6,
-6,
-5,
-6,
-6,
-6,
-6,
-6,
-6,
-5,
-6,
-6,
-6,
-5,
-5,
-6,
-5,
-6,
-6,
-5,
-6,
-6,
-6,
-5,
-4,
-5,
-6,
-6,
-5,
-6,
-5,
-6,
-5,
-5,
-6,
-5,
-6,
-4,
-5,
-6,
-5,
-5,
-6,
-6,
-5,
-5,
-6,
-6,
-5,
-6,
-6,
-6,
-5,
-6,
-6,
-6,
-5,
-5,
-6,
-5,
-6,
-5,
-5,
-5,
-6,
-6,
-6,
-6,
-5,
-6,
-5,
-5,
-6,
-5,
-6,
-6,
-6,
-5,
-5,
-6,
-4,
-6,
-5,
-6,
-5,
-6,
-6,
-5,
-6,
-6,
-6,
-5,
-5,
-6,
-6,
-5,
-5,
-5,
-6,
-6,
-6,
-6,
-6,
-5,
-6,
-5,
-6,
-6,
-6,
-6,
-5,
-6,
-6,
-5,
-6,
-6,
-5,
-6,
-6,
-4,
-6,
-6,
-6,
-5,
-6,
-6,
-6,
-6,
-6,
-6,
-6,
-6,
-5,
-5,
-6,
-5,
-6,
-6,
-5,
-5,
-6,
-5,
-5,
-5,
-6,
-5,
-4,
-6,
-5,
-6,
-6,
-6,
-6,
-6,
-6,
-6,
-5,
-6,
-6,
-6,
-6,
-6,
-6,
-6,
-5,
-5,
-5,
-6,
-5,
-6,
-5,
-5,
-5,
-5,
-6,
-5,
-5,
-5,
-6,
-5,
-6,
-5,
-6,
-5,
-6,
-6,
-5,
-5,
-6,
-6,
-6,
-5,
-6,
-6,
-6,
-5,
-6,
-5,
-5,
-6,
-5,
-6,
-6,
-5,
-6,
-5,
-6,
-6,
-5,
-6,
-5,
-6,
-6,
-6,
-6,
-5,
-6,
-5,
-6,
-6,
-5,
-6,
-6,
-5,
-5,
-6,
-5,
-6,
-5,
-5,
-6,
-5,
-6,
-6,
-5,
-5,
-5,
-6,
-5,
-6,
4,
21,
36,
51,
66,
81,
95,
109,
122,
134,
147,
159,
161,
161,
161,
161,
161,
161,
161,
161,
161,
161,
161,
161,
161,
161,
161,
161,
161,
161,
161,
161,
161,
161,
161,
161,
161,
161,
161,
161,
161,
161,
161,
161,
161,
161,
161,
161,
161,
161,
161,
161,
161,
161,
161,
161,
161,
161,
161,
161,
161,
161,
161,
161,
161,
161,
161,
161,
161,
161,
161,
161,
161,
161,
161,
161,
161,
161,
161,
161,
161,
161,
161,
161,
161,
161,
161,
161,
161,
157,
153,
149,
145,
140,
137,
133,
129,
126,
122,
119,
116,
112,
110,
107,
104,
101,
98,
96,
94,
91,
88,
86,
84,
82,
79,
77,
75,
74,
71,
69,
67,
66,
64,
63,
61,
60,
58,
56,
54,
53,
51,
50,
49,
48,
46,
45,
44,
42,
41,
40,
39,
37,
36,
36,
34,
34,
32,
32,
31,
30,
29,
29,
27,
26,
26,
25,
24,
23,
22,
22,
21,
20,
19,
19,
18,
18,
18,
17,
16,
16,
15,
14,
15,
13,
13,
13,
12,
12,
12,
11,
10,
10,
10,
10,
10,
9,
9,
7,
8,
7,
7,
7,
7,
6,
6,
6,
6,
5,
5,
5,
4,
4,
4,
4,
4,
3,
4,
3,
3,
2,
2,
2,
2,
2,
2,
2,
0,
2,
0,
1,
0,
1,
1,
0,
0,
0,
0,
0,
0,
0,
0,
-2,
-1,
-1,
-2,
-1,
-1,
-1,
-2,
-2,
-2,
-2,
-2,
-2,
-2,
-2,
-2,
-2,
-2,
-2,
-2,
-2,
-3,
-2,
-2,
-3,
-3,
-3,
-3,
-2,
-3,
-3,
-3,
-3,
-2,
-3,
-3,
-4,
-3,
-3,
-3,
-3,
-3,
-3,
-4,
-3,
-4,
-3,
-3,
-4,
-3,
-4,
-4,
-3,
-4,
-4,
-4,
-4,
-4,
-4,
-4,
-4,
-4,
-4,
-4,
-4,
-4,
-4,
-4,
-4,
-4,
-4,
-5,
-5,
-4,
-4,
-4,
-4,
-4,
-4,
-5,
-5,
-4,
-5,
-5,
-4,
-5,
-5,
-5,
-5,
-4,
-4,
-4,
-4,
-4,
-6,
-4,
-5,
-5,
-5,
-6,
-4,
-5,
-6,
-4,
-5,
-5,
-5,
-5,
-5,
-5,
-5,
-4,
-5,
-5,
-4,
-5,
-4,
-5,
-5,
-4,
-6,
-5,
-6,
-6,
-5,
-6,
-6,
-5,
-5,
-5,
-5,
-4,
-6,
-6,
-6,
-4,
-6,
-5,
-5,
-6,
-6,
-5,
-6,
-4,
-5,
-6,
-6,
-5,
-5,
-6,
-4,
-6,
-6,
-6,
-5,
-5,
-5,
-5,
-5,
-5,
-5,
-5,
-6,
-4,
-6,
-5,
-6,
-6,
-6,
-6,
-6,
-5,
-5,
-5,
-5,
-5,
-5,
-5,
-5,
-5,
-6,
-5,
-5,
-5,
-5,
-5,
-4,
-6,
-5,
-5,
-6,
-6,
-6,
-5,
-6,
-5,
-6,
-6,
-6,
-6,
-5,
-5,
-5,
-4,
-5,
-6,
-6,
-5,
-6,
-6,
-6,
-6,
-6,
-5,
-5,
-6,
-5,
-6,
-5,
-5,
-5,
-5,
-5,
-6,
-6,
-5,
-5,
-4,
-5,
-5,
-5,
-5,
-6,
-6,
-5,
-5,
-5,
-6,
-6,
-6,
-5,
-5,
-5,
-5,
-6,
-5,
-5,
-5,
-5,
-6,
-6,
-6,
-5,
-5,
-4,
-5,
-6,
-5,
-4,
-4,
-6,
-5,
-6,
-4,
-5,
-5,
-5,
-6,
-5,
-5,
-5,
-6,
-5,
-6,
-5,
-5,
-5,
-6,
-5,
-6,
-5,
-5,
-6,
-5,
-6,
-6,
-6,
-6,
-5,
-5,
-6,
-6,
-5,
-5,
-5,
-6,
-5,
-6,
-6,
-5,
-6,
-6,
-5,
-6,
-4,
-5,
-5,
-4,
-6,
-5,
-5,
-6,
-6,
-6,
-5,
-5,
-5,
-6,
-6,
-6,
-6,
-5,
-6,
-5,
-5,
-6,
-6,
-5,
-4,
-6,
-5,
-5,
-5,
-6,
-4,
-6,
-6,
-6,
-5,
-5,
-6,
-5,
-6,
-5,
-6,
-6,
-5,
-5,
-6,
-5,
-6,
-4,
-6,
-6,
-6,
-5,
-6,
-6,
-5,
-5,
-5,
-6,
-6,
-6,
-5,
-5,
-6,
-5,
-5,
-6,
-6,
-6,
-5,
-5,
-6,
-5,
-5,
-6,
-5,
-6,
-5,
-6,
-6,
-6,
-5,
-5,
-5,
-4,
-6,
-6,
-4,
-6,
-5,
-4,
-6,
-5,
-6,
-5,
-6,
-6,
-6,
-6,
-5,
-6,
-6,
-5,
-6,
-6,
-6,
-5,
-5,
-5,
-5,
-5,
-6,
-5,
-6,
-5,
-6,
-6,
-5,
-6,
-6,
-6,
-6,
-6,
-5,
-6,
-6,
-5,
-6,
-5,
-5,
-6,
-6,
-5,
-5,
-6,
-6,
-5,
-5,
-5,
-6,
-6,
-6,
-6,
-5,
-6,
-5,
-6,
-5,
-6,
-6,
-5,
-5,
-5,
-5,
-5,
-5,
-5,
-6,
-6,
-6,
-6,
-6,
-6,
-6,
-6,
-5,
-5,
-6,
-5,
-6,
-5,
-5,
-6,
-5,
-6,
-6,
-6,
-6,
-6,
-6,
-6,
-5,
-6,
-6,
-6,
-6,
-6,
-5,
-5,
-5,
-5,
-5,
-6,
-6,
-6,
-5,
-6,
-5,
-6,
-6,
-5,
-5,
-6,
-6,
-6,
-6,
-6,
-6,
-5,
-5,
-5,
-6,
-6,
-5,
-6,
-6,
-5,
-6,
-6,
-5,
-6,
-5,
-6,
-5,
-6,
-6,
-5,
-6,
-6,
-5,
-6,
-5,
-6,
-4,
-5,
-6,
-5,
-6,
-6,
-6,
-5,
-6,
-5,
-6,
-5,
-6,
-5,
-5,
-6,
-5,
-4,
-5,
-5,
-5,
-5,
-6,
-6,
-6,
-6,
-5,
-6,
-5,
-6,
-6,
-5,
-5,
-5,
-6,
-6,
-5,
-5,
-5,
-5,
-5,
-5,
-6,
-6,
-5,
-6,
-5,
-5,
-6,
-6,
-4,
-6,
-5,
-6,
-6,
-5,
-6,
-6,
-6,
-5,
-4,
-6,
-5,
-5,
-5,
-6,
-6,
-6,
-6,
-5,
-5,
-5,
-5,
-6,
-5,
-6,
-5,
-5,
-5,
-5,
-6,
-5,
-6,
-5,
-5,
-5,
-6,
-6,
-6,
-5,
-5,
-5,
-6,
-5,
-5,
-5,
-5,
-6,
-5,
-5,
-5,
-5,
-5,
-6,
-6,
-5,
-6,
-5,
-6,
-6,
-5,
-6,
-6,
-5,
-6,
-5,
-5,
-6,
-5,
-6,
-6,
-6,
-6,
-6,
-6,
-6,
-6,
-6,
-4,
-5,
-5,
-6,
-6,
-5,
-6,
-5,
-5,
-6,
-6,
-6,
-5,
-6,
-6,
-6,
-5,
-5,
-5,
-5,
-6,
-6,
-6,
-6,
-5,
-6,
-6,
-5,
-5,
-5,
-6,
-5,
-5,
-6,
-5,
-5,
-5,
-5,
-6,
-6,
-5,
-6,
-6,
-6,
-6,
-6,
-6,
-5,
-6,
-6,
-6,
-6,
-5,
-5,
-6,
-5,
-6,
-5,
-6,
-5,
-6,
-5,
-5,
-5,
-5,
-5,
-6,
-6,
-6,
-5,
-6,
-6,
-5,
-6,
-5,
-5,
-5,
-6,
-6,
-5,
-6,
-6,
-5,
-6,
-6,
-5,
-5,
-6,
-6,
-6,
-5,
-6,
-6,
-6,
-6,
-6,
-4,
-6,
-5,
-6,
-6,
-5,
-6,
-5,
-5,
-6,
-6,
-4,
-6,
-6,
-5,
-5,
-6,
-6,
-6,
-6,
-6,
-5,
-5,
-5,
-5,
-6,
-6,
-5,
-6,
-5,
-6,
-5,
-5,
-6,
-6,
-5,
-6,
-5,
-6,
-6,
-5,
-5,
-6,
-5,
-5,
-6,
-6,
-5,
-5,
-5,
-5,
-6,
-5,
-5,
-5,
-5,
-5,
-6,
-5,
-5,
-5,
-6,
-6,
-6,
-6,
-5,
-6,
-6,
-6,
-6,
-5,
-5,
-5,
-5,
-6,
-6,
-6,
-5,
-6,
-5,
-5,
-6,
-5,
-6,
-6,
-5,
-6,
-5,
-6,
-5,
-6,
-6,
-6,
-4,
-5,
-5,
-6,
-6,
-5,
-6,
-5,
-5,
-6,
-5,
-6,
-5,
-6,
-5,
-6,
-6,
-5,
-6,
-6,
-6,
-6,
-5,
-5,
-6,
-6,
-6,
-5,
-6,
-6,
-5,
-6,
-5,
-5,
-5,
-5,
-5,
-6,
-6,
-4,
-6,
-6,
-6,
-6,
-5,
-6,
-5,
-5,
-5,
-6,
-6,
-6,
-6,
-6,
-6,
-6,
-6,
-5,
-6,
-6,
-5,
-6,
-5,
-6,
-5,
-6,
-5,
-6,
-5,
-5,
-5,
-6,
-6,
-6,
-6,
-6,
-5,
-6,
-5,
-5,
-6,
-6,
-5,
-5,
-6,
-6,
-5,
-5,
-6,
-6,
-6,
-6,
-6,
-5,
-4,
-5,
-5,
-6,
-6,
-4,
-6,
-6,
-6,
-6,
-6,
-6,
-6,
-6,
-5,
-6,
-5,
-5,
-6,
-6,
-6,
-6,
-6,
-6,
-6,
-5,
-5,
-6,
-6,
-6,
-6,
-5,
-5,
-6,
-6,
-6,
-6,
-5,
-5,
-6,
-5,
-6,
-6,
-6,
-6,
-6,
-5,
-6,
-6,
-6,
-6,
-5,
-5,
-6,
-6,
-6,
-5,
-6,
-5,
-6,
-5,
-5,
-5,
-6,
-6,
-5,
-5,
-5,
-6,
-5,
-6,
-4,
-6,
-6,
-6,
-6,
-5,
-6,
-4,
-6,
-5,
-5,
-6,
-5,
-6,
-5,
-5,
-6,
-5,
-6,
-6,
-5,
-4,
-6,
-5,
-6,
-5,
-6,
-5,
-6,
-5,
-5,
-6,
-6,
-6,
-6,
-6,
-6,
-6,
-5,
-6,
-6,
-6,
-5,
-5,
-5,
-6,
-5,
-6,
-6,
-5,
-6,
-6,
-5,
-6,
-6,
-5,
-5,
-5,
-5,
-6,
-5,
-5,
-5,
-5,
-5,
-5,
-4,
-6,
-4,
-6,
-6,
-5,
-5,
-6,
-6,
-4,
-6,
-6,
-6,
-4,
-5,
-6,
-4,
-6,
-6,
-6,
-6,
-6,
-5,
-6,
-6,
-5,
-6,
-6,
-6,
-5,
-6,
-5,
-6,
-6,
-5,
-6,
-5,
-5,
-5,
-5,
-6,
-6,
-6,
-5,
-6,
-5,
-6,
-6,
-6,
-6,
-6,
-5,
-6,
-5,
-6,
-5,
-6,
-6,
-5,
-6,
-5,
-6,
-6,
-6,
-6,
-6,
-5,
-5,
-5,
-5,
-6,
-5,
-6,
-4,
-5,
-5,
-5,
-6,
-6,
-5,
-5,
-5,
-6,
-5,
-5,
-6,
-5,
-5,
-5,
-6,
-5,
-6,
-6,
-5,
-6,
-6,
-4,
-5,
-4,
-6,
-6,
-5,
-6,
-4,
-6,
-6,
-5,
-6,
-5,
-6,
-6,
-6,
-6,
-5,
-6,
-6,
-5,
-4,
-6,
-6,
-5,
-5,
-6,
-6,
-6,
-6,
-6,
-6,
-6,
-6,
-5,
-6,
-5,
-6,
-5,
-6,
-5,
-5,
-6,
-6,
-5,
-5,
-6,
-6,
-5,
-6,
-6,
-5,
-6,
-5,
-6,
-6,
-6,
-6,
-6,
-5,
-6,
-6,
-5,
-5,
-5,
-6,
-6,
-5,
-6,
-5,
-6,
-6,
-6,
-6,
-5,
-6,
-6,
-6,
-6,
-4,
-6,
-5,
-6,
-6,
-5,
-5,
-6,
-6,
-6,
-5,
-6,
-6,
-6,
-6,
-6,
-5,
-6,
-5,
-6,
-5,
-6,
-5,
-6,
-5,
-5,
-5,
-5,
-5,
-5,
-6,
-4,
-6,
-5,
-5,
-6,
-6,
-5,
-6,
-5,
-6,
-6,
-6,
-6,
-5,
-6,
-6,
-6,
-6,
-5,
-6,
-5,
-5,
-5,
-6,
-6,
-6,
-5,
-5,
-5,
-5,
-6,
-6,
-5,
-5,
-6,
-6,
-5,
-4,
-5,
-5,
-5,
-6,
-5,
-6,
-5,
-6,
-6,
-6,
-6,
-6,
-6,
-5,
-6,
-6,
-5,
-6,
-6,
-6,
-5,
-5,
-5,
-6,
-6,
-6,
-5,
-5,
-6,
-5,
-6,
-6,
-4,
-6,
-5,
-6,
-6,
-5,
-6,
-6,
-6,
-6,
-5,
-6,
-5,
-6,
-6,
-6,
-6,
-6,
-5,
-5,
-6,
-6,
-5,
-5,
-5,
-6,
-6,
-4,
-5,
-6,
-6,
-6,
-5,
-6,
-5,
-4,
-6,
-6,
-6,
-6,
-5,
-6,
-6,
-5,
-5,
-6,
-6,
-5,
-6,
-6,
-6,
-6,
-5,
-6,
-6,
-6,
-6,
-6,
-6,
-5,
-6,
-6,
-6,
-6,
-6,
-5,
-6,
-5,
-6,
-5,
-6,
-5,
-5,
-5,
-6,
-5,
-6,
-6,
-6,
-5,
-6,
-6,
-6,
-4,
-6,
-6,
-6,
-6,
-6,
-6,
-6,
-6,
-5,
-7,
-5,
-6,
-5,
-5,
-6,
-6,
-6,
-5,
-6,
-5,
-5,
-6,
-6,
-5,
-6,
-6,
-6,
-6,
-5,
-6,
-6,
-6,
-6,
-6,
-6,
-6,
-5,
-5,
-6,
-6,
-6,
-6,
-6,
-6,
-5,
-6,
-5,
-5,
-6,
-6,
-5,
-6,
-5,
-4,
-5,
-5,
-5,
-6,
-5,
-5,
-6,
-6,
-6,
-5,
-6,
-6,
-6,
-5,
-5,
-5,
-6,
-5,
-6,
-5,
-6,
-6,
-5,
-6,
-6,
-5,
-5,
-6,
-6,
-5,
-6,
-6,
-6,
-6,
-6,
-6,
-6,
-6,
-5,
-5,
-6,
-6,
-5,
-5,
-5,
-5,
-6,
-5,
-5,
-5,
-5,
-5,
-5,
-5,
-6,
-6,
-5,
-6,
-4,
-5,
-5,
-5,
-6,
-6,
-5,
-6,
-6,
-5,
-6,
-6,
-5,
-6,
-6,
-6,
-6,
-6,
-6,
-6,
-6,
-6,
-5,
-6,
-6,
-6,
-6,
-6,
-6,
-5,
-6,
-6,
-5,
-5,
-5,
-6,
-6,
-5,
-5,
-6,
-6,
-5,
-6,
-6,
-6,
-6,
-6,
-5,
-5,
-5,
-5,
-6,
-5,
-6,
-4,
-5,
-6,
-6,
-6,
-6,
-6,
-6,
-6,
-6,
-6,
-5,
-6,
-5,
-5,
-6,
-6,
-6,
-6,
-6,
-6,
-5,
-6,
-5,
-5,
-5,
-5,
-6,
-6,
-5,
-6,
-6,
-4,
-6,
-5,
-6,
-6,
-6,
-6,
-6,
-6,
-6,
-6,
-6,
-6,
-5,
-5,
-6,
-6,
-6,
-6,
-6,
-6,
-5,
-6,
-5,
-6,
-6,
-5,
-6,
-5,
-6,
-6,
-6,
-6,
-6,
-5,
-6,
-6,
-6,
-6,
-5,
-5,
-6,
-6,
-6,
-5,
-6,
-5,
-6,
-5,
-5,
-6,
-6,
-6,
-5,
-6,
-4,
-6,
-6,
-5,
-6,
-6,
-6,
-6,
-5,
-6,
-5,
-5,
-6,
-6,
-5,
-5,
-6,
-5,
-6,
-5,
-6,
-6,
-6,
-5,
-6,
-5,
-6,
-6,
-6,
-6,
-6,
-6,
-6,
-5,
-6,
-6,
-6,
-5,
-6,
-6,
-6,
-5,
-6,
-6,
-4,
-5,
-5,
-6,
-6,
-5,
-6,
-5,
-5,
-5,
-5,
-6,
-6,
-6,
-5,
-5,
-6,
-6,
-6,
-6,
-5,
-6,
-6,
-6,
-5,
-6,
-6,
-5,
-5,
