Actividad 1/ALL0002/A0002CH2.CSV

Memory Length,4000,
Trigger Level,3.920E-01,
Source,CH2,
Probe,1X,
Vertical Units,V,
Vertical Scale,2.000E-01,
Vertical Position,-4.080E-01,
Horizontal Units,s,
Horizontal Scale,5.000E-02,
Horizontal Position,0.000E+00,
Horizontal Mode,Main,
Sampling Period,2.000E-04,
Firmware,V1.11,
Time, ,
Mode,Fast,
Waveform Data,
178,
178,
47,
47,
47,
47,
47,
46,
46,
46,
46,
45,
45,
44,
44,
44,
44,
44,
44,
44,
43,
43,
43,
43,
42,
42,
42,
42,
41,
41,
40,
41,
40,
41,
40,
40,
39,
39,
39,
39,
39,
39,
39,
38,
38,
37,
38,
38,
38,
37,
37,
37,
36,
36,
36,
36,
36,
35,
35,
35,
35,
35,
35,
35,
34,
35,
34,
34,
34,
34,
34,
33,
33,
33,
32,
32,
33,
32,
32,
32,
31,
31,
31,
31,
31,
31,
31,
31,
30,
30,
30,
29,
30,
30,
29,
29,
29,
29,
28,
28,
28,
28,
28,
27,
28,
28,
27,
27,
27,
27,
27,
27,
27,
26,
26,
26,
26,
26,
25,
25,
25,
25,
25,
25,
25,
25,
24,
24,
24,
24,
23,
24,
24,
24,
23,
23,
23,
23,
23,
23,
23,
23,
23,
23,
22,
22,
22,
22,
21,
22,
21,
21,
21,
21,
21,
21,
21,
21,
20,
20,
20,
20,
19,
20,
20,
19,
20,
19,
19,
19,
19,
19,
19,
19,
19,
19,
18,
19,
19,
18,
18,
18,
18,
18,
18,
17,
17,
18,
18,
17,
17,
17,
17,
17,
17,
17,
17,
16,
16,
16,
16,
16,
16,
16,
16,
15,
16,
16,
15,
15,
16,
15,
15,
15,
14,
15,
15,
15,
14,
15,
14,
14,
14,
14,
14,
14,
14,
14,
13,
13,
13,
13,
14,
13,
12,
13,
14,
13,
13,
13,
13,
13,
12,
12,
12,
12,
12,
12,
12,
12,
12,
12,
12,
11,
11,
11,
12,
11,
11,
11,
11,
11,
11,
11,
11,
11,
11,
11,
11,
11,
11,
11,
11,
10,
10,
10,
11,
10,
10,
10,
10,
10,
10,
10,
9,
9,
10,
9,
10,
9,
9,
9,
9,
9,
9,
9,
8,
8,
8,
8,
8,
8,
9,
9,
9,
8,
8,
8,
8,
8,
7,
8,
8,
7,
8,
7,
8,
7,
8,
7,
8,
7,
7,
7,
7,
7,
7,
7,
7,
7,
7,
7,
7,
7,
7,
7,
6,
7,
7,
7,
7,
7,
7,
6,
7,
7,
7,
6,
6,
6,
7,
6,
6,
6,
6,
6,
5,
6,
5,
5,
5,
5,
5,
5,
5,
5,
5,
5,
5,
5,
4,
5,
6,
4,
5,
5,
4,
5,
4,
5,
4,
5,
4,
4,
4,
5,
4,
4,
4,
4,
4,
4,
4,
4,
4,
4,
4,
3,
3,
4,
4,
3,
3,
4,
3,
4,
3,
3,
3,
3,
4,
3,
3,
3,
3,
3,
3,
3,
3,
3,
3,
3,
3,
3,
3,
3,
3,
3,
3,
3,
3,
2,
3,
2,
2,
3,
2,
3,
3,
3,
3,
3,
2,
2,
2,
3,
2,
2,
2,
3,
2,
2,
3,
2,
2,
2,
2,
2,
2,
2,
2,
2,
2,
2,
2,
2,
1,
2,
2,
2,
2,
2,
1,
1,
2,
1,
1,
1,
1,
1,
1,
1,
1,
1,
1,
2,
1,
1,
1,
2,
1,
1,
1,
1,
1,
1,
1,
1,
1,
1,
1,
1,
0,
1,
0,
0,
0,
1,
0,
1,
1,
1,
1,
0,
0,
0,
1,
0,
0,
0,
1,
1,
1,
0,
1,
0,
-1,
1,
0,
0,
0,
0,
0,
0,
0,
0,
0,
0,
1,
0,
0,
0,
0,
0,
0,
0,
0,
0,
0,
0,
-1,
0,
0,
0,
-1,
0,
-1,
0,
0,
0,
-1,
0,
-1,
0,
-1,
-1,
-1,
-1,
-1,
-1,
0,
-1,
-1,
-1,
-1,
-1,
0,
0,
-1,
-1,
-1,
-1,
-1,
-1,
-1,
-1,
-1,
0,
-1,
-1,
-1,
-1,
-1,
-1,
-1,
-1,
-1,
-1,
-1,
-1,
-1,
0,
-1,
-1,
-1,
-1,
-1,
-1,
-1,
-1,
-1,
-1,
-1,
-1,
-1,
-1,
-1,
-1,
-1,
-1,
-1,
-1,
-1,
-1,
-1,
-1,
-2,
-1,
-1,
-1,
-1,
-2,
-1,
-2,
-1,
-2,
-1,
-2,
-1,
-2,
-1,
-1,
-1,
-2,
-2,
-1,
-1,
-2,
-1,
-2,
-1,
-1,
-2,
-2,
-1,
-1,
-2,
-1,
-2,
-1,
-2,
-1,
-2,
-1,
-2,
-2,
-2,
-2,
-2,
-1,
-2,
-2,
-1,
-3,
-1,
-2,
-2,
-1,
-2,
-2,
-2,
-1,
-2,
-2,
-2,
-3,
-3,
-2,
-2,
-2,
-2,
-2,
-2,
-2,
-2,
-3,
-2,
-2,
-3,
-2,
-2,
-2,
-2,
-3,
-2,
-2,
-3,
-3,
-2,
-2,
-2,
-2,
-2,
-2,
-2,
-2,
-3,
-3,
-2,
-3,
-2,
-3,
-3,
-2,
-2,
-3,
-2,
-2,
-2,
-3,
-2,
-2,
-3,
-2,
-3,
-3,
-3,
-3,
-3,
-3,
-2,
-3,
-2,
-3,
-2,
-2,
-3,
-2,
-2,
-2,
-3,
-3,
-3,
-3,
-3,
-2,
-3,
-3,
-2,
-3,
-3,
-3,
-3,
-3,
-4,
-3,
-3,
-3,
-3,
-3,
-3,
-3,
-2,
-3,
-3,
-3,
-2,
-3,
-3,
-3,
-2,
-3,
-3,
-3,
-3,
-3,
-3,
-3,
-4,
-3,
-3,
-3,
-3,
-3,
-3,
-3,
-3,
-3,
-3,
-3,
-4,
-4,
-3,
-3,
-4,
-3,
-3,
-3,
-3,
-3,
-3,
-3,
-3,
-4,
-4,
-3,
-3,
-3,
-3,
-4,
-3,
-3,
-3,
-3,
-3,
-3,
-3,
-3,
-3,
-3,
-4,
-4,
-4,
-3,
-3,
-4,
-4,
-3,
-3,
-3,
-4,
-3,
-3,
-4,
-4,
-3,
-3,
-3,
-4,
-4,
-3,
-4,
-4,
-4,
-3,
-4,
-3,
-3,
-3,
-3,
-4,
-3,
-4,
-3,
-3,
-3,
-4,
-3,
-3,
-3,
-4,
-4,
-3,
-4,
-3,
-3,
-4,
-4,
-4,
-4,
-4,
-3,
-3,
-3,
-4,
-4,
-4,
-3,
-4,
-4,
-4,
-3,
-3,
-4,
-4,
-4,
-4,
-4,
-3,
-3,
-4,
-3,
-4,
-4,
-4,
-4,
-4,
-4,
-4,
-4,
-3,
-4,
-3,
-4,
-4,
-4,
-4,
-3,
-4,
-4,
-4,
-4,
-4,
-3,
-3,
-4,
-4,
-4,
-3,
-4,
-3,
-4,
-4,
-4,
-4,
-3,
-4,
-4,
-4,
-4,
-4,
-4,
-4,
-4,
-4,
-4,
-4,
-3,
-4,
-4,
-4,
-4,
-3,
-4,
-4,
-4,
-4,
-4,
-4,
-3,
-4,
-4,
-3,
-4,
-4,
-4,
-4,
-4,
-4,
-4,
-4,
-3,
-4,
-4,
-4,
-4,
-4,
-4,
-4,
-4,
-4,
-4,
-4,
-4,
-4,
-4,
-4,
-4,
-4,
-4,
-4,
-4,
-4,
-4,
-4,
-4,
-4,
-4,
-4,
-4,
-3,
-4,
-4,
-4,
-4,
-4,
-4,
-4,
-4,
-4,
-4,
-4,
-4,
-4,
-4,
-4,
-4,
-4,
-4,
-4,
-4,
-4,
-4,
-4,
-4,
-4,
-5,
-4,
-4,
-4,
-4,
-4,
-4,
-4,
-4,
-4,
-4,
-4,
-4,
-4,
-4,
-4,
-4,
-4,
-5,
-4,
-4,
-4,
-4,
-5,
-4,
-4,
-4,
-4,
-4,
-4,
-4,
-4,
-4,
-4,
-4,
-4,
-4,
-4,
-4,
-4,
-4,
-4,
-4,
-4,
-4,
-4,
-4,
-4,
-4,
-4,
-4,
-5,
-4,
-4,
-4,
-4,
-4,
-4,
-4,
-4,
-4,
-4,
-5,
-4,
-4,
-4,
-5,
-4,
-5,
-4,
-4,
-4,
-4,
-4,
-5,
-4,
-4,
-4,
-4,
-4,
-4,
-4,
-4,
-4,
-4,
-4,
-4,
-4,
-4,
-4,
-4,
-5,
-4,
-5,
-4,
-4,
-4,
-4,
-4,
-4,
-5,
-4,
-4,
-4,
-5,
-5,
-4,
-4,
-5,
-4,
-4,
-5,
-4,
-4,
-5,
-4,
-4,
-5,
-4,
-4,
-4,
-4,
-4,
-4,
-4,
-4,
-4,
-5,
-4,
-4,
-5,
-4,
-4,
-4,
-4,
-4,
-4,
-5,
-4,
-4,
-4,
-4,
-4,
-4,
-5,
-4,
-4,
-4,
-4,
-5,
-4,
-5,
-5,
-4,
-5,
-4,
-4,
-4,
-4,
-4,
-4,
-5,
-4,
-4,
-4,
-5,
-4,
-4,
-4,
-4,
-4,
-4,
-4,
-4,
-5,
-4,
-5,
-5,
-4,
-5,
-4,
-4,
-5,
-5,
-4,
-4,
-4,
-5,
-4,
-5,
-5,
-4,
-4,
-4,
-4,
-4,
-5,
-4,
-4,
-4,
-5,
-4,
-4,
-5,
-4,
-4,
-4,
-4,
-4,
-5,
-4,
-4,
-4,
-4,
-4,
-4,
-4,
-4,
-4,
-5,
-4,
-4,
-4,
-5,
-4,
-5,
-4,
-4,
-4,
-4,
-4,
-4,
-5,
-4,
-4,
-4,
-4,
-4,
-4,
-4,
-4,
-4,
-5,
-4,
-4,
-4,
-4,
-4,
-5,
-4,
-5,
-4,
-4,
-5,
-4,
-4,
-4,
-4,
-4,
-5,
-4,
-4,
-4,
-4,
-5,
-5,
-4,
-4,
-4,
-4,
-4,
-4,
-4,
-4,
-4,
-4,
-4,
-5,
-4,
-4,
-4,
-4,
-4,
-4,
-4,
-4,
-4,
-5,
-5,
-4,
-4,
-5,
-5,
-4,
-4,
-5,
-4,
-5,
-4,
-4,
-4,
-4,
-4,
-4,
-4,
-5,
-4,
-5,
-5,
-4,
-4,
-5,
-4,
-5,
-5,
-5,
-4,
-4,
-4,
-5,
-5,
-4,
-5,
-5,
-4,
-4,
-4,
-4,
-5,
-4,
-4,
-4,
-4,
-5,
-5,
-4,
-5,
-5,
-4,
-4,
-4,
-4,
-5,
-4,
-4,
-4,
-4,
-5,
-4,
-5,
-5,
-5,
-4,
-5,
-4,
-4,
-5,
-4,
-5,
-5,
-4,
-4,
-4,
-5,
-5,
-4,
-5,
-5,
-5,
-4,
-4,
-5,
-4,
-5,
-5,
-4,
-4,
-4,
-5,
-4,
-5,
-5,
-4,
-5,
-5,
-4,
-5,
-5,
-4,
-4,
-5,
-5,
-5,
-4,
-4,
-5,
-4,
-5,
-5,
-4,
-5,
-5,
-4,
-4,
-5,
-5,
-5,
-5,
-4,
-5,
-5,
-5,
-5,
-4,
-4,
-4,
-5,
-4,
-5,
-4,
-4,
-5,
-5,
-4,
-5,
-4,
-4,
-4,
-4,
-4,
-4,
-5,
-4,
-5,
-5,
-4,
-5,
-4,
-5,
-4,
-4,
-4,
-5,
-4,
-5,
-4,
-5,
-4,
-4,
-4,
-5,
-4,
-4,
-5,
-5,
-5,
-5,
-4,
-5,
-4,
-4,
-4,
-4,
-5,
-5,
-4,
-5,
-5,
-5,
-4,
-4,
-4,
-5,
-4,
-5,
-5,
-4,
-4,
-4,
-4,
-4,
-4,
-5,
-5,
-5,
-4,
-4,
-4,
-4,
-4,
-5,
-5,
-5,
-4,
-4,
-4,
-5,
-5,
-5,
-5,
-5,
-5,
-5,
-5,
-4,
-5,
-4,
-4,
-4,
-5,
-5,
-5,
-4,
-5,
-5,
-5,
-4,
-4,
-5,
-4,
-5,
-4,
-5,
-5,
-5,
-4,
-5,
-5,
-4,
-5,
-5,
-5,
-5,
-4,
-4,
-4,
-4,
-4,
-4,
-5,
-4,
-5,
-5,
-5,
-5,
-5,
-5,
-5,
-5,
-4,
-4,
-5,
-5,
-5,
-4,
-5,
-4,
-4,
-5,
-5,
-5,
-4,
-5,
-4,
-4,
-5,
-4,
-4,
-5,
-5,
-4,
-5,
-5,
-4,
-4,
-5,
-5,
-5,
-5,
-5,
-4,
-4,
-5,
-5,
-5,
-4,
-5,
-4,
-5,
-5,
-4,
-4,
-5,
-5,
-5,
-5,
-5,
-5,
-5,
-5,
-5,
-4,
-5,
-5,
-4,
-5,
-4,
-4,
-5,
-5,
-5,
-4,
-5,
-4,
-5,
-5,
-4,
-5,
-5,
-5,
-4,
-5,
-5,
-5,
-4,
-4,
-4,
-5,
-5,
-5,
-4,
-5,
-5,
-5,
-5,
-5,
-5,
-5,
-4,
-5,
-4,
-4,
-5,
-5,
-4,
-5,
-5,
-4,
-5,
-5,
-5,
-4,
-5,
-5,
-5,
-5,
-5,
-4,
-4,
-4,
-4,
-5,
-4,
-4,
-5,
-4,
-5,
-4,
-5,
-4,
-5,
-5,
-4,
-5,
-4,
-5,
-4,
-5,
-5,
-5,
-5,
-5,
-5,
-4,
-5,
-5,
-5,
-4,
-5,
-5,
-5,
-4,
-5,
-5,
-5,
-5,
-4,
-4,
-4,
-4,
-5,
-5,
-5,
-5,
-5,
-5,
-5,
-5,
-5,
-5,
-5,
-5,
-5,
-5,
-4,
-5,
-5,
-5,
-4,
-4,
-5,
-5,
-5,
-5,
-4,
-4,
-4,
-4,
-5,
-5,
-5,
-4,
-5,
-5,
-4,
-4,
-4,
-5,
-5,
-5,
-5,
-4,
-5,
-5,
-4,
-5,
-5,
-5,
-5,
-5,
-5,
-5,
-5,
-4,
-5,
-5,
-5,
-5,
-5,
-4,
-5,
-5,
-4,
-4,
-4,
-5,
-5,
-5,
-5,
-5,
-5,
-5,
-5,
-5,
-5,
-5,
-5,
-5,
-4,
-4,
-4,
-5,
-5,
-5,
-5,
-5,
-5,
-4,
-4,
-4,
-5,
-5,
-4,
-5,
-5,
-5,
-4,
-5,
-4,
-4,
-4,
-5,
-5,
-5,
-4,
-5,
-5,
-4,
-4,
-4,
-5,
-4,
-4,
-5,
-5,
-5,
-5,
-5,
-5,
-5,
-4,
-5,
-5,
-5,
-5,
-5,
-4,
-5,
-4,
-5,
-4,
-4,
-4,
-5,
-4,
-4,
-5,
-5,
-5,
-5,
-4,
-5,
-4,
-5,
-4,
-5,
-4,
-4,
-4,
-5,
-4,
-4,
-5,
-4,
-5,
-4,
-4,
-4,
-5,
-4,
-4,
-5,
-4,
-4,
-4,
-5,
-4,
-4,
-5,
-5,
-4,
-5,
-5,
-5,
-5,
-4,
-4,
-5,
-4,
-5,
-4,
-4,
-4,
-5,
-4,
-5,
-4,
-5,
-5,
-5,
-5,
-5,
-5,
-4,
-5,
-5,
-4,
-5,
-5,
-4,
-5,
-5,
-5,
-5,
-5,
-5,
-4,
-4,
-5,
-4,
-4,
-4,
-5,
-5,
-5,
-5,
-5,
-5,
-5,
-5,
-5,
-5,
-4,
-4,
-5,
-4,
-5,
-4,
-5,
-5,
-5,
-4,
-4,
-4,
-4,
-4,
-5,
-5,
-5,
-4,
-4,
-5,
-4,
-5,
-5,
-4,
-4,
-5,
-4,
-5,
-5,
-4,
-5,
-5,
-5,
-2,
1,
4,
7,
9,
13,
16,
18,
21,
24,
28,
30,
33,
35,
39,
41,
44,
47,
49,
52,
55,
57,
59,
63,
65,
68,
71,
73,
75,
78,
81,
83,
86,
88,
91,
94,
96,
99,
101,
104,
107,
109,
111,
114,
116,
118,
121,
123,
126,
129,
131,
133,
135,
137,
139,
143,
144,
147,
148,
151,
153,
155,
157,
160,
162,
164,
167,
169,
171,
173,
175,
177,
178,
178,
178,
178,
178,
178,
178,
178,
178,
178,
178,
178,
178,
178,
178,
178,
178,
178,
178,
178,
178,
178,
178,
178,
178,
178,
178,
178,
178,
178,
178,
178,
178,
178,
178,
178,
178,
178,
178,
178,
178,
178,
178,
178,
178,
178,
178,
178,
178,
178,
178,
178,
178,
178,
178,
178,
178,
178,
178,
178,
178,
178,
178,
178,
178,
178,
178,
178,
178,
178,
178,
178,
178,
178,
178,
178,
178,
178,
178,
178,
178,
178,
178,
178,
178,
178,
178,
178,
178,
178,
178,
178,
178,
178,
178,
178,
178,
178,
178,
178,
178,
178,
178,
178,
178,
178,
178,
178,
178,
178,
178,
178,
178,
178,
178,
178,
178,
178,
178,
178,
178,
178,
178,
178,
178,
178,
178,
178,
178,
178,
178,
178,
178,
178,
178,
178,
178,
178,
178,
178,
178,
178,
178,
178,
178,
178,
178,
178,
178,
178,
178,
178,
178,
178,
178,
178,
178,
178,
178,
178,
178,
178,
178,
178,
178,
178,
178,
178,
178,
178,
178,
178,
178,
178,
178,
178,
178,
178,
178,
178,
178,
178,
178,
178,
178,
178,
178,
178,
178,
178,
178,
178,
178,
178,
178,
178,
178,
178,
178,
178,
178,
178,
178,
178,
178,
178,
178,
178,
178,
178,
178,
178,
178,
178,
178,
178,
178,
178,
178,
178,
178,
178,
178,
178,
178,
178,
178,
178,
178,
178,
178,
178,
178,
178,
178,
178,
178,
178,
178,
178,
178,
178,
178,
178,
178,
178,
178,
178,
178,
178,
178,
178,
178,
178,
178,
178,
178,
178,
178,
178,
178,
178,
178,
178,
178,
178,
178,
178,
178,
178,
178,
178,
178,
178,
178,
178,
178,
178,
178,
178,
178,
178,
178,
178,
178,
178,
178,
178,
178,
178,
178,
178,
178,
178,
178,
178,
178,
178,
178,
178,
178,
178,
178,
178,
178,
178,
178,
178,
178,
178,
178,
178,
178,
178,
178,
178,
178,
178,
178,
178,
178,
178,
178,
178,
178,
178,
178,
178,
178,
178,
178,
178,
178,
178,
178,
178,
178,
178,
178,
178,
178,
178,
178,
178,
178,
178,
178,
178,
178,
178,
178,
178,
178,
178,
178,
178,
178,
178,
178,
178,
178,
178,
178,
178,
178,
178,
178,
178,
178,
178,
178,
178,
178,
178,
178,
178,
178,
178,
178,
178,
178,
178,
178,
178,
178,
178,
178,
178,
178,
178,
178,
178,
178,
178,
178,
178,
178,
178,
178,
178,
178,
178,
178,
178,
178,
178,
178,
178,
178,
178,
178,
178,
178,
178,
178,
178,
178,
178,
178,
178,
178,
178,
178,
178,
178,
178,
178,
178,
178,
178,
178,
178,
178,
178,
178,
178,
178,
178,
178,
178,
178,
178,
178,
178,
178,
178,
178,
178,
178,
178,
178,
178,
178,
178,
178,
178,
178,
178,
178,
178,
178,
178,
178,
178,
178,
178,
178,
178,
178,
178,
178,
178,
178,
178,
178,
178,
178,
178,
178,
178,
178,
178,
178,
178,
178,
178,
178,
178,
178,
178,
178,
178,
178,
178,
178,
178,
178,
178,
178,
178,
178,
178,
178,
178,
178,
178,
178,
178,
178,
178,
178,
178,
178,
178,
178,
178,
178,
178,
178,
178,
178,
178,
178,
178,
178,
178,
178,
178,
178,
178,
178,
178,
178,
178,
178,
178,
178,
178,
178,
178,
178,
178,
178,
178,
178,
178,
178,
178,
178,
178,
178,
178,
178,
178,
178,
178,
178,
178,
178,
178,
178,
178,
178,
178,
178,
178,
178,
178,
178,
178,
178,
178,
178,
178,
178,
178,
178,
178,
178,
178,
178,
178,
178,
178,
178,
178,
178,
178,
178,
178,
178,
178,
178,
178,
178,
178,
178,
178,
178,
178,
178,
178,
178,
178,
178,
178,
178,
178,
178,
178,
178,
178,
178,
178,
178,
178,
178,
178,
178,
178,
178,
178,
178,
178,
178,
178,
178,
178,
178,
178,
178,
178,
178,
178,
178,
178,
178,
178,
178,
178,
178,
178,
178,
178,
178,
178,
178,
178,
178,
178,
178,
178,
178,
178,
178,
178,
178,
178,
178,
178,
178,
178,
178,
178,
178,
178,
178,
178,
178,
178,
178,
178,
178,
178,
178,
178,
178,
178,
178,
178,
178,
178,
178,
178,
178,
178,
178,
178,
178,
178,
178,
178,
178,
178,
178,
178,
178,
178,
178,
178,
178,
178,
178,
178,
178,
178,
178,
178,
178,
178,
178,
178,
178,
178,
178,
178,
178,
178,
178,
178,
178,
178,
178,
178,
178,
178,
178,
178,
178,
178,
178,
178,
178,
178,
178,
178,
178,
178,
178,
178,
178,
178,
178,
178,
178,
178,
178,
178,
178,
178,
178,
178,
178,
178,
178,
178,
178,
178,
178,
178,
178,
178,
178,
178,
178,
178,
178,
178,
178,
178,
178,
178,
178,
178,
178,
178,
178,
178,
178,
178,
178,
178,
178,
178,
178,
178,
178,
178,
178,
178,
178,
178,
178,
178,
178,
178,
178,
178,
178,
178,
178,
178,
178,
178,
178,
178,
178,
178,
178,
178,
178,
178,
178,
178,
178,
178,
178,
178,
178,
178,
178,
178,
178,
178,
178,
178,
178,
178,
178,
178,
178,
178,
178,
178,
178,
178,
178,
178,
178,
178,
178,
178,
178,
178,
178,
178,
178,
178,
178,
178,
178,
178,
178,
178,
178,
178,
178,
178,
178,
178,
178,
178,
178,
178,
178,
178,
178,
178,
178,
178,
178,
178,
178,
178,
178,
178,
178,
178,
178,
178,
178,
178,
178,
178,
178,
178,
178,
178,
178,
178,
178,
178,
178,
178,
178,
178,
178,
178,
178,
178,
178,
178,
178,
178,
178,
178,
178,
178,
178,
178,
178,
178,
178,
178,
178,
178,
178,
178,
178,
178,
178,
178,
178,
178,
178,
178,
178,
178,
178,
178,
178,
178,
178,
178,
178,
178,
178,
178,
178,
178,
178,
178,
178,
178,
178,
178,
178,
178,
178,
178,
178,
178,
178,
178,
178,
178,
178,
178,
178,
178,
178,
178,
178,
178,
178,
178,
178,
178,
178,
178,
178,
178,
178,
178,
178,
178,
178,
178,
178,
178,
178,
178,
178,
178,
178,
178,
178,
178,
178,
178,
178,
178,
178,
178,
178,
178,
178,
178,
178,
178,
178,
178,
178,
178,
178,
178,
178,
178,
178,
178,
178,
178,
178,
178,
178,
178,
178,
178,
178,
178,
178,
178,
178,
178,
178,
178,
178,
178,
178,
178,
178,
178,
178,
178,
178,
178,
178,
178,
178,
178,
178,
178,
178,
178,
178,
178,
178,
178,
178,
178,
178,
178,
178,
178,
178,
178,
178,
178,
178,
178,
178,
178,
178,
178,
178,
178,
178,
178,
178,
178,
178,
178,
178,
178,
178,
178,
178,
178,
178,
178,
178,
178,
178,
178,
178,
178,
178,
178,
178,
178,
178,
178,
178,
178,
178,
178,
178,
178,
178,
178,
178,
178,
178,
178,
178,
178,
178,
178,
178,
178,
178,
178,
178,
178,
178,
178,
178,
178,
178,
178,
178,
178,
178,
178,
178,
178,
178,
178,
178,
178,
178,
178,
178,
178,
178,
178,
178,
178,
178,
178,
178,
178,
178,
178,
178,
178,
178,
178,
178,
178,
178,
178,
178,
178,
178,
178,
178,
178,
178,
178,
178,
178,
178,
178,
178,
178,
178,
178,
178,
178,
178,
178,
178,
178,
178,
178,
178,
178,
178,
178,
178,
178,
178,
178,
178,
178,
178,
178,
178,
178,
178,
178,
178,
178,
178,
178,
178,
178,
178,
178,
178,
178,
178,
178,
178,
178,
178,
178,
178,
178,
178,
178,
178,
178,
178,
178,
178,
178,
178,
178,
178,
178,
178,
178,
178,
178,
178,
178,
178,
178,
178,
178,
178,
178,
178,
178,
178,
178,
178,
178,
178,
178,
178,
178,
178,
178,
178,
178,
178,
178,
178,
178,
178,
178,
178,
178,
178,
178,
178,
178,
178,
178,
178,
178,
178,
178,
178,
178,
178,
178,
178,
178,
178,
178,
178,
178,
178,
178,
178,
178,
178,
178,
178,
178,
178,
178,
178,
178,
178,
178,
178,
178,
178,
178,
178,
178,
178,
178,
178,
178,
178,
178,
178,
178,
178,
178,
178,
178,
178,
178,
178,
178,
178,
178,
178,
178,
178,
178,
178,
178,
178,
178,
178,
178,
178,
178,
178,
178,
178,
178,
178,
178,
178,
178,
178,
178,
178,
178,
178,
178,
178,
178,
178,
178,
178,
178,
178,
178,
178,
178,
178,
178,
178,
178,
178,
178,
178,
178,
178,
178,
178,
178,
178,
178,
178,
178,
178,
178,
178,
178,
178,
178,
178,
178,
178,
178,
178,
178,
178,
178,
178,
178,
178,
178,
178,
178,
178,
178,
178,
178,
178,
178,
178,
178,
178,
178,
178,
178,
178,
178,
178,
178,
178,
178,
178,
178,
178,
178,
178,
178,
178,
178,
178,
178,
178,
178,
178,
178,
178,
178,
178,
178,
178,
178,
178,
178,
178,
178,
178,
178,
178,
178,
178,
178,
178,
178,
178,
178,
178,
178,
178,
178,
178,
178,
178,
178,
178,
178,
178,
178,
178,
178,
178,
178,
178,
178,
178,
178,
178,
178,
178,
178,
178,
178,
178,
178,
178,
178,
178,
178,
178,
178,
178,
178,
178,
178,
178,
178,
178,
178,
178,
178,
178,
178,
178,
178,
178,
178,
178,
178,
178,
178,
178,
178,
178,
178,
178,
178,
178,
178,
178,
178,
178,
178,
178,
178,
178,
178,
178,
178,
178,
178,
178,
178,
178,
178,
178,
178,
178,
178,
178,
178,
178,
178,
178,
178,
178,
178,
178,
178,
178,
178,
178,
178,
178,
178,
178,
178,
178,
178,
178,
178,
178,
178,
178,
178,
178,
178,
178,
178,
178,
178,
178,
178,
178,
178,
178,
178,
178,
178,
178,
178,
178,
178,
178,
178,
178,
178,
178,
178,
178,
178,
178,
178,
178,
178,
178,
178,
178,
178,
178,
178,
178,
178,
178,
178,
178,
178,
178,
178,
178,
178,
178,
178,
178,
178,
178,
178,
178,
178,
178,
178,
178,
178,
178,
178,
178,
178,
178,
178,
178,
178,
178,
178,
178,
178,
178,
178,
178,
178,
178,
178,
178,
178,
178,
178,
178,
178,
178,
178,
178,
178,
178,
178,
178,
178,
178,
178,
178,
178,
178,
178,
178,
178,
178,
178,
178,
178,
178,
178,
178,
178,
178,
178,
178,
178,
178,
178,
178,
178,
178,
178,
178,
178,
178,
178,
178,
178,
178,
178,
178,
178,
178,
178,
178,
178,
178,
178,
178,
178,
178,
178,
178,
178,
178,
178,
178,
178,
178,
178,
178,
178,
178,
178,
178,
178,
178,
178,
178,
178,
178,
178,
178,
178,
178,
178,
178,
178,
178,
178,
178,
178,
178,
178,
178,
178,
178,
178,
178,
178,
178,
178,
178,
178,
178,
178,
178,
178,
178,
178,
178,
178,
178,
178,
178,
178,
178,
178,
178,
178,
178,
178,
178,
178,
178,
178,
178,
178,
178,
178,
178,
178,
178,
178,
178,
178,
178,
178,
178,
178,
178,
178,
178,
178,
178,
178,
178,
178,
178,
178,
178,
178,
178,
178,
178,
178,
178,
178,
178,
178,
178,
178,
178,
178,
178,
178,
178,
178,
178,
178,
178,
178,
178,
178,
178,
178,
178,
178,
178,
178,
178,
178,
178,
178,
178,
178,
178,
178,
178,
178,
178,
178,
178,
178,
178,
178,
178,
178,
178,
178,
178,
178,
178,
178,
178,
178,
178,
178,
178,
178,
178,
178,
178,
178,
178,
178,
178,
178,
178,
178,
178,
178,
178,
178,
178,
178,
178,
178,
178,
178,
178,
178,
178,
178,
178,
178,
178,
178,
178,
178,
178,
178,
178,
178,
178,
178,
178,
178,
178,
178,
178,
178,
178,
178,
178,
178,
178,
178,
178,
178,
178,
178,
178,
178,
178,
178,
178,
178,
178,
178,
178,
178,
178,
178,
178,
178,
178,
178,
178,
178,
178,
178,
178,
178,
178,
178,
178,
178,
178,
178,
178,
178,
178,
178,
178,
178,
178,
178,
178,
178,
178,
178,
178,
178,
178,
178,
178,
178,
178,
178,
178,
178,
178,
178,
178,
178,
178,
178,
178,
178,
178,
178,
178,
178,
178,
178,
178,
