Pruebas/ALL0004/A0004CH2.CSV

Memory Length,4000,
Trigger Level,8.400E-01,
Source,CH2,
Probe,1X,
Vertical Units,V,
Vertical Scale,2.000E-01,
Vertical Position,-4.000E-01,
Horizontal Units,s,
Horizontal Scale,2.500E-02,
Horizontal Position,0.000E+00,
Horizontal Mode,Main,
Sampling Period,1.000E-04,
Firmware,V1.12,
Time, ,
Mode,Fast,
Waveform Data,
51,
51,
52,
53,
55,
57,
58,
59,
61,
63,
64,
66,
66,
68,
70,
71,
72,
73,
75,
76,
77,
79,
79,
80,
82,
82,
83,
83,
84,
84,
85,
85,
85,
85,
85,
85,
85,
84,
84,
84,
83,
83,
82,
80,
80,
80,
78,
77,
76,
75,
74,
72,
71,
70,
68,
66,
65,
64,
61,
61,
59,
58,
57,
54,
54,
52,
51,
50,
49,
47,
46,
45,
44,
44,
42,
41,
41,
40,
40,
40,
39,
39,
39,
38,
38,
38,
38,
39,
39,
40,
40,
41,
42,
42,
43,
44,
46,
46,
48,
49,
50,
51,
52,
54,
55,
57,
58,
60,
61,
63,
64,
65,
66,
68,
69,
71,
72,
74,
75,
77,
77,
79,
79,
80,
81,
82,
82,
83,
84,
84,
84,
85,
85,
85,
85,
85,
85,
85,
84,
84,
83,
82,
82,
81,
81,
79,
78,
77,
76,
74,
74,
72,
70,
69,
68,
66,
64,
63,
62,
60,
58,
58,
57,
54,
53,
52,
51,
50,
48,
48,
46,
46,
44,
43,
42,
42,
40,
40,
39,
40,
39,
39,
39,
38,
38,
38,
39,
39,
40,
40,
39,
41,
41,
42,
44,
45,
45,
47,
47,
49,
50,
51,
52,
54,
54,
56,
58,
60,
61,
62,
64,
66,
67,
69,
70,
71,
72,
74,
75,
76,
77,
78,
80,
81,
82,
82,
82,
83,
84,
84,
84,
85,
85,
85,
85,
85,
85,
84,
85,
83,
83,
83,
81,
81,
80,
79,
78,
77,
76,
74,
73,
72,
70,
69,
68,
66,
65,
64,
62,
60,
60,
58,
56,
55,
54,
52,
50,
49,
48,
47,
46,
45,
43,
42,
42,
41,
41,
40,
40,
39,
39,
38,
39,
38,
38,
39,
39,
39,
39,
40,
40,
41,
42,
42,
44,
45,
46,
46,
48,
48,
50,
50,
52,
53,
55,
57,
58,
60,
61,
62,
64,
65,
67,
68,
70,
72,
72,
73,
75,
76,
78,
78,
79,
80,
81,
82,
82,
83,
83,
84,
84,
85,
85,
86,
85,
85,
85,
85,
84,
84,
83,
82,
82,
81,
79,
79,
78,
77,
76,
75,
73,
73,
71,
70,
68,
66,
65,
64,
63,
60,
59,
58,
56,
54,
53,
52,
51,
50,
49,
47,
47,
45,
44,
43,
42,
41,
41,
40,
40,
39,
39,
38,
38,
38,
38,
38,
39,
39,
39,
40,
40,
41,
42,
42,
44,
45,
45,
47,
48,
49,
50,
51,
52,
54,
55,
57,
58,
59,
61,
62,
64,
65,
66,
68,
70,
72,
73,
73,
75,
76,
77,
78,
79,
81,
81,
82,
82,
84,
84,
84,
85,
85,
85,
85,
86,
85,
85,
84,
85,
84,
83,
82,
81,
81,
80,
80,
78,
77,
75,
75,
73,
72,
72,
69,
68,
66,
65,
64,
63,
61,
59,
58,
57,
54,
53,
52,
51,
50,
49,
48,
46,
45,
44,
43,
42,
42,
41,
40,
40,
39,
39,
38,
38,
38,
38,
38,
38,
39,
39,
40,
40,
41,
42,
42,
44,
44,
45,
46,
48,
48,
50,
51,
52,
54,
55,
57,
58,
59,
61,
62,
64,
66,
67,
68,
70,
71,
72,
74,
75,
76,
77,
78,
79,
80,
81,
82,
82,
84,
84,
84,
84,
85,
85,
85,
85,
85,
85,
84,
84,
84,
83,
82,
82,
81,
80,
79,
78,
77,
76,
74,
74,
72,
70,
69,
68,
66,
65,
64,
62,
61,
59,
58,
57,
55,
54,
52,
51,
49,
48,
47,
47,
45,
44,
42,
42,
42,
40,
40,
40,
39,
39,
39,
38,
38,
38,
38,
38,
39,
39,
40,
40,
41,
42,
42,
43,
44,
45,
47,
48,
48,
50,
51,
52,
53,
55,
57,
58,
60,
61,
62,
64,
66,
67,
68,
70,
71,
73,
73,
74,
76,
77,
78,
80,
81,
81,
82,
83,
83,
83,
84,
84,
84,
85,
85,
85,
85,
85,
84,
84,
84,
83,
82,
82,
81,
80,
80,
78,
77,
75,
74,
74,
72,
70,
68,
68,
67,
65,
64,
62,
60,
59,
58,
56,
55,
53,
52,
50,
49,
48,
47,
46,
45,
44,
43,
42,
41,
41,
41,
40,
40,
40,
39,
39,
38,
39,
38,
38,
39,
39,
40,
41,
41,
42,
43,
43,
44,
46,
47,
48,
49,
50,
51,
52,
53,
55,
57,
58,
60,
61,
63,
64,
66,
67,
68,
70,
72,
72,
74,
75,
77,
78,
78,
80,
80,
81,
82,
83,
83,
84,
84,
85,
85,
85,
85,
85,
85,
84,
84,
84,
84,
83,
82,
82,
81,
80,
79,
78,
77,
76,
74,
74,
72,
70,
69,
67,
67,
65,
63,
62,
60,
58,
58,
56,
55,
53,
52,
50,
49,
49,
48,
47,
45,
44,
43,
42,
41,
41,
40,
40,
39,
38,
38,
38,
39,
38,
39,
38,
39,
39,
40,
40,
41,
42,
42,
43,
44,
45,
46,
48,
48,
50,
51,
52,
54,
55,
57,
58,
59,
61,
63,
64,
66,
67,
68,
69,
71,
73,
74,
75,
76,
77,
79,
80,
80,
81,
82,
83,
83,
84,
85,
84,
85,
85,
85,
85,
85,
85,
85,
83,
84,
83,
82,
82,
81,
80,
79,
78,
77,
76,
74,
74,
71,
71,
69,
67,
66,
64,
64,
62,
60,
59,
57,
56,
54,
52,
51,
51,
50,
49,
47,
46,
45,
45,
43,
42,
42,
41,
40,
40,
40,
39,
38,
38,
38,
39,
39,
38,
39,
40,
40,
40,
41,
41,
42,
44,
44,
46,
46,
48,
49,
50,
51,
52,
54,
55,
57,
58,
59,
61,
63,
64,
66,
67,
68,
70,
72,
73,
74,
75,
76,
77,
79,
79,
80,
82,
82,
82,
83,
84,
85,
85,
85,
85,
85,
85,
85,
85,
84,
84,
84,
83,
82,
82,
81,
80,
79,
78,
77,
76,
75,
73,
72,
71,
69,
68,
66,
65,
63,
62,
61,
59,
57,
57,
55,
54,
52,
50,
50,
48,
48,
46,
45,
45,
43,
42,
42,
40,
40,
40,
39,
39,
39,
38,
38,
39,
39,
38,
39,
39,
40,
41,
42,
42,
43,
43,
45,
45,
46,
48,
49,
50,
51,
53,
53,
55,
57,
58,
60,
61,
62,
64,
65,
66,
68,
70,
71,
73,
73,
76,
76,
77,
78,
79,
80,
81,
81,
83,
83,
84,
84,
84,
84,
85,
85,
85,
85,
84,
85,
84,
84,
83,
82,
82,
81,
80,
79,
78,
77,
76,
75,
73,
73,
70,
69,
68,
67,
65,
64,
63,
60,
59,
58,
57,
54,
54,
52,
50,
49,
48,
47,
46,
45,
44,
43,
42,
41,
41,
40,
40,
39,
39,
39,
39,
38,
38,
39,
38,
38,
39,
40,
41,
41,
42,
42,
44,
44,
45,
46,
48,
49,
49,
51,
52,
54,
55,
57,
58,
60,
61,
63,
64,
66,
67,
68,
70,
71,
73,
74,
75,
77,
77,
78,
80,
80,
81,
82,
82,
83,
84,
84,
84,
85,
86,
85,
85,
85,
85,
85,
84,
84,
83,
82,
82,
81,
80,
79,
79,
77,
76,
74,
73,
71,
70,
69,
68,
66,
65,
64,
61,
61,
59,
58,
56,
54,
53,
52,
51,
49,
48,
48,
46,
46,
44,
43,
43,
42,
41,
40,
40,
39,
39,
39,
39,
38,
38,
38,
39,
39,
40,
40,
40,
41,
42,
42,
43,
44,
46,
46,
48,
49,
50,
52,
52,
54,
55,
56,
58,
59,
61,
63,
64,
66,
67,
68,
70,
71,
72,
74,
74,
76,
77,
79,
79,
81,
81,
82,
82,
83,
83,
85,
85,
85,
85,
85,
85,
84,
85,
84,
84,
84,
83,
82,
82,
81,
80,
80,
78,
77,
75,
74,
73,
72,
70,
69,
68,
66,
66,
64,
62,
60,
59,
57,
56,
54,
53,
52,
51,
50,
49,
47,
47,
45,
44,
43,
42,
41,
41,
40,
39,
40,
39,
39,
38,
38,
38,
38,
39,
39,
39,
40,
40,
41,
41,
42,
43,
44,
46,
46,
48,
49,
50,
51,
52,
54,
55,
57,
58,
59,
61,
63,
64,
65,
67,
68,
70,
71,
73,
74,
75,
76,
77,
79,
79,
80,
82,
82,
82,
83,
84,
85,
85,
85,
85,
85,
85,
85,
84,
84,
84,
84,
83,
82,
82,
81,
80,
79,
78,
77,
76,
76,
74,
72,
70,
69,
68,
66,
65,
64,
62,
61,
59,
58,
56,
55,
53,
52,
50,
50,
48,
47,
47,
45,
44,
44,
42,
42,
41,
40,
39,
39,
39,
39,
38,
38,
38,
38,
39,
39,
39,
40,
40,
41,
42,
42,
43,
44,
45,
46,
48,
49,
50,
51,
53,
53,
56,
57,
58,
59,
62,
62,
64,
65,
67,
68,
70,
71,
72,
74,
75,
76,
78,
78,
80,
80,
81,
82,
83,
84,
83,
84,
84,
85,
85,
85,
85,
85,
85,
84,
84,
84,
83,
82,
82,
82,
80,
79,
78,
78,
76,
75,
74,
72,
71,
70,
68,
66,
65,
64,
62,
60,
58,
57,
56,
54,
53,
52,
51,
49,
49,
47,
46,
45,
44,
44,
42,
41,
41,
40,
40,
40,
39,
39,
38,
38,
39,
38,
39,
39,
40,
40,
41,
41,
42,
42,
43,
45,
45,
47,
48,
49,
50,
51,
53,
53,
55,
57,
58,
59,
61,
63,
64,
66,
67,
68,
69,
71,
73,
73,
75,
76,
78,
78,
79,
81,
81,
82,
82,
83,
84,
84,
84,
85,
85,
85,
85,
84,
85,
85,
84,
84,
84,
82,
82,
81,
80,
79,
78,
77,
75,
74,
73,
70,
71,
69,
68,
67,
66,
64,
62,
61,
59,
58,
56,
55,
54,
52,
51,
49,
49,
47,
46,
45,
44,
43,
42,
42,
41,
40,
40,
39,
39,
38,
38,
38,
38,
38,
39,
39,
40,
39,
40,
41,
42,
43,
44,
44,
45,
47,
47,
49,
50,
50,
53,
54,
56,
57,
58,
60,
61,
62,
64,
66,
67,
68,
70,
71,
72,
74,
75,
77,
78,
79,
80,
80,
81,
82,
82,
83,
84,
84,
84,
84,
85,
85,
85,
85,
85,
84,
84,
84,
84,
82,
81,
81,
80,
79,
78,
77,
76,
74,
73,
72,
70,
69,
68,
66,
65,
63,
62,
61,
59,
58,
56,
55,
53,
51,
51,
49,
49,
48,
47,
46,
44,
42,
42,
42,
40,
40,
40,
40,
39,
39,
38,
38,
38,
38,
38,
39,
39,
40,
40,
41,
41,
42,
44,
44,
46,
46,
48,
49,
50,
51,
52,
53,
55,
57,
58,
60,
62,
62,
64,
65,
67,
68,
69,
71,
72,
74,
76,
76,
78,
79,
80,
81,
81,
82,
83,
84,
84,
84,
85,
85,
85,
84,
85,
85,
85,
84,
84,
83,
83,
82,
82,
81,
80,
79,
78,
77,
76,
75,
73,
72,
70,
69,
68,
66,
64,
64,
62,
60,
59,
58,
56,
54,
53,
52,
51,
50,
48,
47,
46,
45,
44,
43,
42,
41,
42,
40,
40,
39,
39,
39,
38,
38,
38,
39,
39,
40,
39,
40,
41,
41,
42,
42,
43,
45,
45,
46,
48,
49,
50,
51,
52,
53,
55,
56,
58,
59,
61,
62,
64,
66,
67,
68,
69,
71,
73,
74,
75,
76,
77,
78,
80,
81,
81,
82,
83,
83,
84,
84,
84,
85,
85,
85,
85,
85,
85,
85,
84,
83,
83,
82,
82,
81,
80,
80,
78,
76,
76,
75,
74,
72,
70,
69,
68,
66,
64,
63,
62,
61,
59,
58,
57,
55,
53,
52,
51,
49,
48,
47,
46,
45,
44,
43,
42,
42,
41,
39,
39,
39,
38,
39,
39,
38,
38,
39,
39,
39,
40,
40,
40,
41,
41,
42,
44,
45,
45,
47,
48,
49,
50,
51,
52,
54,
55,
56,
59,
59,
61,
63,
64,
66,
67,
68,
70,
71,
72,
74,
75,
76,
78,
79,
79,
80,
81,
82,
82,
83,
84,
85,
85,
85,
85,
85,
85,
85,
85,
85,
84,
84,
83,
82,
82,
80,
80,
79,
78,
77,
76,
74,
74,
72,
71,
69,
68,
66,
65,
63,
62,
61,
59,
58,
56,
55,
53,
52,
50,
49,
49,
47,
46,
45,
44,
43,
42,
42,
41,
41,
39,
39,
39,
38,
38,
38,
38,
38,
39,
39,
39,
40,
40,
41,
42,
42,
44,
44,
46,
47,
47,
49,
50,
51,
52,
54,
55,
56,
58,
59,
61,
62,
64,
65,
66,
68,
69,
71,
72,
74,
75,
77,
77,
78,
79,
80,
81,
82,
82,
83,
83,
84,
85,
85,
85,
85,
85,
85,
85,
84,
84,
84,
83,
82,
82,
81,
80,
79,
78,
78,
76,
74,
74,
72,
71,
69,
68,
67,
65,
64,
62,
61,
59,
58,
56,
55,
54,
52,
50,
49,
48,
47,
46,
45,
44,
43,
42,
41,
41,
40,
40,
39,
39,
39,
38,
38,
38,
38,
39,
39,
39,
39,
41,
41,
41,
42,
43,
44,
45,
47,
48,
49,
50,
51,
52,
53,
55,
56,
58,
59,
61,
62,
64,
65,
66,
68,
70,
71,
72,
74,
75,
76,
77,
78,
79,
80,
81,
82,
82,
83,
84,
85,
85,
85,
85,
85,
85,
85,
85,
84,
84,
84,
82,
82,
82,
81,
80,
79,
78,
77,
76,
74,
73,
72,
70,
69,
67,
66,
65,
63,
62,
60,
59,
58,
56,
55,
53,
51,
51,
50,
48,
48,
46,
45,
44,
43,
42,
42,
41,
40,
40,
39,
39,
38,
39,
38,
38,
38,
39,
39,
39,
40,
40,
41,
42,
42,
44,
45,
46,
47,
48,
49,
49,
51,
52,
54,
55,
57,
58,
60,
61,
63,
64,
66,
66,
68,
70,
71,
72,
74,
76,
75,
77,
79,
80,
80,
81,
82,
83,
83,
84,
84,
85,
85,
85,
85,
85,
85,
85,
84,
84,
83,
83,
82,
82,
81,
80,
78,
78,
77,
76,
74,
73,
71,
71,
70,
67,
66,
65,
63,
62,
61,
59,
58,
56,
54,
53,
52,
50,
49,
48,
48,
46,
45,
43,
43,
42,
42,
41,
40,
40,
39,
39,
38,
39,
39,
38,
39,
38,
39,
40,
40,
41,
41,
42,
42,
43,
44,
45,
46,
48,
50,
49,
51,
52,
54,
55,
57,
58,
59,
61,
62,
64,
66,
67,
68,
70,
71,
73,
74,
75,
77,
77,
78,
80,
81,
82,
82,
83,
83,
84,
84,
85,
85,
85,
85,
85,
85,
84,
84,
84,
84,
82,
82,
82,
82,
81,
80,
78,
76,
76,
74,
73,
72,
70,
69,
68,
66,
65,
64,
62,
60,
59,
57,
56,
55,
54,
52,
51,
49,
48,
48,
46,
45,
44,
43,
42,
42,
41,
40,
40,
39,
39,
39,
38,
38,
39,
38,
39,
39,
39,
40,
40,
41,
42,
43,
43,
45,
46,
46,
48,
49,
50,
50,
52,
54,
55,
56,
58,
60,
61,
62,
64,
66,
67,
68,
70,
71,
73,
74,
75,
76,
78,
78,
80,
80,
81,
82,
83,
83,
84,
84,
84,
85,
85,
85,
86,
85,
85,
84,
84,
84,
83,
83,
82,
80,
80,
79,
78,
77,
76,
74,
73,
72,
71,
70,
68,
66,
65,
63,
62,
60,
59,
58,
56,
54,
53,
52,
50,
50,
49,
47,
46,
45,
45,
43,
42,
41,
40,
40,
39,
39,
39,
40,
38,
38,
37,
38,
39,
39,
39,
40,
40,
41,
42,
42,
43,
45,
45,
46,
47,
49,
49,
51,
53,
53,
55,
57,
58,
60,
62,
63,
64,
66,
66,
68,
69,
71,
72,
73,
75,
76,
77,
79,
79,
80,
81,
82,
83,
83,
84,
84,
84,
85,
85,
85,
85,
86,
85,
85,
84,
83,
82,
82,
81,
81,
80,
79,
78,
77,
76,
74,
73,
72,
70,
69,
68,
67,
65,
64,
62,
60,
59,
58,
55,
54,
53,
52,
50,
48,
48,
47,
46,
44,
45,
43,
42,
41,
41,
40,
40,
38,
38,
38,
38,
38,
38,
39,
38,
40,
39,
39,
40,
41,
42,
42,
43,
45,
46,
46,
48,
49,
49,
51,
52,
54,
56,
56,
58,
59,
61,
62,
64,
65,
67,
68,
70,
71,
72,
74,
75,
76,
77,
78,
80,
80,
81,
82,
82,
83,
84,
85,
84,
85,
85,
85,
85,
85,
85,
85,
84,
83,
83,
82,
81,
80,
80,
79,
78,
77,
76,
74,
74,
72,
70,
69,
68,
67,
65,
64,
62,
61,
58,
58,
56,
54,
54,
52,
51,
50,
49,
47,
46,
45,
44,
44,
42,
41,
41,
40,
40,
39,
39,
39,
38,
38,
38,
38,
39,
38,
40,
40,
40,
41,
42,
42,
44,
44,
45,
47,
48,
49,
50,
51,
52,
54,
55,
57,
58,
59,
61,
62,
64,
66,
66,
68,
69,
71,
72,
73,
75,
76,
78,
78,
79,
80,
81,
82,
82,
83,
84,
84,
85,
85,
84,
85,
84,
85,
84,
84,
84,
83,
83,
82,
82,
80,
80,
79,
78,
77,
75,
75,
73,
72,
70,
69,
68,
67,
65,
64,
62,
60,
59,
58,
56,
54,
54,
52,
50,
50,
48,
48,
46,
45,
44,
42,
42,
42,
40,
40,
40,
39,
39,
38,
38,
38,
38,
38,
38,
39,
39,
39,
40,
41,
42,
42,
44,
44,
45,
47,
48,
49,
49,
51,
52,
54,
55,
57,
58,
60,
61,
63,
64,
65,
66,
68,
70,
71,
73,
73,
75,
76,
78,
78,
80,
81,
82,
82,
82,
83,
84,
84,
85,
84,
85,
85,
85,
84,
84,
84,
85,
83,
83,
82,
82,
81,
80,
79,
78,
77,
76,
75,
73,
72,
70,
69,
68,
66,
65,
63,
62,
60,
59,
57,
56,
55,
53,
52,
50,
50,
49,
47,
46,
46,
44,
43,
42,
41,
40,
40,
39,
39,
39,
38,
38,
38,
38,
38,
38,
40,
40,
40,
41,
41,
42,
42,
43,
45,
45,
46,
48,
49,
50,
51,
52,
53,
55,
57,
59,
59,
62,
62,
64,
65,
67,
68,
69,
71,
72,
74,
75,
75,
78,
79,
79,
81,
82,
82,
82,
83,
84,
84,
84,
85,
85,
85,
85,
85,
84,
84,
84,
84,
83,
82,
82,
81,
80,
79,
78,
77,
76,
75,
73,
72,
70,
69,
68,
66,
65,
64,
62,
60,
59,
57,
56,
54,
52,
52,
51,
50,
48,
47,
46,
45,
45,
42,
42,
41,
41,
40,
39,
40,
38,
38,
38,
38,
38,
38,
38,
39,
39,
40,
40,
41,
42,
42,
43,
45,
46,
46,
48,
49,
50,
51,
52,
54,
56,
56,
58,
60,
60,
62,
64,
66,
67,
68,
70,
71,
72,
74,
75,
76,
78,
78,
80,
81,
81,
82,
83,
83,
84,
84,
84,
84,
85,
85,
85,
85,
85,
85,
84,
83,
83,
82,
82,
81,
80,
78,
78,
77,
75,
74,
74,
72,
71,
69,
68,
67,
65,
64,
61,
60,
59,
58,
56,
55,
53,
52,
51,
49,
49,
47,
46,
45,
44,
43,
42,
42,
41,
40,
40,
39,
38,
38,
39,
39,
38,
38,
38,
39,
39,
40,
40,
41,
41,
42,
44,
45,
46,
46,
48,
49,
50,
51,
52,
54,
55,
56,
58,
60,
62,
62,
64,
66,
67,
68,
70,
71,
73,
74,
75,
77,
78,
78,
80,
80,
82,
82,
83,
83,
84,
84,
84,
85,
85,
86,
85,
85,
84,
84,
84,
83,
83,
83,
82,
82,
80,
80,
78,
77,
76,
75,
74,
72,
70,
69,
68,
66,
65,
64,
62,
60,
59,
58,
57,
54,
54,
52,
50,
49,
48,
47,
47,
45,
44,
43,
42,
41,
41,
40,
40,
39,
39,
39,
38,
38,
38,
39,
38,
39,
40,
40,
40,
41,
41,
43,
44,
44,
45,
47,
48,
49,
50,
51,
53,
53,
56,
57,
58,
60,
61,
63,
64,
66,
67,
69,
70,
71,
73,
74,
75,
76,
77,
79,
80,
81,
82,
82,
83,
83,
84,
84,
85,
85,
85,
85,
85,
84,
84,
85,
85,
84,
83,
82,
82,
81,
80,
79,
78,
77,
76,
74,
74,
73,
71,
69,
68,
66,
64,
63,
62,
61,
59,
58,
56,
54,
53,
52,
50,
49,
48,
47,
46,
45,
44,
43,
42,
41,
41,
40,
39,
39,
38,
39,
38,
38,
38,
39,
38,
39,
39,
39,
40,
41,
41,
42,
43,
44,
46,
47,
48,
48,
50,
51,
53,
54,
55,
57,
58,
60,
61,
62,
64,
65,
67,
69,
70,
71,
73,
74,
74,
76,
78,
79,
80,
80,
81,
82,
82,
84,
84,
84,
85,
85,
84,
84,
85,
85,
85,
84,
84,
83,
83,
82,
81,
80,
80,
79,
78,
77,
76,
75,
74,
72,
71,
69,
68,
67,
65,
64,
62,
61,
59,
58,
57,
54,
53,
52,
50,
50,
49,
47,
46,
46,
44,
42,
42,
41,
40,
40,
40,
39,
39,
39,
38,
38,
38,
39,
38,
39,
39,
40,
41,
41,
42,
43,
44,
45,
46,
47,
48,
49,
50,
51,
52,
54,
55,
57,
58,
59,
61,
63,
64,
65,
66,
68,
70,
71,
73,
74,
75,
76,
78,
78,
79,
80,
81,
82,
82,
83,
84,
84,
85,
85,
84,
85,
85,
85,
85,
84,
84,
84,
83,
82,
82,
81,
80,
79,
78,
77,
75,
74,
74,
72,
71,
69,
68,
66,
65,
64,
62,
61,
59,
58,
57,
54,
53,
52,
50,
49,
48,
47,
46,
45,
44,
42,
42,
41,
41,
40,
40,
39,
38,
39,
39,
38,
39,
39,
38,
39,
39,
40,
40,
41,
42,
42,
43,
45,
45,
46,
48,
48,
50,
51,
52,
54,
55,
57,
58,
60,
61,
63,
64,
66,
67,
68,
70,
71,
73,
74,
75,
76,
78,
79,
80,
81,
81,
82,
83,
83,
84,
84,
84,
85,
85,
85,
86,
85,
85,
85,
84,
84,
83,
82,
82,
81,
80,
79,
78,
77,
76,
74,
73,
72,
71,
69,
68,
66,
65,
64,
62,
60,
59,
57,
56,
55,
53,
51,
50,
50,
48,
48,
46,
45,
44,
44,
42,
42,
41,
40,
39,
39,
39,
38,
39,
38,
38,
38,
38,
39,
40,
40,
41,
41,
42,
43,
44,
44,
46,
46,
48,
49,
50,
51,
52,
53,
55,
57,
58,
59,
61,
63,
64,
65,
67,
68,
70,
71,
72,
73,
75,
77,
78,
78,
80,
81,
81,
82,
82,
84,
84,
84,
84,
84,
85,
85,
85,
85,
85,
84,
84,
83,
83,
82,
82,
81,
80,
79,
78,
78,
76,
74,
74,
72,
70,
69,
67,
66,
64,
64,
62,
60,
58,
58,
55,
54,
53,
51,
50,
50,
48,
47,
46,
45,
44,
43,
42,
42,
41,
40,
39,
39,
39,
38,
38,
39,
39,
38,
39,
38,
40,
40,
41,
42,
41,
42,
43,
45,
45,
46,
48,
49,
50,
51,
52,
54,
56,
57,
58,
60,
60,
63,
64,
66,
68,
68,
70,
71,
73,
74,
75,
76,
78,
79,
79,
80,
82,
82,
82,
83,
84,
84,
85,
86,
85,
84,
85,
85,
85,
85,
85,
84,
83,
82,
82,
80,
80,
79,
78,
77,
76,
74,
74,
72,
70,
69,
67,
66,
65,
63,
62,
61,
59,
57,
57,
54,
53,
52,
50,
50,
48,
47,
46,
45,
44,
43,
42,
41,
41,
40,
40,
39,
39,
39,
38,
39,
38,
38,
39,
38,
39,
40,
40,
41,
42,
42,
44,
45,
46,
47,
48,
48,
50,
51,
52,
54,
56,
57,
58,
59,
61,
62,
64,
66,
67,
68,
70,
72,
72,
74,
75,
76,
78,
79,
79,
81,
82,
82,
82,
84,
84,
84,
84,
84,
85,
85,
86,
85,
85,
85,
84,
84,
82,
82,
82,
81,
80,
78,
78,
77,
76,
74,
74,
72,
70,
68,
68,
66,
64,
63,
62,
60,
59,
58,
57,
54,
53,
52,
50,
49,
48,
48,
46,
46,
44,
43,
42,
42,
40,
40,
40,
39,
38,
38,
39,
38,
38,
38,
39,
39,
39,
40,
40,
40,
42,
42,
44,
45,
46,
47,
48,
49,
50,
51,
52,
54,
55,
58,
58,
60,
61,
63,
64,
65,
67,
69,
70,
71,
72,
74,
76,
76,
78,
78,
80,
81,
81,
82,
83,
83,
84,
84,
85,
84,
85,
85,
85,
85,
85,
84,
84,
83,
83,
82,
82,
81,
80,
79,
78,
77,
75,
75,
73,
72,
70,
70,
69,
66,
65,
64,
62,
60,
59,
58,
56,
55,
53,
52,
50,
49,
49,
48,
46,
46,
44,
42,
42,
41,
40,
40,
40,
39,
39,
38,
38,
38,
38,
38,
39,
39,
40,
40,
41,
41,
41,
42,
43,
45,
46,
46,
48,
49,
