Pruebas/ALL0003/A0003CH2.CSV

Memory Length,4000,
Trigger Level,8.400E-01,
Source,CH2,
Probe,1X,
Vertical Units,V,
Vertical Scale,2.000E-01,
Vertical Position,-4.000E-01,
Horizontal Units,s,
Horizontal Scale,2.500E-02,
Horizontal Position,0.000E+00,
Horizontal Mode,Main,
Sampling Period,1.000E-04,
Firmware,V1.12,
Time, ,
Mode,Fast,
Waveform Data,
51,
51,
53,
54,
55,
57,
58,
58,
61,
61,
63,
64,
65,
66,
68,
68,
70,
72,
73,
74,
75,
75,
78,
78,
79,
80,
82,
83,
84,
84,
86,
87,
87,
89,
90,
90,
91,
91,
92,
93,
94,
94,
95,
96,
97,
97,
98,
98,
99,
99,
100,
100,
100,
100,
100,
101,
100,
101,
101,
101,
101,
100,
100,
100,
101,
100,
100,
100,
99,
99,
99,
98,
97,
98,
96,
96,
95,
95,
94,
93,
93,
92,
91,
90,
89,
89,
88,
86,
86,
85,
84,
83,
82,
80,
79,
78,
76,
75,
75,
74,
72,
71,
70,
69,
67,
66,
65,
64,
63,
60,
61,
59,
58,
57,
55,
54,
53,
52,
51,
50,
49,
47,
46,
45,
44,
42,
41,
40,
40,
39,
38,
37,
36,
35,
34,
33,
33,
32,
31,
30,
30,
29,
28,
27,
27,
26,
26,
26,
25,
25,
24,
24,
24,
23,
23,
22,
22,
23,
22,
23,
22,
22,
22,
22,
22,
23,
23,
24,
24,
25,
25,
25,
26,
26,
26,
27,
28,
29,
29,
30,
30,
32,
32,
34,
34,
35,
35,
37,
38,
38,
40,
41,
42,
42,
43,
45,
46,
48,
49,
49,
50,
52,
52,
54,
55,
56,
58,
59,
60,
61,
62,
64,
66,
66,
67,
69,
70,
71,
73,
74,
75,
75,
77,
78,
79,
80,
81,
82,
84,
85,
85,
87,
88,
88,
89,
90,
91,
92,
92,
94,
94,
94,
96,
96,
97,
96,
98,
97,
98,
99,
100,
100,
100,
101,
100,
100,
101,
100,
101,
100,
101,
101,
101,
100,
100,
101,
100,
100,
99,
99,
98,
99,
98,
96,
96,
96,
95,
95,
94,
94,
93,
92,
91,
90,
90,
88,
88,
87,
86,
85,
84,
82,
82,
80,
80,
78,
77,
76,
75,
74,
73,
72,
70,
69,
68,
66,
65,
64,
63,
62,
60,
59,
58,
57,
55,
55,
53,
52,
50,
50,
49,
47,
46,
46,
45,
44,
42,
41,
40,
38,
37,
37,
36,
34,
34,
33,
33,
32,
31,
30,
30,
29,
28,
27,
26,
26,
26,
25,
25,
24,
25,
24,
23,
23,
23,
22,
23,
22,
22,
23,
23,
22,
22,
24,
23,
23,
24,
24,
24,
25,
25,
26,
26,
26,
27,
27,
28,
28,
29,
29,
30,
31,
32,
33,
34,
34,
35,
36,
37,
38,
40,
41,
42,
43,
44,
45,
46,
48,
48,
49,
51,
51,
53,
54,
55,
57,
58,
59,
60,
62,
62,
64,
65,
66,
68,
69,
70,
71,
72,
74,
74,
76,
77,
78,
79,
81,
82,
83,
84,
85,
85,
86,
88,
88,
90,
91,
91,
92,
93,
93,
94,
95,
95,
96,
97,
97,
98,
98,
98,
99,
99,
100,
100,
100,
100,
100,
101,
101,
101,
102,
101,
102,
100,
100,
101,
100,
100,
100,
99,
99,
99,
98,
98,
98,
97,
97,
95,
95,
94,
93,
93,
92,
92,
90,
90,
89,
87,
87,
86,
86,
83,
83,
82,
81,
80,
78,
78,
76,
75,
74,
72,
71,
70,
69,
67,
66,
65,
64,
63,
61,
60,
59,
58,
57,
55,
54,
53,
52,
51,
50,
49,
47,
46,
45,
44,
43,
42,
41,
40,
39,
38,
36,
36,
35,
34,
33,
33,
32,
31,
30,
30,
29,
28,
27,
27,
26,
26,
26,
25,
25,
25,
24,
24,
23,
23,
23,
23,
22,
22,
22,
22,
22,
22,
23,
23,
22,
23,
24,
25,
24,
26,
25,
26,
26,
27,
27,
28,
28,
30,
29,
31,
31,
33,
34,
33,
35,
35,
36,
38,
39,
39,
41,
41,
43,
44,
45,
46,
47,
48,
49,
50,
51,
53,
54,
54,
57,
57,
59,
61,
61,
62,
65,
66,
66,
67,
69,
70,
72,
72,
74,
75,
75,
78,
78,
80,
81,
81,
82,
83,
85,
85,
87,
87,
89,
90,
90,
91,
92,
92,
93,
94,
95,
95,
96,
97,
97,
97,
98,
98,
99,
100,
100,
100,
100,
101,
101,
101,
101,
101,
101,
101,
100,
101,
100,
101,
100,
100,
100,
100,
99,
98,
99,
98,
97,
97,
97,
96,
95,
95,
93,
93,
92,
90,
90,
90,
89,
87,
87,
86,
85,
84,
82,
82,
80,
79,
78,
77,
76,
75,
74,
73,
72,
70,
69,
67,
67,
65,
64,
63,
62,
60,
59,
58,
57,
56,
54,
53,
52,
51,
49,
49,
48,
46,
45,
44,
42,
42,
40,
40,
38,
38,
36,
35,
34,
34,
34,
32,
31,
31,
30,
29,
28,
28,
27,
26,
26,
26,
26,
25,
24,
25,
24,
23,
23,
22,
23,
22,
23,
22,
23,
22,
22,
22,
22,
22,
23,
24,
24,
24,
25,
24,
26,
26,
26,
26,
27,
28,
29,
29,
30,
31,
31,
32,
34,
34,
34,
35,
37,
37,
38,
39,
40,
42,
42,
45,
45,
47,
48,
48,
50,
50,
51,
53,
54,
55,
56,
58,
60,
61,
61,
63,
64,
65,
66,
68,
69,
69,
71,
73,
74,
74,
76,
78,
78,
80,
81,
82,
83,
83,
85,
86,
87,
87,
88,
89,
90,
91,
92,
93,
93,
94,
95,
95,
96,
97,
98,
98,
98,
99,
99,
100,
100,
100,
100,
101,
100,
101,
101,
101,
101,
101,
101,
101,
101,
101,
101,
101,
100,
99,
98,
98,
98,
97,
97,
97,
96,
95,
94,
94,
94,
92,
92,
91,
90,
90,
89,
87,
87,
86,
84,
84,
83,
81,
81,
80,
79,
77,
76,
74,
74,
72,
72,
70,
69,
68,
66,
66,
64,
63,
62,
60,
58,
57,
57,
56,
53,
52,
52,
50,
50,
49,
48,
46,
45,
44,
43,
41,
41,
40,
39,
38,
37,
36,
34,
34,
33,
32,
31,
30,
30,
29,
29,
28,
27,
26,
26,
26,
25,
24,
25,
24,
23,
23,
23,
23,
22,
22,
22,
22,
22,
23,
22,
23,
23,
23,
23,
24,
24,
24,
24,
25,
25,
26,
26,
27,
28,
28,
29,
29,
30,
30,
32,
32,
33,
34,
35,
36,
37,
38,
38,
39,
41,
42,
42,
44,
45,
46,
47,
48,
49,
50,
51,
52,
54,
55,
57,
58,
59,
60,
62,
63,
64,
66,
66,
68,
69,
70,
71,
73,
74,
74,
75,
78,
78,
80,
80,
82,
83,
84,
84,
86,
86,
87,
89,
90,
90,
91,
92,
93,
93,
94,
95,
95,
96,
96,
97,
98,
98,
98,
98,
100,
99,
100,
101,
100,
101,
101,
101,
101,
101,
101,
101,
101,
100,
100,
100,
100,
100,
99,
99,
99,
98,
98,
98,
97,
96,
96,
94,
94,
93,
93,
92,
91,
90,
90,
89,
87,
87,
86,
84,
84,
83,
82,
81,
79,
78,
77,
76,
75,
74,
72,
70,
70,
69,
68,
66,
65,
64,
63,
62,
61,
60,
58,
57,
55,
54,
53,
52,
50,
50,
49,
47,
46,
45,
44,
42,
42,
40,
40,
39,
38,
36,
36,
35,
34,
34,
33,
31,
30,
30,
29,
29,
28,
27,
26,
26,
26,
26,
24,
24,
24,
24,
23,
23,
23,
23,
22,
23,
22,
22,
22,
22,
23,
22,
23,
24,
23,
24,
24,
25,
25,
25,
26,
26,
27,
27,
28,
28,
30,
30,
30,
31,
32,
33,
34,
35,
36,
36,
38,
39,
40,
41,
42,
43,
43,
45,
47,
47,
48,
49,
50,
51,
53,
54,
55,
57,
58,
59,
60,
62,
63,
64,
65,
66,
67,
68,
70,
71,
72,
73,
74,
77,
77,
78,
79,
80,
82,
82,
83,
85,
85,
86,
87,
88,
89,
91,
91,
92,
93,
93,
94,
95,
96,
96,
97,
97,
98,
98,
99,
99,
100,
100,
100,
100,
100,
100,
100,
100,
101,
101,
101,
101,
101,
100,
100,
100,
100,
100,
100,
99,
98,
98,
98,
97,
97,
96,
95,
94,
94,
94,
93,
92,
91,
90,
90,
89,
87,
87,
86,
85,
84,
83,
82,
81,
79,
78,
77,
76,
75,
74,
73,
71,
70,
68,
67,
67,
65,
64,
63,
61,
61,
59,
58,
57,
56,
54,
52,
51,
50,
49,
48,
48,
46,
45,
44,
43,
42,
41,
40,
38,
37,
36,
36,
35,
34,
34,
33,
31,
31,
30,
29,
28,
28,
27,
27,
26,
26,
26,
25,
25,
25,
24,
24,
24,
23,
22,
22,
22,
22,
22,
22,
23,
22,
23,
23,
23,
23,
24,
25,
24,
25,
26,
26,
26,
26,
28,
28,
28,
29,
30,
31,
32,
32,
34,
34,
35,
35,
36,
37,
38,
40,
40,
42,
43,
44,
44,
46,
48,
49,
50,
50,
51,
52,
54,
55,
57,
58,
59,
60,
62,
63,
64,
65,
66,
68,
68,
70,
72,
73,
74,
74,
76,
77,
78,
79,
80,
81,
82,
84,
84,
86,
86,
88,
89,
90,
90,
91,
92,
93,
93,
94,
95,
96,
96,
97,
98,
97,
98,
99,
99,
100,
100,
100,
100,
100,
100,
101,
100,
101,
101,
102,
101,
101,
100,
101,
100,
100,
100,
100,
99,
98,
98,
98,
97,
97,
95,
95,
95,
95,
93,
93,
92,
91,
90,
89,
88,
87,
86,
86,
85,
84,
83,
82,
81,
80,
78,
78,
76,
75,
74,
73,
71,
70,
69,
68,
66,
65,
64,
63,
61,
60,
59,
58,
56,
55,
54,
52,
52,
50,
49,
49,
48,
47,
45,
44,
43,
42,
41,
39,
39,
38,
37,
36,
35,
34,
34,
33,
31,
30,
30,
30,
29,
28,
28,
27,
26,
26,
26,
25,
24,
24,
23,
23,
23,
23,
22,
22,
22,
23,
22,
22,
23,
22,
23,
23,
23,
24,
24,
23,
25,
25,
25,
26,
26,
27,
27,
28,
29,
29,
30,
31,
32,
33,
33,
34,
35,
36,
37,
38,
38,
40,
41,
42,
43,
43,
46,
46,
47,
48,
49,
50,
51,
52,
54,
56,
57,
58,
59,
60,
62,
63,
64,
66,
66,
67,
69,
70,
71,
73,
74,
75,
77,
78,
78,
79,
80,
82,
82,
84,
84,
86,
86,
87,
89,
90,
90,
91,
92,
93,
93,
94,
95,
96,
96,
97,
98,
98,
98,
98,
99,
100,
99,
100,
100,
100,
101,
100,
101,
101,
101,
101,
101,
100,
100,
100,
100,
100,
100,
100,
99,
98,
99,
98,
97,
96,
96,
96,
95,
93,
93,
93,
91,
91,
90,
90,
88,
88,
86,
86,
85,
84,
83,
82,
81,
81,
78,
77,
76,
75,
74,
72,
72,
70,
69,
68,
66,
65,
65,
62,
62,
60,
59,
58,
56,
55,
54,
52,
52,
50,
50,
48,
48,
46,
45,
44,
44,
42,
40,
40,
39,
38,
37,
36,
35,
34,
34,
33,
31,
31,
30,
30,
28,
28,
28,
26,
26,
26,
26,
25,
25,
24,
25,
24,
23,
23,
23,
23,
22,
22,
22,
23,
22,
22,
23,
22,
23,
23,
23,
24,
25,
25,
25,
26,
26,
26,
28,
28,
29,
29,
30,
30,
31,
32,
33,
34,
35,
35,
36,
38,
39,
39,
41,
41,
42,
44,
44,
46,
47,
49,
49,
50,
51,
52,
53,
55,
57,
58,
59,
60,
61,
63,
65,
65,
66,
67,
69,
70,
71,
73,
73,
74,
76,
77,
78,
80,
81,
82,
83,
84,
85,
86,
86,
88,
89,
90,
90,
91,
92,
92,
94,
94,
94,
96,
96,
97,
97,
98,
98,
98,
99,
99,
100,
100,
100,
101,
101,
100,
101,
101,
101,
101,
100,
101,
101,
101,
100,
100,
100,
99,
98,
99,
98,
98,
97,
97,
96,
96,
95,
94,
94,
93,
92,
91,
90,
90,
88,
88,
86,
85,
84,
84,
83,
82,
81,
80,
78,
77,
76,
74,
74,
72,
71,
70,
68,
68,
66,
65,
64,
63,
61,
60,
60,
58,
56,
56,
54,
54,
51,
51,
50,
49,
48,
47,
45,
44,
43,
41,
41,
40,
39,
38,
37,
36,
35,
34,
33,
33,
31,
30,
30,
29,
29,
28,
28,
27,
26,
26,
26,
25,
24,
24,
24,
24,
23,
23,
23,
22,
22,
22,
22,
22,
22,
23,
23,
23,
23,
23,
24,
24,
24,
24,
25,
26,
26,
26,
27,
28,
28,
29,
30,
31,
32,
32,
33,
34,
35,
35,
37,
38,
39,
40,
40,
42,
42,
44,
45,
46,
47,
48,
49,
50,
51,
53,
55,
55,
58,
58,
59,
60,
61,
62,
64,
65,
66,
68,
69,
70,
72,
72,
74,
74,
77,
77,
78,
79,
80,
82,
83,
83,
84,
86,
86,
88,
89,
90,
90,
90,
92,
93,
93,
94,
95,
96,
96,
97,
98,
98,
98,
99,
99,
100,
99,
100,
100,
101,
101,
101,
101,
101,
101,
101,
101,
100,
101,
100,
101,
100,
100,
99,
99,
99,
98,
98,
97,
97,
96,
95,
95,
94,
93,
93,
92,
92,
90,
89,
89,
88,
87,
86,
85,
84,
82,
81,
80,
80,
78,
78,
76,
74,
73,
72,
71,
70,
69,
68,
66,
66,
64,
63,
62,
60,
59,
58,
56,
55,
54,
53,
52,
50,
50,
49,
48,
46,
45,
44,
42,
42,
41,
39,
38,
38,
37,
36,
35,
34,
33,
33,
31,
31,
30,
29,
28,
28,
27,
26,
26,
26,
25,
25,
24,
24,
24,
23,
23,
23,
22,
22,
22,
22,
23,
23,
22,
22,
23,
23,
23,
23,
24,
24,
24,
25,
25,
26,
26,
27,
27,
28,
28,
29,
29,
31,
31,
32,
34,
34,
34,
36,
36,
38,
38,
40,
41,
42,
42,
44,
46,
46,
48,
49,
50,
50,
52,
53,
54,
55,
57,
58,
59,
60,
61,
62,
64,
66,
66,
67,
69,
70,
72,
73,
74,
75,
76,
78,
78,
80,
81,
82,
82,
84,
85,
86,
87,
88,
89,
90,
90,
91,
92,
93,
93,
94,
94,
96,
97,
96,
97,
98,
98,
98,
99,
99,
100,
100,
100,
100,
100,
101,
101,
100,
102,
101,
101,
101,
101,
100,
100,
100,
100,
99,
99,
98,
98,
97,
97,
97,
96,
95,
95,
94,
93,
93,
92,
91,
90,
90,
89,
88,
86,
86,
84,
82,
82,
82,
81,
79,
78,
78,
77,
74,
74,
72,
71,
70,
69,
67,
66,
65,
64,
63,
62,
60,
58,
57,
56,
55,
54,
52,
52,
50,
50,
49,
48,
47,
45,
45,
43,
42,
41,
39,
38,
38,
37,
36,
35,
34,
34,
32,
32,
31,
30,
29,
28,
28,
27,
27,
26,
26,
25,
26,
25,
24,
23,
23,
22,
23,
23,
23,
23,
22,
22,
22,
22,
23,
23,
23,
23,
23,
24,
24,
24,
25,
26,
26,
26,
27,
27,
28,
29,
29,
30,
31,
32,
32,
33,
34,
35,
36,
37,
38,
38,
40,
40,
42,
42,
43,
45,
46,
47,
48,
49,
50,
52,
53,
54,
55,
57,
58,
59,
60,
61,
63,
63,
65,
66,
67,
69,
70,
71,
73,
74,
75,
77,
77,
79,
79,
81,
82,
83,
84,
84,
85,
87,
87,
89,
90,
90,
91,
92,
92,
94,
94,
94,
95,
96,
97,
98,
98,
98,
99,
99,
100,
100,
100,
100,
100,
101,
101,
101,
101,
101,
101,
101,
101,
100,
101,
100,
100,
100,
100,
99,
98,
98,
97,
98,
97,
97,
95,
95,
94,
94,
93,
92,
90,
90,
90,
88,
87,
86,
85,
85,
84,
83,
82,
81,
79,
79,
77,
76,
75,
74,
73,
72,
70,
69,
68,
66,
66,
64,
63,
62,
60,
59,
58,
57,
55,
54,
53,
51,
50,
49,
49,
47,
46,
45,
44,
43,
41,
41,
40,
39,
38,
37,
36,
34,
34,
33,
32,
32,
30,
30,
29,
29,
28,
27,
27,
27,
26,
25,
25,
25,
24,
24,
23,
23,
22,
22,
23,
22,
22,
22,
23,
22,
22,
23,
23,
23,
23,
24,
24,
24,
25,
25,
26,
26,
27,
27,
28,
29,
30,
30,
31,
31,
32,
33,
34,
34,
36,
37,
37,
38,
40,
41,
42,
43,
44,
45,
46,
48,
48,
49,
50,
51,
52,
54,
56,
57,
58,
59,
60,
61,
63,
64,
65,
66,
67,
69,
70,
71,
72,
73,
75,
76,
78,
78,
80,
80,
81,
83,
84,
85,
85,
87,
88,
89,
90,
90,
91,
92,
93,
94,
94,
95,
96,
96,
96,
98,
98,
98,
99,
99,
100,
100,
101,
100,
100,
101,
100,
101,
101,
101,
101,
101,
100,
101,
100,
100,
100,
100,
99,
99,
98,
98,
97,
97,
97,
97,
96,
94,
94,
93,
93,
92,
91,
90,
90,
89,
88,
86,
86,
85,
83,
83,
81,
81,
79,
79,
77,
75,
74,
74,
72,
71,
70,
69,
68,
67,
65,
64,
63,
62,
61,
59,
58,
57,
55,
54,
53,
52,
50,
49,
49,
47,
46,
45,
44,
42,
42,
41,
40,
38,
38,
37,
36,
35,
34,
33,
32,
32,
31,
30,
30,
29,
28,
27,
27,
26,
26,
26,
25,
25,
24,
23,
24,
23,
23,
22,
22,
22,
22,
22,
22,
22,
23,
22,
23,
23,
23,
23,
24,
24,
25,
25,
25,
27,
27,
28,
28,
28,
29,
30,
30,
32,
32,
33,
34,
35,
35,
37,
38,
38,
40,
41,
42,
42,
44,
45,
46,
48,
49,
49,
50,
52,
53,
54,
55,
57,
58,
59,
60,
62,
63,
64,
66,
66,
67,
69,
70,
71,
73,
74,
75,
76,
77,
79,
79,
81,
82,
83,
84,
84,
86,
86,
88,
89,
90,
91,
91,
92,
92,
93,
94,
95,
96,
96,
97,
98,
98,
98,
98,
99,
99,
100,
100,
100,
101,
101,
100,
101,
101,
101,
101,
101,
101,
101,
100,
100,
100,
100,
99,
99,
98,
98,
98,
97,
97,
97,
96,
95,
94,
93,
93,
92,
91,
90,
90,
89,
88,
87,
86,
85,
84,
83,
82,
81,
79,
78,
77,
76,
76,
74,
72,
71,
70,
69,
67,
66,
66,
64,
61,
62,
60,
59,
58,
57,
55,
54,
53,
52,
50,
50,
48,
48,
46,
46,
44,
42,
42,
41,
40,
38,
38,
37,
36,
35,
34,
33,
33,
32,
31,
30,
29,
28,
28,
27,
27,
26,
26,
25,
25,
25,
24,
24,
24,
23,
23,
23,
23,
22,
22,
22,
23,
23,
23,
23,
22,
23,
24,
23,
24,
25,
26,
26,
26,
26,
27,
27,
28,
28,
29,
29,
31,
31,
32,
33,
34,
35,
36,
37,
37,
38,
40,
41,
42,
43,
45,
45,
46,
48,
49,
50,
50,
51,
53,
54,
55,
56,
57,
59,
60,
61,
64,
64,
65,
66,
68,
68,
70,
72,
72,
74,
74,
76,
78,
79,
80,
81,
82,
82,
84,
85,
86,
87,
88,
88,
90,
90,
91,
92,
93,
94,
94,
94,
96,
96,
96,
98,
98,
99,
98,
99,
100,
100,
100,
100,
101,
100,
101,
101,
101,
101,
100,
101,
100,
100,
100,
100,
100,
100,
99,
99,
98,
98,
98,
98,
97,
96,
95,
95,
94,
93,
92,
92,
91,
90,
89,
88,
87,
87,
86,
85,
84,
83,
82,
81,
80,
78,
77,
76,
75,
74,
72,
71,
70,
69,
68,
66,
65,
64,
63,
62,
60,
59,
58,
56,
55,
54,
53,
52,
50,
49,
49,
48,
46,
45,
43,
43,
42,
41,
40,
39,
38,
36,
36,
35,
34,
33,
33,
32,
30,
30,
30,
29,
28,
28,
26,
26,
26,
25,
25,
25,
24,
24,
24,
23,
23,
23,
22,
22,
22,
22,
22,
22,
23,
22,
23,
23,
23,
24,
25,
24,
25,
25,
26,
26,
26,
28,
28,
28,
29,
30,
31,
31,
33,
33,
34,
34,
36,
37,
38,
39,
39,
40,
42,
42,
44,
44,
46,
47,
48,
50,
50,
52,
53,
54,
56,
57,
58,
58,
61,
61,
62,
64,
65,
66,
68,
69,
70,
72,
72,
73,
74,
76,
78,
79,
79,
80,
82,
83,
84,
84,
86,
86,
88,
89,
90,
91,
91,
92,
92,
94,
94,
95,
96,
96,
97,
97,
98,
98,
99,
98,
99,
100,
100,
100,
100,
101,
101,
101,
101,
101,
101,
100,
101,
101,
101,
100,
100,
100,
99,
99,
99,
99,
98,
98,
97,
97,
96,
95,
95,
93,
93,
92,
90,
91,
90,
88,
88,
87,
85,
84,
83,
82,
82,
80,
80,
78,
77,
76,
75,
73,
73,
72,
69,
69,
68,
66,
65,
64,
62,
62,
60,
60,
58,
57,
55,
54,
53,
52,
50,
50,
49,
48,
47,
45,
45,
43,
42,
40,
40,
39,
38,
37,
36,
34,
34,
33,
32,
31,
31,
29,
30,
28,
27,
28,
27,
27,
26,
26,
25,
24,
25,
24,
23,
22,
23,
23,
23,
22,
22,
22,
23,
23,
23,
23,
23,
23,
23,
23,
24,
25,
25,
26,
26,
26,
27,
27,
28,
29,
29,
30,
31,
32,
32,
33,
34,
34,
36,
37,
38,
39,
40,
40,
42,
43,
44,
46,
46,
47,
48,
50,
50,
51,
53,
54,
55,
57,
58,
59,
61,
62,
63,
64,
65,
66,
68,
68,
70,
71,
72,
74,
74,
76,
78,
78,
80,
80,
81,
82,
84,
86,
86,
86,
87,
89,
90,
90,
91,
92,
92,
93,
94,
95,
95,
96,
97,
98,
98,
98,
98,
99,
100,
100,
100,
100,
100,
101,
101,
100,
101,
101,
101,
101,
101,
100,
100,
100,
100,
99,
100,
99,
99,
98,
98,
97,
97,
96,
94,
95,
93,
93,
93,
92,
91,
90,
89,
88,
87,
86,
86,
85,
84,
83,
82,
80,
80,
78,
77,
76,
75,
73,
72,
71,
70,
69,
67,
66,
65,
64,
62,
62,
60,
59,
58,
57,
56,
54,
53,
51,
50,
50,
48,
48,
47,
45,
44,
42,
42,
41,
39,
38,
38,
37,
36,
34,
34,
33,
32,
31,
31,
30,
29,
28,
28,
27,
27,
26,
26,
25,
25,
25,
24,
24,
23,
23,
23,
22,
23,
22,
23,
23,
22,
22,
22,
23,
23,
23,
23,
23,
24,
25,
25,
26,
25,
26,
26,
28,
28,
28,
29,
30,
30,
32,
32,
33,
34,
34,
36,
37,
38,
38,
40,
41,
41,
42,
44,
45,
47,
48,
49,
49,
51,
51,
53,
54,
55,
57,
58,
60,
60,
62,
62,
64,
65,
66,
68,
69,
70,
72,
73,
74,
74,
76,
77,
78,
79,
81,
82,
83,
84,
84,
85,
87,
87,
89,
90,
90,
91,
92,
93,
93,
94,
95,
95,
96,
97,
97,
98,
99,
98,
99,
99,
99,
101,
100,
101,
100,
101,
101,
101,
101,
101,
101,
101,
101,
100,
100,
100,
100,
99,
99,
98,
98,
98,
98,
97,
96,
95,
94,
94,
94,
92,
92,
92,
90,
90,
88,
88,
87,
86,
84,
84,
82,
82,
81,
80,
78,
78,
76,
76,
74,
73,
70,
70,
69,
68,
66,
65,
64,
62,
62,
60,
59,
58,
57,
55,
54,
52,
51,
51,
50,
48,
47,
46,
46,
44,
42,
42,
42,
40,
39,
38,
37,
36,
35,
34,
34,
32,
32,
30,
30,
29,
28,
28,
28,
27,
26,
26,
26,
25,
24,
24,
24,
23,
23,
23,
23,
22,
22,
23,
22,
22,
22,
23,
23,
23,
22,
24,
23,
24,
25,
26,
25,
26,
26,
27,
27,
28,
29,
29,
30,
31,
31,
33,
34,
34,
35,
35,
37,
38,
38,
40,
40,
42,
43,
44,
46,
46,
47,
48,
49,
50,
52,
53,
54,
55,
57,
58,
59,
60,
61,
63,
64,
65,
67,
68,
69,
70,
72,
73,
74,
74,
77,
77,
78,
79,
81,
82,
82,
84,
85,
85,
87,
88,
89,
90,
91,
91,
92,
93,
94,
95,
96,
96,
97,
97,
98,
97,
98,
99,
99,
99,
100,
101,
101,
100,
101,
100,
100,
101,
101,
101,
101,
101,
100,
100,
101,
100,
100,
99,
99,
99,
98,
98,
97,
97,
96,
96,
95,
94,
93,
93,
92,
91,
89,
90,
88,
87,
87,
85,
85,
84,
82,
81,
81,
80,
78,
78,
76,
75,
74,
73,
71,
70,
70,
68,
66,
65,
64,
63,
62,
60,
59,
58,
56,
55,
54,
53,
52,
50,
49,
48,
48,
46,
46,
45,
43,
42,
41,
40,
39,
37,
37,
36,
35,
34,
33,
32,
31,
31,
30,
29,
29,
28,
27,
27,
26,
26,
26,
25,
25,
24,
23,
23,
23,
23,
22,
23,
23,
22,
23,
22,
22,
22,
23,
22,
23,
23,
23,
24,
24,
25,
25,
26,
26,
26,
27,
28,
28,
29,
30,
30,
32,
33,
34,
34,
35,
36,
36,
38,
39,
39,
41,
42,
42,
44,
45,
46,
47,
49,
50,
